"","CU_INDEX","FULL_CU_IN","SPECIES_QUALIFIED","CU_NAME","BioStat","BiolStatProb","EnhLvls","DataQuality"
"1","1","CK-001","Chinook","Okanagan_1.x",NA,NA,"None",0
"2","2","CK-002","Chinook","Boundary Bay_FA_0.3",NA,NA,"High",0
"3","3","CK-003","Chinook","Lower Fraser River_FA_0.3",NA,NA,"Low",14
"4","4","CK-004","Chinook","Lower Fraser River_SP_1.3",NA,NA,"Low",0
"5","5","CK-005","Chinook","Lower Fraser River-Upper Pitt_SU_1.3",NA,NA,"Low",0
"6","6","CK-006","Chinook","Lower Fraser River_SU_1.3",NA,NA,NA,0
"7","7","CK-007","Chinook","Maria Slough_SU_0.3",NA,NA,"High",0
"8","8","CK-008","Chinook","Middle Fraser-Fraser Canyon_SP_1.3",NA,NA,"None",0
"9","9","CK-009","Chinook","Middle Fraser River-Portage_FA_1.3",NA,NA,"None",0
"10","10","CK-010","Chinook","Middle Fraser River_SP_1.3",NA,NA,"Moderate",8
"11","11","CK-011","Chinook","Middle Fraser River_SU_1.3",NA,NA,NA,0
"12","12","CK-012","Chinook","Upper Fraser River_SP_1.3",NA,NA,"Low",7
"13","13","CK-013","Chinook","South Thompson_SU_0.3",NA,NA,"Moderate",13
"14","14","CK-014","Chinook","South Thompson_SU_1.3",NA,NA,"Low",20
"15","15","CK-015","Chinook","Shuswap River_SU_0.3",NA,NA,"Moderate",14
"16","16","CK-016","Chinook","South Thompson-Bessette Creek_SU_1.2",NA,NA,"None",8
"17","17","CK-017","Chinook","Lower Thompson_SP_1.2",NA,NA,"Moderate",13
"18","18","CK-018","Chinook","North Thompson_SP_1.3",NA,NA,"Low",10
"19","19","CK-019","Chinook","North Thompson_SU_1.3",NA,NA,NA,0
"20","20","CK-020","Chinook","Southern Mainland-Georgia Strait_FA_0.x",NA,NA,"High",0
"21","21","CK-021","Chinook","East Vancouver Island-Goldstream_FA_0.x",NA,NA,"High",5
"22","22","CK-022","Chinook","East Vancouver Island-Cowichan and Koksilah_FA_0.x",NA,NA,"High",15
"23","23","CK-023","Chinook","East Vancouver Island-Nanaimo_SP_1.x",NA,NA,"None",0
"24","25","CK-025","Chinook","East Vancouver Island-Nanaimo and Chemainus_FA_0.x",NA,NA,"High",13
"25","27","CK-027","Chinook","East Vancouver Island-Qualicum and Puntledge_FA_0.x",NA,NA,"High",13
"26","28","CK-028","Chinook","Southern Mainland-Southern Fjords_FA_0.x",NA,NA,"High",5
"27","29","CK-029","Chinook","East Vancouver Island-North_FA_0.x",NA,NA,"High",5
"28","31","CK-031","Chinook","West Vancouver Island-South_FA_0.x",NA,NA,"High",7
"29","32","CK-032","Chinook","West Vancouver Island-Nootka and Kyuquot_FA_0.x",NA,NA,"High",8
"30","33","CK-033","Chinook","West Vancouver Island-North_FA_0.x",NA,NA,NA,0
"31","34","CK-034","Chinook","Homathko_SU_x.x",NA,NA,"None",0
"32","35","CK-035","Chinook","Klinaklini_SU_1.3",NA,NA,"None",0
"33","36","CK-036","Chinook","Docee",NA,NA,"None",0
"34","37","CK-037","Chinook","Rivers Inlet","sr_yellow_prob","0.39","Low",8
"35","38","CK-038","Chinook","Wannock","sr_green_prob","0.91","Moderate",9
"36","39","CK-039","Chinook","Bella Coola-Bentinck","sr_green_prob","1","High",13
"37","40","CK-040","Chinook","Dean River","sr_green_prob","1","None",10
"38","41","CK-041","Chinook","North and Central Coast-late timing",NA,NA,"None",0
"39","42","CK-042","Chinook","North and Central Coast-early timing","sr_green_prob","1","Moderate",7
"40","43","CK-043","Chinook","Haida Gwaii-North",NA,NA,NA,0
"41","44","CK-044","Chinook","Haida Gwaii-East",NA,NA,NA,0
"42","45","CK-045","Chinook","Skeena Estuary",NA,NA,"Moderate",0
"43","46","CK-046","Chinook","Ecstall",NA,NA,"None",0
"44","48","CK-048","Chinook","Lower Skeena",NA,NA,"Low",10
"45","49","CK-049","Chinook","Kalum_early timing",NA,NA,"Low",0
"46","50","CK-050","Chinook","Kalum_late timing",NA,NA,"High",15
"47","51","CK-051","Chinook","Lakelse",NA,NA,"Low",0
"48","53","CK-053","Chinook","Middle Skeena-large lakes",NA,NA,"High",18
"49","54","CK-054","Chinook","Middle Skeena-mainstem tributaries",NA,NA,"Low",12
"50","55","CK-055","Chinook","Upper Bulkley River",NA,NA,"High",0
"51","56","CK-056","Chinook","Upper Skeena",NA,NA,"None",0
"52","57","CK-057","Chinook","Portland Sound-Observatory Inlet-Lower Nass","sr_green_prob","0.94","Low",0
"53","58","CK-058","Chinook","Upper Nass","sr_green_prob","0.55","None",0
"54","59","CK-059","Chinook","Unuk",NA,NA,NA,0
"55","60","CK-060","Chinook","Stikine_early timing",NA,NA,NA,0
"56","61","CK-061","Chinook","Stikine_late timing",NA,NA,NA,0
"57","62","CK-062","Chinook","Whiting",NA,NA,NA,0
"58","63","CK-063","Chinook","Taku_early timing",NA,NA,NA,0
"59","64","CK-064","Chinook","Taku_mid timing",NA,NA,NA,0
"60","65","CK-065","Chinook","Taku_late timing",NA,NA,NA,0
"61","66","CK-066","Chinook","Lynn Canal",NA,NA,NA,0
"62","67","CK-067","Chinook","Alsek",NA,NA,NA,0
"63","68","CK-068","Chinook","Yukon River-Teslin headwaters",NA,NA,NA,0
"64","69","CK-069","Chinook","Upper Yukon River",NA,NA,NA,0
"65","70","CK-070","Chinook","Big Salmon",NA,NA,NA,0
"66","71","CK-071","Chinook","Nordenskiold",NA,NA,NA,0
"67","72","CK-072","Chinook","Pelly",NA,NA,NA,0
"68","73","CK-073","Chinook","Middle Yukon River and tributaries",NA,NA,NA,0
"69","74","CK-074","Chinook","Stewart",NA,NA,NA,0
"70","75","CK-075","Chinook","White and tributaries",NA,NA,NA,0
"71","76","CK-076","Chinook","Northern Yukon River and tributaries",NA,NA,NA,0
"72","77","CK-077","Chinook","Salmon Fork",NA,NA,NA,0
"73","78","CK-078","Chinook","Porcupine",NA,NA,NA,0
"74","79","CK-079","Chinook","Old Crow",NA,NA,NA,0
"75","80","CK-080","Chinook","Zymoetz",NA,NA,"None",0
"76","81","CK-081","Chinook","Sicintine",NA,NA,"None",0
"77","82","CK-082","Chinook","Upper Adams River_SU_x.x",NA,NA,"None",0
"78","83","CK-083","Chinook","East Vancouver Island-Georgia Strait_SU_0.3",NA,NA,"High",14
"79","9002","CK-9002","Chinook","(P)Hatchery Exclusion-Pallant Creek",NA,NA,NA,0
"80","9004","CK-9004","Chinook","Fraser-Miscellaneous<<Bin>>",NA,NA,NA,0
"81","9005","CK-9005","Chinook","South-Miscellaneous<<Bin>>",NA,NA,NA,0
"82","9006","CK-9006","Chinook","Fraser-Cross-CU Supplementation Exclusion<<Bin>>",NA,NA,NA,0
"83","9007","CK-9007","Chinook","Southern BC-Cross-CU Supplementation Exclusion<<Bin>>",NA,NA,NA,0
"84","9008","CK-9008","Chinook","Fraser-Harrison fall transplant_FA_0.3<<Bin>>",NA,NA,NA,0
"85","2","CM-002","Chum","Lower Fraser",NA,NA,"Moderate",5
"86","3","CM-003","Chum","Howe Sound-Burrard Inlet","sr_green_prob","","Moderate",0
"87","4","CM-004","Chum","Georgia Strait","sr_green_prob","","Moderate",12
"88","5","CM-005","Chum","Northeast Vancouver Island","sr_green_prob","1","Moderate",9
"89","6","CM-006","Chum","Loughborough","sr_green_prob","","Low",6
"90","7","CM-007","Chum","Bute Inlet",NA,NA,"Moderate",0
"91","8","CM-008","Chum","Southern Coastal Streams","sr_green_prob","","Low",4
"92","9","CM-009","Chum","Upper Knight",NA,NA,"None",0
"93","10","CM-010","Chum","Southwest Vancouver Island","sr_green_prob","0.99","Moderate",10
"94","11","CM-011","Chum","Northwest Vancouver Island",NA,NA,NA,0
"95","12","CM-012","Chum","Smith Inlet","sr_red_prob","0.93","None",11
"96","13","CM-013","Chum","Rivers Inlet","sr_red_prob","1","None",7
"97","14","CM-014","Chum","Wannock",NA,NA,"Low",0
"98","15","CM-015","Chum","Spiller-Fitz Hugh-Burke","sr_green_prob","0.97","Moderate",9
"99","16","CM-016","Chum","Bella Coola-Dean Rivers","sr_green_prob","0.99","Moderate",12
"100","17","CM-017","Chum","Bella Coola River_late",NA,NA,"Moderate",0
"101","18","CM-018","Chum","Hecate Lowlands","sr_yellow_prob","0.84","Moderate",9
"102","19","CM-019","Chum","Mussel-Kynoch","sr_green_prob","0.56","None",12
"103","20","CM-020","Chum","Douglas-Gardner","sr_green_prob","0.62","Moderate",11
"104","21","CM-021","Chum","East HG",NA,NA,NA,0
"105","22","CM-022","Chum","Skidegate",NA,NA,NA,0
"106","23","CM-023","Chum","West Haida Gwaii",NA,NA,NA,0
"107","24","CM-024","Chum","North Haida Gwaii",NA,NA,NA,0
"108","25","CM-025","Chum","North Haida Gwaii-Stanley Creek",NA,NA,NA,0
"109","26","CM-026","Chum","Skeena Estuary",NA,NA,"Moderate",6
"110","27","CM-027","Chum","Lower Skeena",NA,NA,"Low",10
"111","28","CM-028","Chum","Middle Skeena",NA,NA,"None",10
"112","29","CM-029","Chum","Upper Skeena<<Deleted>>",NA,NA,"None",0
"113","30","CM-030","Chum","Portland Inlet","sr_green_prob","0.88","Low",0
"114","31","CM-031","Chum","Lower Nass",NA,NA,"None",0
"115","32","CM-032","Chum","Portland Canal-Observatory","sr_yellow_prob","0.56","Low",0
"116","33","CM-033","Chum","Unuk",NA,NA,NA,0
"117","34","CM-034","Chum","Lower Stikine",NA,NA,NA,0
"118","35","CM-035","Chum","Whiting",NA,NA,NA,0
"119","36","CM-036","Chum","Taku",NA,NA,NA,0
"120","37","CM-037","Chum","Lynn Canal",NA,NA,NA,0
"121","38","CM-038","Chum","Teslin",NA,NA,NA,0
"122","39","CM-039","Chum","Lower Liard",NA,NA,NA,0
"123","40","CM-040","Chum","Peel River",NA,NA,NA,0
"124","42","CM-042","Chum","Middle Yukon River",NA,NA,NA,0
"125","43","CM-043","Chum","North Yukon River",NA,NA,NA,0
"126","44","CM-044","Chum","White River",NA,NA,NA,0
"127","45","CM-045","Chum","Donjek-Kluane",NA,NA,NA,0
"128","46","CM-046","Chum","Porcupine River",NA,NA,NA,0
"129","47","CM-047","Chum","Old Crow<<Deleted>>",NA,NA,NA,0
"130","48","CM-048","Chum","Stewart<<VREQ[Current]>>",NA,NA,NA,0
"131","9004","CM-9004","Chum","Interior Fraser<<bin>>",NA,NA,NA,0
"132","1","CO-001","Coho","Boundary Bay",NA,NA,"High",0
"133","4","CO-004","Coho","Lillooet",NA,NA,"Moderate",0
"134","5","CO-005","Coho","Fraser Canyon",NA,NA,"Moderate",8
"135","7","CO-007","Coho","Lower Thompson",NA,NA,"Moderate",10
"136","8","CO-008","Coho","South Thompson",NA,NA,"Moderate",7
"137","9","CO-009","Coho","North Thompson",NA,NA,"Moderate",8
"138","10","CO-010","Coho","Howe Sound-Burrard Inlet",NA,NA,"Moderate",0
"139","11","CO-011","Coho","Georgia Strait Mainland",NA,NA,"Moderate",5
"140","12","CO-012","Coho","Southern Coastal Streams-Queen Charlotte Strait-Johnstone Strait-Southern Fjords",NA,NA,"Moderate",4
"141","13","CO-013","Coho","East Vancouver Island-Georgia Strait",NA,NA,"Moderate",5
"142","14","CO-014","Coho","East Vancouver Island-Johnstone Strait-Southern Fjords",NA,NA,"Moderate",8
"143","15","CO-015","Coho","Nahwitti Lowland",NA,NA,"Moderate",9
"144","16","CO-016","Coho","Juan de Fuca-Pachena",NA,NA,"Moderate",6
"145","17","CO-017","Coho","West Vancouver Island",NA,NA,"Moderate",6
"146","18","CO-018","Coho","Clayoquot",NA,NA,"Moderate",6
"147","19","CO-019","Coho","Homathko-Klinaklini Rivers",NA,NA,"None",0
"148","20","CO-020","Coho","Smith Inlet","sr_green_prob","0.91","None",10
"149","21","CO-021","Coho","Rivers Inlet",NA,NA,"Moderate",0
"150","22","CO-022","Coho","Bella Coola-Dean Rivers","sr_green_prob","0.75","Moderate",11
"151","23","CO-023","Coho","Haida Gwaii-East",NA,NA,NA,0
"152","24","CO-024","Coho","Haida Gwaii-West",NA,NA,NA,0
"153","25","CO-025","Coho","Haida Gwaii-Graham Island Lowlands",NA,NA,NA,0
"154","26","CO-026","Coho","Mussel-Kynoch","sr_green_prob","0.61","None",7
"155","27","CO-027","Coho","Hecate Strait Mainland","sr_green_prob","1","Moderate",6
"156","29","CO-029","Coho","Douglas Channel-Kitimat Arm","sr_green_prob","1","Moderate",7
"157","30","CO-030","Coho","Northern Coastal Streams","sr_green_prob","1","Low",11
"158","31","CO-031","Coho","Skeena Estuary",NA,NA,"Moderate",0
"159","32","CO-032","Coho","Lower Skeena",NA,NA,"Moderate",9
"160","33","CO-033","Coho","Middle Skeena",NA,NA,"Moderate",8
"161","34","CO-034","Coho","Upper Skeena",NA,NA,"None",14
"162","35","CO-035","Coho","Lower Nass","sr_green_prob","1","Low",0
"163","36","CO-036","Coho","Upper Nass","sr_green_prob","1","None",0
"164","37","CO-037","Coho","Portland Sound-Observatory Inlet-Portland Canal","sr_green_prob","1","Low",0
"165","38","CO-038","Coho","Unuk River",NA,NA,NA,0
"166","39","CO-039","Coho","Lower Stikine",NA,NA,NA,0
"167","40","CO-040","Coho","Whiting River",NA,NA,NA,0
"168","41","CO-041","Coho","Taku-late timing",NA,NA,NA,0
"169","42","CO-042","Coho","Taku-mid timing",NA,NA,NA,0
"170","43","CO-043","Coho","Taku-early timing",NA,NA,NA,0
"171","44","CO-044","Coho","Lynn Canal",NA,NA,NA,0
"172","45","CO-045","Coho","Alsek River",NA,NA,NA,0
"173","46","CO-046","Coho","Porcupine",NA,NA,NA,0
"174","47","CO-047","Coho","Lower Fraser",NA,NA,"Moderate",0
"175","48","CO-048","Coho","Interior Fraser",NA,NA,"None",7
"176","1","PKE-001","Pink (Even)","Georgia Strait","sr_red_prob","0.66","Moderate",15
"177","2","PKE-002","Pink (Even)","West Vancouver Island",NA,NA,"Low",0
"178","3","PKE-003","Pink (Even)","Northwest Vancouver Island",NA,NA,"Low",0
"179","4","PKE-004","Pink (Even)","Southern Fjords","sr_yellow_prob","0.68","Moderate",12
"180","5","PKE-005","Pink (Even)","Hecate Lowlands","sr_red_prob","0.73","None",9
"181","6","PKE-006","Pink (Even)","Hecate Strait-Fjords","sr_green_prob","0.97","None",10
"182","7","PKE-007","Pink (Even)","Nass-Skeena Estuary",NA,NA,"Low",10
"183","8","PKE-008","Pink (Even)","Middle-Upper Skeena",NA,NA,"None",9
"184","9","PKE-009","Pink (Even)","North Haida Gwaii",NA,NA,NA,0
"185","10","PKE-010","Pink (Even)","East Haida Gwaii",NA,NA,NA,0
"186","11","PKE-011","Pink (Even)","West Haida Gwaii",NA,NA,NA,0
"187","12","PKE-012","Pink (Even)","Upper Nass",NA,NA,"None",0
"188","13","PKE-013","Pink (Even)","Transboundary Fjords",NA,NA,NA,0
"189","9005","PKE-9005","Pink (Even)","Fraser River<<bin>>",NA,NA,NA,0
"190","1","PKO-001","Pink (Odd)","Fraser River","sr_red_prob","0.88","Moderate",20
"191","2","PKO-002","Pink (Odd)","East Howe Sound-Burrard Inlet","sr_green_prob","0.42","Moderate",3
"192","3","PKO-003","Pink (Odd)","Georgia Strait","sr_green_prob","0.4","Moderate",14
"193","4","PKO-004","Pink (Odd)","East Vancouver Island-Johnstone Strait","sr_green_prob","0.74","Moderate",15
"194","5","PKO-005","Pink (Odd)","Nahwitti","sr_yellow_prob","0.51","Moderate",13
"195","6","PKO-006","Pink (Odd)","West Vancouver Island",NA,NA,"None",0
"196","7","PKO-007","Pink (Odd)","Southern Fjords","sr_green_prob","0.95","None",9
"197","8","PKO-008","Pink (Odd)","Homathko-Klinaklini-Smith-Rivers-Bella Coola-Dean","sr_green_prob","0.99","Low",5
"198","9","PKO-009","Pink (Odd)","East Haida Gwaii",NA,NA,NA,0
"199","10","PKO-010","Pink (Odd)","North Haida Gwaii",NA,NA,NA,0
"200","11","PKO-011","Pink (Odd)","West Haida Gwaii",NA,NA,NA,0
"201","12","PKO-012","Pink (Odd)","Hecate Strait-Lowlands","sr_red_prob","0.55","None",9
"202","13","PKO-013","Pink (Odd)","Hecate Strait-Fjords","sr_green_prob","0.91","None",10
"203","14","PKO-014","Pink (Odd)","Nass-Skeena Estuary",NA,NA,"Low",9
"204","15","PKO-015","Pink (Odd)","Lower Skeena",NA,NA,"None",9
"205","16","PKO-016","Pink (Odd)","Middle and Upper Skeena",NA,NA,"None",9
"206","17","PKO-017","Pink (Odd)","Nass-Portland-Observatory","sr_green_prob","0.99","None",0
"207","18","PKO-018","Pink (Odd)","Upper Nass",NA,NA,"None",0
"208","19","PKO-019","Pink (Odd)","Transboundary Fjords",NA,NA,NA,0
"209","L-01-01","SEL-01-001","Lake Sockeye","Osoyoos",NA,NA,"None",0
"210","L-03-01","SEL-03-001","Lake Sockeye","Chilliwack_Early Summer",NA,NA,"None",13
"211","L-03-02","SEL-03-002","Lake Sockeye","Cultus_Late",NA,NA,"High",20
"212","L-03-03","SEL-03-003","Lake Sockeye","Harrison-downstream migrating_Late","sr_green_prob","","None",13
"213","L-03-04","SEL-03-004","Lake Sockeye","Harrison-upstream migrating_Late","sr_red_prob","0.95","None",18
"214","L-03-05","SEL-03-005","Lake Sockeye","Pitt_Early Summer","sr_green_prob","0.54","High",18
"215","L-03-07","SEL-03-007","Lake Sockeye","Alouette_Early Summer<<Extirpated>>","sr_green_prob","",NA,0
"216","L-03-xx","SEL-03-805","Lake Sockeye","Fraser River migratory counts<<Bin>>",NA,NA,NA,0
"217","L-04-01","SEL-04-001","Lake Sockeye","Lillooet/Harrison_Late","sr_red_prob","1","None",19
"218","L-05-02","SEL-05-002","Lake Sockeye","Nahatlatch_Early Summer","sr_green_prob","","None",12
"219","L-06-01","SEL-06-001","Lake Sockeye","Anderson/Seton_Early Summer","sr_red_prob","0.78","High",19
"220","L-06-02","SEL-06-002","Lake Sockeye","Chilko_Early Summer",NA,NA,"None",0
"221","L-06-03","SEL-06-003","Lake Sockeye","Chilko_Summer","sr_green_prob","0.57","None",19
"222","L-06-04","SEL-06-004","Lake Sockeye","Francois-First Run_Early Summer<<VREQ[Extirpated]>>",NA,NA,NA,0
"223","L-06-05","SEL-06-005","Lake Sockeye","Francois-Second Run_Early Summer<<VREQ[Extirpated]>>",NA,NA,NA,0
"224","L-06-06","SEL-06-006","Lake Sockeye","Fraser_Early Summer<<Extirpated>>","sr_green_prob","","None",0
"225","L-06-07","SEL-06-007","Lake Sockeye","Francois/Fraser_Summer","sr_yellow_prob","0.52","Low",19
"226","L-06-10","SEL-06-010","Lake Sockeye","Quesnel_Summer",NA,NA,"Moderate",18
"227","L-06-11","SEL-06-011","Lake Sockeye","Seton_Late<<Bin>>","sr_red_prob","0.98","None",5
"228","L-06-13","SEL-06-013","Lake Sockeye","Takla/Trembleur/Stuart_Summer",NA,NA,"None",17
"229","L-06-14","SEL-06-014","Lake Sockeye","Takla/Trembleur_Early Stuart",NA,NA,"None",18
"230","L-06-16","SEL-06-016","Lake Sockeye","Taseko_Early Summer","sr_green_prob","","None",12
"231","L-06-18","SEL-06-018","Lake Sockeye","Cariboo_Summer<<VREQ[Bin]>>",NA,NA,NA,0
"232","L-06-20","SEL-06-020","Lake Sockeye","Nadina/Francois_Early Summer<<VREQ[Bin]>>","sr_yellow_prob","0.87","None",19
"233","L-06-21","SEL-06-021","Lake Sockeye","Upper White Road complex<<VREQ[Bin]>>",NA,NA,NA,0
"234","L-06-22","SEL-06-022","Lake Sockeye","Tumuch/Slim<<VREQ[Bin]>>",NA,NA,NA,0
"235","L-06-23","SEL-06-023","Lake Sockeye","Salmon<<VREQ[Bin]>>",NA,NA,NA,0
"236","L-06-24","SEL-06-024","Lake Sockeye","Ahbau<<VREQ[Bin]>>",NA,NA,NA,0
"237","L-06-25","SEL-06-025","Lake Sockeye","Eaglet<<VREQ[Bin]>>",NA,NA,NA,0
"238","L-06-26","SEL-06-026","Lake Sockeye","Narrow<<VREQ[Bin]>>",NA,NA,NA,0
"239","L-06-27","SEL-06-027","Lake Sockeye","Stony/Rond<<VREQ[Bin]>>",NA,NA,NA,0
"240","L-07-01","SEL-07-001","Lake Sockeye","Bowron_Early Summer","sr_red_prob","0.99","None",17
"241","L-07-02","SEL-07-002","Lake Sockeye","Indian/Kruger_Early Summer<<VREQ[Bin]>>",NA,NA,NA,0
"242","L-07-03","SEL-07-003","Lake Sockeye","Hansard<<VREQ[Bin]>>",NA,NA,NA,0
"243","L-09-02","SEL-09-002","Lake Sockeye","Shuswap_Early Summer",NA,NA,"Low",5
"244","L-09-03","SEL-09-003","Lake Sockeye","Shuswap Complex_Late",NA,NA,"None",17
"245","L-09-xx","SEL-09-912","Lake Sockeye","Adams and Momich Lakes_Early Summer<<Bin>>","sr_green_prob","","None",0
"246","L-10-01","SEL-10-001","Lake Sockeye","Kamloops_Early Summer","sr_yellow_prob","0.63","None",17
"247","L-10-03","SEL-10-003","Lake Sockeye","North Barriere_Early Summer<<Bin>>","sr_yellow_prob","0.91","None",18
"248","L-11-01","SEL-11-001","Lake Sockeye","Fulmore",NA,NA,"None",0
"249","L-11-02","SEL-11-002","Lake Sockeye","Heydon",NA,NA,"None",0
"250","L-11-03","SEL-11-003","Lake Sockeye","Kakweiken",NA,NA,"None",0
"251","L-11-04","SEL-11-004","Lake Sockeye","Loose",NA,NA,"None",0
"252","L-11-05","SEL-11-005","Lake Sockeye","Mackenzie",NA,NA,"None",8
"253","L-11-06","SEL-11-006","Lake Sockeye","Phillips",NA,NA,"None",13
"254","L-11-07","SEL-11-007","Lake Sockeye","Sakinaw",NA,NA,"High",15
"255","L-11-09","SEL-11-009","Lake Sockeye","Tzoonie",NA,NA,"None",0
"256","L-11-10","SEL-11-010","Lake Sockeye","Village Bay<<VREQ[Extirpated]>>",NA,NA,NA,0
"257","L-11-11","SEL-11-011","Lake Sockeye","Pack<<VREQ[Bin]>>",NA,NA,NA,0
"258","L-11-12","SEL-11-012","Lake Sockeye","Glendale<<VREQ[Bin]>>",NA,NA,NA,0
"259","L-11-13","SEL-11-013","Lake Sockeye","Lois<<VREQ[Bin]>>",NA,NA,NA,0
"260","L-12-01","SEL-12-001","Lake Sockeye","Ida/Bonanza",NA,NA,"None",0
"261","L-12-02","SEL-12-002","Lake Sockeye","Nahwitti",NA,NA,"None",0
"262","L-12-03","SEL-12-003","Lake Sockeye","Nimpkish","sr_green_prob","","Low",14
"263","L-12-05","SEL-12-005","Lake Sockeye","Quatse",NA,NA,"None",0
"264","L-12-06","SEL-12-006","Lake Sockeye","Schoen",NA,NA,"None",0
"265","L-12-07","SEL-12-007","Lake Sockeye","Shushartie",NA,NA,"None",0
"266","L-12-08","SEL-12-008","Lake Sockeye","Woss",NA,NA,"None",0
"267","L-12-09","SEL-12-009","Lake Sockeye","Vernon",NA,NA,"None",0
"268","L-13-01","SEL-13-001","Lake Sockeye","Alice",NA,NA,"None",0
"269","L-13-02","SEL-13-002","Lake Sockeye","Canoe Creek",NA,NA,"None",0
"270","L-13-03","SEL-13-003","Lake Sockeye","Cecilia",NA,NA,"None",0
"271","L-13-04","SEL-13-004","Lake Sockeye","Cheewat",NA,NA,"None",0
"272","L-13-05","SEL-13-005","Lake Sockeye","Clayoquot",NA,NA,"None",0
"273","L-13-06","SEL-13-006","Lake Sockeye","Deserted",NA,NA,"None",0
"274","L-13-07","SEL-13-007","Lake Sockeye","Fairy",NA,NA,"Low",0
"275","L-13-08","SEL-13-008","Lake Sockeye","Great Central","sr_green_prob","0.93","None",3
"276","L-13-09","SEL-13-009","Lake Sockeye","Henderson",NA,NA,"None",12
"277","L-13-10","SEL-13-010","Lake Sockeye","Hesquiat",NA,NA,"None",1
"278","L-13-11","SEL-13-011","Lake Sockeye","Hobiton",NA,NA,"None",0
"279","L-13-12","SEL-13-012","Lake Sockeye","Jansen",NA,NA,"None",0
"280","L-13-13","SEL-13-013","Lake Sockeye","Kanim",NA,NA,"None",0
"281","L-13-14","SEL-13-014","Lake Sockeye","Kennedy",NA,NA,"None",0
"282","L-13-15","SEL-13-015","Lake Sockeye","Maggie",NA,NA,"None",0
"283","L-13-16","SEL-13-016","Lake Sockeye","Megin",NA,NA,"None",0
"284","L-13-17","SEL-13-017","Lake Sockeye","Muchalat",NA,NA,"None",0
"285","L-13-18","SEL-13-018","Lake Sockeye","Muriel",NA,NA,"Low",0
"286","L-13-19","SEL-13-019","Lake Sockeye","Nitinat",NA,NA,"None",0
"287","L-13-20","SEL-13-020","Lake Sockeye","O'Connell",NA,NA,"None",0
"288","L-13-21","SEL-13-021","Lake Sockeye","Owossitsa<<VREQ[Bin]>>",NA,NA,NA,0
"289","L-13-22","SEL-13-022","Lake Sockeye","Park River",NA,NA,"None",0
"290","L-13-23","SEL-13-023","Lake Sockeye","Power",NA,NA,"None",0
"291","L-13-25","SEL-13-025","Lake Sockeye","Sproat","sr_green_prob","0.99","None",3
"292","L-13-26","SEL-13-026","Lake Sockeye","William/Brink",NA,NA,"None",0
"293","L-13-xx","SEL-13-806","Lake Sockeye","Great Central/Sproat<<Bin>>",NA,NA,NA,0
"294","L-15-01","SEL-15-001","Lake Sockeye","Long","sr_green_prob","0.88","Low",10
"295","L-15-02","SEL-15-002","Lake Sockeye","Owikeno","sr_red_prob","0.61","Low",10
"296","L-15-03","SEL-15-003","Lake Sockeye","Owikeno<<VREQ[Bin]>>",NA,NA,NA,0
"297","L-15-04","SEL-15-004","Lake Sockeye","Wannock[Owikeno]",NA,NA,"Low",0
"298","L-16-01","SEL-16-001","Lake Sockeye","South Atnarko Lakes","sr_red_prob","1","High",13
"299","L-17-01","SEL-17-001","Lake Sockeye","Ain/Skundale/Ian",NA,NA,NA,0
"300","L-17-02","SEL-17-002","Lake Sockeye","Awun",NA,NA,NA,0
"301","L-17-03","SEL-17-003","Lake Sockeye","Fairfax",NA,NA,NA,0
"302","L-17-04","SEL-17-004","Lake Sockeye","Jalun",NA,NA,NA,0
"303","L-17-05","SEL-17-005","Lake Sockeye","Marian/Eden<<VREQ[Bin]>>",NA,NA,NA,0
"304","L-17-06","SEL-17-006","Lake Sockeye","Mathers",NA,NA,NA,0
"305","L-17-07","SEL-17-007","Lake Sockeye","Mercer",NA,NA,NA,0
"306","L-17-08","SEL-17-008","Lake Sockeye","Skidegate",NA,NA,NA,0
"307","L-17-09","SEL-17-009","Lake Sockeye","Yakoun",NA,NA,NA,0
"308","L-17-10","SEL-17-010","Lake Sockeye","Marie",NA,NA,NA,0
"309","L-17-11","SEL-17-011","Lake Sockeye","Mayer<<VREQ[Bin]>>",NA,NA,NA,0
"310","L-17-12","SEL-17-012","Lake Sockeye","Gudal<<VREQ[Bin]>>",NA,NA,NA,0
"311","L-18-01","SEL-18-001","Lake Sockeye","Backland<<VREQ[Bin]>>","sr_red_prob","1","None",11
"312","L-18-02","SEL-18-002","Lake Sockeye","Canoona","sr_green_prob","1","None",11
"313","L-18-03","SEL-18-003","Lake Sockeye","Dome<<VREQ[Bin]>>",NA,NA,"None",0
"314","L-18-04","SEL-18-004","Lake Sockeye","Evelyn","sr_green_prob","0.84","None",15
"315","L-18-05","SEL-18-005","Lake Sockeye","Kainet Creek","sr_green_prob","0.98","None",13
"316","L-18-06","SEL-18-006","Lake Sockeye","Kimsquit",NA,NA,"None",0
"317","L-18-07","SEL-18-007","Lake Sockeye","Kitkiata",NA,NA,"None",0
"318","L-18-08","SEL-18-008","Lake Sockeye","Kitlope","sr_red_prob","0.69","None",12
"319","L-18-09","SEL-18-009","Lake Sockeye","Pine River",NA,NA,"None",0
"320","L-18-11","SEL-18-011","Lake Sockeye","Whalen<<VREQ[Bin]>>",NA,NA,NA,0
"321","L-19-01","SEL-19-001","Lake Sockeye","Banks",NA,NA,"None",0
"322","L-19-02","SEL-19-002","Lake Sockeye","Bloomfield","sr_red_prob","0.69","None",9
"323","L-19-03","SEL-19-003","Lake Sockeye","Bolton Creek",NA,NA,"None",0
"324","L-19-04","SEL-19-004","Lake Sockeye","Bonilla",NA,NA,"None",0
"325","L-19-05","SEL-19-005","Lake Sockeye","Borrowman Creek<<VREQ[Bin]>>",NA,NA,"None",0
"326","L-19-06","SEL-19-006","Lake Sockeye","Busey Creek<<VREQ[Bin]>>",NA,NA,"None",0
"327","L-19-07","SEL-19-007","Lake Sockeye","Cartwright Creek<<VREQ[Bin]>>",NA,NA,"None",0
"328","L-19-08","SEL-19-008","Lake Sockeye","Chic Chic<<VREQ[Bin]>>",NA,NA,"None",0
"329","L-19-09","SEL-19-009","Lake Sockeye","Tuwartz",NA,NA,NA,0
"330","L-19-10","SEL-19-010","Lake Sockeye","Fannie Cove",NA,NA,"None",0
"331","L-19-11","SEL-19-011","Lake Sockeye","Curtis Inlet","sr_red_prob","0.88","Moderate",11
"332","L-19-12","SEL-19-012","Lake Sockeye","Dallain Creek<<VREQ[Bin]>>",NA,NA,"None",0
"333","L-19-13","SEL-19-013","Lake Sockeye","Deer<<VREQ[Bin]>>",NA,NA,"None",0
"334","L-19-14","SEL-19-014","Lake Sockeye","Devon","sr_green_prob","0.99","None",13
"335","L-19-15","SEL-19-015","Lake Sockeye","Douglas Creek<<VREQ[Bin]>>",NA,NA,"None",0
"336","L-19-16","SEL-19-016","Lake Sockeye","Elizabeth<<VREQ[Bin]>>",NA,NA,"None",0
"337","L-19-17","SEL-19-017","Lake Sockeye","Elsie/Hoy",NA,NA,"None",0
"338","L-19-18","SEL-19-018","Lake Sockeye","End Hill Creek",NA,NA,"None",0
"339","L-19-19","SEL-19-019","Lake Sockeye","Evinrude Inlet<<VREQ[Bin]>>",NA,NA,"None",0
"340","L-19-20","SEL-19-020","Lake Sockeye","Freeda/Brodie",NA,NA,"None",0
"341","L-19-21","SEL-19-021","Lake Sockeye","Hartley Bay<<VREQ[Bin]>>","sr_green_prob","0.95","None",15
"342","L-19-22","SEL-19-022","Lake Sockeye","Hevenor Inlet<<VREQ[Bin]>>",NA,NA,"None",0
"343","L-19-23","SEL-19-023","Lake Sockeye","Higgins Lagoon",NA,NA,"None",0
"344","L-19-24","SEL-19-024","Lake Sockeye","Kadjusdis River<<VREQ[Bin]>>","sr_red_prob","0.74","Low",9
"345","L-19-25","SEL-19-025","Lake Sockeye","Kdelmashan Creek",NA,NA,"None",0
"346","L-19-26","SEL-19-026","Lake Sockeye","Keecha","sr_green_prob","0.91","None",11
"347","L-19-27","SEL-19-027","Lake Sockeye","Kent Inlet Lagoon Creek",NA,NA,"None",0
"348","L-19-28","SEL-19-028","Lake Sockeye","Kenzuwash Creeks<<VREQ[Bin]>>",NA,NA,"None",0
"349","L-19-29","SEL-19-029","Lake Sockeye","Keswar Creek<<VREQ[Bin]>>",NA,NA,"None",0
"350","L-19-30","SEL-19-030","Lake Sockeye","Kildidt Creek<<VREQ[Bin]>>",NA,NA,"None",0
"351","L-19-31","SEL-19-031","Lake Sockeye","Kildidt Lagoon Creek",NA,NA,"None",0
"352","L-19-32","SEL-19-032","Lake Sockeye","Kisameet",NA,NA,"None",0
"353","L-19-33","SEL-19-033","Lake Sockeye","Koeye","sr_green_prob","1","None",0
"354","L-19-34","SEL-19-034","Lake Sockeye","Kooryet","sr_green_prob","0.8","None",11
"355","L-19-35","SEL-19-035","Lake Sockeye","Kunsoot River<<VREQ[Bin]>>",NA,NA,"None",0
"356","L-19-36","SEL-19-036","Lake Sockeye","Kwakwa Creek",NA,NA,"None",0
"357","L-19-37","SEL-19-037","Lake Sockeye","Lewis Creek<<VREQ[Bin]>>",NA,NA,"None",0
"358","L-19-38","SEL-19-038","Lake Sockeye","Limestone Creek",NA,NA,"None",0
"359","L-19-39","SEL-19-039","Lake Sockeye","Lowe/Simpson/Weare<<VREQ[Bin]>>","sr_green_prob","1","None",11
"360","L-19-40","SEL-19-040","Lake Sockeye","Mary Cove Creek","sr_red_prob","1","Moderate",8
"361","L-19-41","SEL-19-041","Lake Sockeye","Mcdonald Creek<<VREQ[Bin]>>",NA,NA,"None",0
"362","L-19-42","SEL-19-042","Lake Sockeye","Mcloughlin<<VREQ[Bin]>>",NA,NA,"None",0
"363","L-19-43","SEL-19-043","Lake Sockeye","Mikado","sr_green_prob","1","None",10
"364","L-19-44","SEL-19-044","Lake Sockeye","Monckton Inlet Creek<<VREQ[Bin]>>",NA,NA,"None",0
"365","L-19-45","SEL-19-045","Lake Sockeye","Namu","sr_green_prob","0.87","None",12
"366","L-19-46","SEL-19-046","Lake Sockeye","Port John","sr_green_prob","1","None",14
"367","L-19-47","SEL-19-047","Lake Sockeye","Powles Creek",NA,NA,"None",0
"368","L-19-48","SEL-19-048","Lake Sockeye","Price Creek<<VREQ[Bin]>>",NA,NA,"None",0
"369","L-19-49","SEL-19-049","Lake Sockeye","Prudhomme",NA,NA,NA,0
"370","L-19-50","SEL-19-050","Lake Sockeye","Roderick<<VREQ[Bin]>>","sr_red_prob","0.51","High",12
"371","L-19-51","SEL-19-051","Lake Sockeye","Ryan Creek",NA,NA,"None",0
"372","L-19-52","SEL-19-052","Lake Sockeye","Salter",NA,NA,"None",0
"373","L-19-53","SEL-19-053","Lake Sockeye","Scoular/Kilpatrick",NA,NA,"None",0
"374","L-19-54","SEL-19-054","Lake Sockeye","Shawatlan",NA,NA,NA,0
"375","L-19-55","SEL-19-055","Lake Sockeye","Sheneeza Inlet<<VREQ[Bin]>>",NA,NA,"None",0
"376","L-19-56","SEL-19-056","Lake Sockeye","Ship Point Creek<<VREQ[Bin]>>",NA,NA,"None",0
"377","L-19-57","SEL-19-057","Lake Sockeye","Spencer Creek",NA,NA,"None",0
"378","L-19-58","SEL-19-058","Lake Sockeye","Stannard Creek<<VREQ[Bin]>>",NA,NA,"None",0
"379","L-19-59","SEL-19-059","Lake Sockeye","Talamoosa Creek",NA,NA,"None",0
"380","L-19-60","SEL-19-060","Lake Sockeye","Tankeeah River","sr_green_prob","0.96","High",10
"381","L-19-61","SEL-19-061","Lake Sockeye","Treneman Creek<<VREQ[Bin]>>",NA,NA,"None",0
"382","L-19-62","SEL-19-062","Lake Sockeye","Tsimtack Lakes","sr_green_prob","1","None",14
"383","L-19-63","SEL-19-063","Lake Sockeye","Tuno Creek East<<VREQ[Bin]>>",NA,NA,"None",0
"384","L-19-64","SEL-19-064","Lake Sockeye","Tuno Creek West",NA,NA,"None",0
"385","L-19-65","SEL-19-065","Lake Sockeye","Tyler Creek<<VREQ[Bin]>>",NA,NA,"None",0
"386","L-19-66","SEL-19-066","Lake Sockeye","Wale Creek",NA,NA,"None",0
"387","L-19-67","SEL-19-067","Lake Sockeye","Watt Bay<<VREQ[Bin]>>",NA,NA,"None",0
"388","L-19-68","SEL-19-068","Lake Sockeye","West Creek<<VREQ[Bin]>>",NA,NA,"None",0
"389","L-19-69","SEL-19-069","Lake Sockeye","Yaaklele Lagoon<<VREQ[Bin]>>",NA,NA,"None",0
"390","L-19-70","SEL-19-070","Lake Sockeye","Yeo","sr_green_prob","0.95","None",10
"391","L-19-72","SEL-19-072","Lake Sockeye","Sylvia Creek<<VREQ[Bin]>>",NA,NA,NA,0
"392","L-19-73","SEL-19-073","Lake Sockeye","South Bonnila<<VREQ[Bin]>>",NA,NA,NA,0
"393","L-20-01","SEL-20-001","Lake Sockeye","Alastair",NA,NA,"None",15
"394","L-20-02","SEL-20-002","Lake Sockeye","Aldrich",NA,NA,NA,0
"395","L-20-03","SEL-20-003","Lake Sockeye","Dennis",NA,NA,NA,0
"396","L-20-04","SEL-20-004","Lake Sockeye","Ecstall/Lower",NA,NA,"None",0
"397","L-20-05","SEL-20-005","Lake Sockeye","Johnston",NA,NA,"None",0
"398","L-20-06","SEL-20-006","Lake Sockeye","Kitsumkalum",NA,NA,"None",10
"399","L-20-07","SEL-20-007","Lake Sockeye","Lakelse",NA,NA,"High",14
"400","L-20-08","SEL-20-008","Lake Sockeye","Mcdonell",NA,NA,"None",16
"401","L-21-01","SEL-21-001","Lake Sockeye","Atna",NA,NA,NA,0
"402","L-21-02","SEL-21-002","Lake Sockeye","Babine Complex",NA,NA,"High",17
"403","L-21-03","SEL-21-003","Lake Sockeye","Bulkley",NA,NA,"None",0
"404","L-21-05","SEL-21-005","Lake Sockeye","Kitwancool",NA,NA,"None",18
"405","L-21-06","SEL-21-006","Lake Sockeye","Maxan",NA,NA,NA,0
"406","L-21-07","SEL-21-007","Lake Sockeye","Morice",NA,NA,"None",17
"407","L-21-09","SEL-21-009","Lake Sockeye","Stephens",NA,NA,"None",10
"408","L-21-11","SEL-21-011","Lake Sockeye","Tahlo/Morrison",NA,NA,"None",14
"409","L-21-12","SEL-21-012","Lake Sockeye","Footsore/Hodder",NA,NA,"None",0
"410","L-21-13","SEL-21-013","Lake Sockeye","Onerka<<VREQ[Bin]>>",NA,NA,NA,0
"411","L-22-01","SEL-22-001","Lake Sockeye","Asitika",NA,NA,"None",14
"412","L-22-02","SEL-22-002","Lake Sockeye","Azuklotz",NA,NA,"None",14
"413","L-22-03","SEL-22-003","Lake Sockeye","Bear",NA,NA,"None",11
"414","L-22-04","SEL-22-004","Lake Sockeye","Damshilgwit",NA,NA,"None",20
"415","L-22-05","SEL-22-005","Lake Sockeye","Johanson",NA,NA,"None",0
"416","L-22-06","SEL-22-006","Lake Sockeye","Kluatantan",NA,NA,"None",0
"417","L-22-07","SEL-22-007","Lake Sockeye","Kluayaz",NA,NA,"None",0
"418","L-22-08","SEL-22-008","Lake Sockeye","Motase",NA,NA,"None",13
"419","L-22-09","SEL-22-009","Lake Sockeye","Sicintine",NA,NA,"None",0
"420","L-22-10","SEL-22-010","Lake Sockeye","Slamgeesh",NA,NA,"None",0
"421","L-22-11","SEL-22-011","Lake Sockeye","Spawning",NA,NA,"None",0
"422","L-22-12","SEL-22-012","Lake Sockeye","Sustut",NA,NA,"None",0
"423","L-23-01","SEL-23-001","Lake Sockeye","Clements<<VREQ[Bin]>>",NA,NA,"None",0
"424","L-23-02","SEL-23-002","Lake Sockeye","Split Mountain/Leverson<<VREQ[Bin]>>",NA,NA,"None",0
"425","L-24-01","SEL-24-001","Lake Sockeye","Bowser",NA,NA,"None",0
"426","L-24-02","SEL-24-002","Lake Sockeye","Damdochax/Wiminasik","sr_yellow_prob","0.72","None",0
"427","L-24-03","SEL-24-003","Lake Sockeye","Fred Wright","sr_yellow_prob","0.95","None",0
"428","L-24-04","SEL-24-004","Lake Sockeye","Kwinageese",NA,NA,"None",0
"429","L-24-05","SEL-24-005","Lake Sockeye","Meziadin","sr_green_prob","0.51","None",0
"430","L-24-06","SEL-24-006","Lake Sockeye","Oweegee",NA,NA,"None",0
"431","L-25-01","SEL-25-001","Lake Sockeye","Border",NA,NA,NA,0
"432","L-26-01","SEL-26-001","Lake Sockeye","Christina",NA,NA,NA,0
"433","L-26-02","SEL-26-002","Lake Sockeye","Tahltan",NA,NA,NA,0
"434","L-26-03","SEL-26-003","Lake Sockeye","Chutine",NA,NA,NA,0
"435","L-27-01","SEL-27-001","Lake Sockeye","Whiting",NA,NA,NA,0
"436","L-28-01","SEL-28-001","Lake Sockeye","Kuthai",NA,NA,NA,0
"437","L-28-02","SEL-28-002","Lake Sockeye","Little Trapper",NA,NA,NA,0
"438","L-28-03","SEL-28-003","Lake Sockeye","Tatsamenie",NA,NA,NA,0
"439","L-28-05","SEL-28-005","Lake Sockeye","King Salmon",NA,NA,NA,0
"440","L-30-01","SEL-30-001","Lake Sockeye","Blanchard",NA,NA,NA,0
"441","L-30-02","SEL-30-002","Lake Sockeye","Klukshu",NA,NA,NA,0
"442","L-30-03","SEL-30-003","Lake Sockeye","Neskatahin",NA,NA,NA,0
"443","R02","SER-002","River Sockeye","Widgeon","sr_green_prob","","None",0
"444","R03","SER-003","River Sockeye","Harrison River","sr_red_prob","0.42","None",19
"445","R05","SER-005","River Sockeye","Middle Fraser<<VREQ[Bin]>>",NA,NA,NA,0
"446","R06","SER-006","River Sockeye","Upper Fraser<<VREQ[Bin]>>",NA,NA,NA,0
"447","R08","SER-008","River Sockeye","East Vancouver Island and Georgia Strait",NA,NA,"None",0
"448","R09","SER-009","River Sockeye","Southern Fjords",NA,NA,"None",0
"449","R10","SER-010","River Sockeye","West Vancouver Island",NA,NA,"Low",0
"450","R11","SER-011","River Sockeye","NW Vancouver Island",NA,NA,"None",0
"451","R12","SER-012","River Sockeye","Rivers-Smith Inlets",NA,NA,"None",0
"452","R13","SER-013","River Sockeye","East Haida Gwaii",NA,NA,NA,0
"453","R14","SER-014","River Sockeye","West Haida Gwaii",NA,NA,NA,0
"454","R15","SER-015","River Sockeye","North Haida Gwaii",NA,NA,NA,0
"455","R16","SER-016","River Sockeye","Northern Coastal Fjords",NA,NA,"None",0
"456","R17","SER-017","River Sockeye","Northern Coastal Streams",NA,NA,"None",0
"457","R18","SER-018","River Sockeye","Skeena River",NA,NA,"None",0
"458","R19","SER-019","River Sockeye","Skeena River-high interior",NA,NA,"None",14
"459","R20","SER-020","River Sockeye","Lower Nass-Portland",NA,NA,"None",0
"460","R21","SER-021","River Sockeye","Upper Nass River",NA,NA,"None",0
"461","R22","SER-022","River Sockeye","Northern Transboundary Fjords",NA,NA,NA,0
"462","R23","SER-023","River Sockeye","Chilkat River",NA,NA,NA,0
"463","R24","SER-024","River Sockeye","Alsek River",NA,NA,NA,0
