Location,Species
Bella Coola-Bentinck,Chinook
Dean River,Chinook
North & Central Coast-Early,Chinook
Portland Sound-Observatory Inlet-Lower Nass,Chinook
Rivers Inlet,Chinook
Upper Nass,Chinook
Wannock,Chinook
Bella Coola-Dean Rivers,Chum
Douglas-Gardner,Chum
Georgia Strait,Chum
Hecate Lowlands,Chum
Howe Sound-Burrard Inlet,Chum
Loughborough,Chum
Mussel-Kynoch,Chum
Northeast Vancouver Island,Chum
Northwest Vancouver Island,Chum
Portland Canal-Observatory,Chum
Portland Inlet,Chum
Rivers Inlet,Chum
Smith Inlet,Chum
Southern Coastal Streams,Chum
Southwest & West Vancouver Island,Chum
Spiller-Fitz-Hugh-Burke,Chum
Bella Coola-Dean Rivers,Coho
Brim-Wahoo,Coho
Douglas Channel-Kitimat Arm,Coho
Hecate Strait Mainland,Coho
Lower Nass,Coho
Mussel-Kynoch,Coho
Northern Coastal Streams,Coho
Portland Sound-Observatory Inlet-Portland Canal,Coho
Smith Inlet,Coho
Upper Nass,Coho
Adams-Early Summer,Lake Sockeye
Alouette-Early Summer,Lake Sockeye
Anderson-Seton-Early Summer,Lake Sockeye
Backland,Lake Sockeye
Bloomfield,Lake Sockeye
Bowron-Early Summer,Lake Sockeye
Canoona,Lake Sockeye
Chilko-Summer,Lake Sockeye
Coquitlam-Early Summer,Lake Sockeye
Curtis Inlet,Lake Sockeye
Damdochax,Lake Sockeye
Devon,Lake Sockeye
Evelyn,Lake Sockeye
Francois-Fraser-Summer,Lake Sockeye
Fraser-Early Summer,Lake Sockeye
Fred Wright,Lake Sockeye
Great Central,Lake Sockeye
Harrison-Downstream Migrating-Late,Lake Sockeye
Harrison-Upstream Migrating-Late,Lake Sockeye
Hartley Bay,Lake Sockeye
Kadjusdis River,Lake Sockeye
Kainet Creek,Lake Sockeye
Kamloops-Early Summer,Lake Sockeye
Kawkawa-Late,Lake Sockeye
Keecha,Lake Sockeye
Kitlope,Lake Sockeye
Koeye,Lake Sockeye
Kooryet,Lake Sockeye
Lillooet-Harrison-Late,Lake Sockeye
Long,Lake Sockeye
Lowe/Simpson/Weir,Lake Sockeye
Mary Cove Creek,Lake Sockeye
Meziadin,Lake Sockeye
Mikado,Lake Sockeye
Momich-Early Summer,Lake Sockeye
Nadina-Francois-Early Summer,Lake Sockeye
Nahatlatch-Early Summer,Lake Sockeye
Namu,Lake Sockeye
Nimpkish,Lake Sockeye
North Barriere-Early Summer,Lake Sockeye
North Barriere-Early Summer (de novo),Lake Sockeye
Owikeno,Lake Sockeye
Pitt-Early Summer,Lake Sockeye
Port John,Lake Sockeye
Roderick,Lake Sockeye
Seton-Late (de novo),Lake Sockeye
Seton-Summer,Lake Sockeye
South Atnarko Lakes,Lake Sockeye
Sproat,Lake Sockeye
Tankeeah River,Lake Sockeye
Taseko-Early Summer,Lake Sockeye
Tsimtack/Moore/Roger,Lake Sockeye
Yeo,Lake Sockeye
Georgia Strait (even),Pink (Even)
Hecate Lowlands (even),Pink (Even)
Hecate Strait-Fjords (even),Pink (Even)
Southern Fjords (even),Pink (Even)
East Howe Sound-Burrard Inlet (odd),Pink (Odd)
East Vancouver Island-Johnstone Strait (odd),Pink (Odd)
Fraser River (odd),Pink (Odd)
Georgia Strait (odd),Pink (Odd)
Hecate Strait-Fjords (odd),Pink (Odd)
Hecate Strait-Lowlands (odd),Pink (Odd)
Homathko-Klinaklini-Smith-Rivers-Bella Coola-Dean (odd),Pink (Odd)
Nahwitti (odd),Pink (Odd)
Nass-Portland-Observatory (odd),Pink (Odd)
Southern Fjords (odd),Pink (Odd)
Harrison River (river-type),River Sockeye
Lower Nass-Portland (river-type),River Sockeye
Widgeon (river-type),River Sockeye
