parameter,location,species,year,datavalue
hist_green,Bella Coola-Bentinck,Chinook,,#009900
hist_green,Dean River,Chinook,,#009900
hist_green,North and Central Coast-early timing,Chinook,,#009900
hist_green,Portland Sound-Observatory Inlet-Lower Nass,Chinook,,#FFFFFF
hist_green,Rivers Inlet,Chinook,,#FFFFFF
hist_green,Upper Nass,Chinook,,#FFFFFF
hist_green,Wannock,Chinook,,#FFFFFF
hist_green,Bella Coola-Dean Rivers,Chum,,#009900
hist_green,Douglas-Gardner,Chum,,#FFFFFF
hist_green,Georgia Strait,Chum,,#009900
hist_green,Hecate Lowlands,Chum,,#FFFFFF
hist_green,Howe Sound-Burrard Inlet,Chum,,#009900
hist_green,Loughborough,Chum,,#FFFFFF
hist_green,Mussel-Kynoch,Chum,,#FFFFFF
hist_green,Northeast Vancouver Island,Chum,,#FFFFFF
hist_green,Northwest Vancouver Island,Chum,,#009900
hist_green,Portland Canal-Observatory,Chum,,#FFFFFF
hist_green,Portland Inlet,Chum,,#FFFFFF
hist_green,Rivers Inlet,Chum,,#FFFFFF
hist_green,Smith Inlet,Chum,,#FFFFFF
hist_green,Southern Coastal Streams,Chum,,#FFFFFF
hist_green,Southwest Vancouver Island,Chum,,#FFFFFF
hist_green,Spiller-Fitz-Hugh-Burke,Chum,,#FFFFFF
hist_green,Bella Coola-Dean Rivers,Coho,,#FFFFFF
hist_green,Northern Coastal Streams,Coho,,#009900
hist_green,Douglas Channel-Kitimat Arm,Coho,,#009900
hist_green,Hecate Strait Mainland,Coho,,#FFFFFF
hist_green,Lower Nass,Coho,,#009900
hist_green,Mussel-Kynoch,Coho,,#009900
hist_green,Northern Coastal Streams,Coho,,#009900
hist_green,Portland Sound-Observatory Inlet-Portland Canal,Coho,,#009900
hist_green,Smith Inlet,Coho,,#009900
hist_green,Upper Nass,Coho,,#009900
hist_green,Adams-Early Summer,Lake Sockeye,,NA
hist_green,Alouette-Early Summer,Lake Sockeye,,NA
hist_green,Anderson-Seton-Early Summer,Lake Sockeye,,#009900
hist_green,Backland,Lake Sockeye,,#FFFFFF
hist_green,Bloomfield,Lake Sockeye,,#FFFFFF
hist_green,Bowron-Early Summer,Lake Sockeye,,#FFFFFF
hist_green,Canoona,Lake Sockeye,,#FFFFFF
hist_green,Chilko-Summer,Lake Sockeye,,#009900
hist_green,Coquitlam-Early Summer,Lake Sockeye,,NA
hist_green,Curtis Inlet,Lake Sockeye,,#FFFFFF
hist_green,Damdochax/Wiminasik,Lake Sockeye,,#009900
hist_green,Devon,Lake Sockeye,,#FFFFFF
hist_green,Evelyn,Lake Sockeye,,#009900
hist_green,Francois-Fraser-Summer,Lake Sockeye,,#009900
hist_green,Fraser-Early Summer,Lake Sockeye,,NA
hist_green,Fred Wright,Lake Sockeye,,#FFFFFF
hist_green,Great Central,Lake Sockeye,,#009900
hist_green,Harrison-Downstream Migrating-Late,Lake Sockeye,,#009900
hist_green,Harrison-Upstream Migrating-Late,Lake Sockeye,,#FFFFFF
hist_green,Hartley Bay,Lake Sockeye,,#FFFFFF
hist_green,Kadjusdis River,Lake Sockeye,,#FFFFFF
hist_green,Kainet Creek,Lake Sockeye,,#009900
hist_green,Kamloops-Early Summer,Lake Sockeye,,#009900
hist_green,Kawkawa-Late,Lake Sockeye,,NA
hist_green,Keecha,Lake Sockeye,,#FFFFFF
hist_green,Kitlope,Lake Sockeye,,#FFFFFF
hist_green,Koeye,Lake Sockeye,,#009900
hist_green,Kooryet,Lake Sockeye,,#FFFFFF
hist_green,Lillooet-Harrison-Late,Lake Sockeye,,#FFFFFF
hist_green,Long,Lake Sockeye,,#009900
hist_green,Lowe/Simpson/Weare,Lake Sockeye,,#009900
hist_green,Mary Cove Creek,Lake Sockeye,,#FFFFFF
hist_green,Meziadin,Lake Sockeye,,#FFFFFF
hist_green,Mikado,Lake Sockeye,,#FFFFFF
hist_green,Momich-Early Summer,Lake Sockeye,,NA
hist_green,Nadina-Francois-Early Summer,Lake Sockeye,,#009900
hist_green,Nahatlatch-Early Summer,Lake Sockeye,,#009900
hist_green,Namu,Lake Sockeye,,#009900
hist_green,Nimpkish,Lake Sockeye,,#009900
hist_green,North Barriere-Early Summer,Lake Sockeye,,NA
hist_green,North Barriere-Early Summer (de novo),Lake Sockeye,,#FFFFFF
hist_green,Owikeno,Lake Sockeye,,#FFFFFF
hist_green,Pitt-Early Summer,Lake Sockeye,,#FFFFFF
hist_green,Port John,Lake Sockeye,,#009900
hist_green,Roderick,Lake Sockeye,,#009900
hist_green,Seton_Late,Lake Sockeye,,#FFFFFF
hist_green,Seton-Summer,Lake Sockeye,,NA
hist_green,South Atnarko Lakes,Lake Sockeye,,#FFFFFF
hist_green,Sproat,Lake Sockeye,,#009900
hist_green,Tankeeah River,Lake Sockeye,,#009900
hist_green,Taseko-Early Summer,Lake Sockeye,,#FFFFFF
hist_green,Tsimtack Lakes,Lake Sockeye,,#009900
hist_green,Yeo,Lake Sockeye,,#009900
hist_green,Georgia Strait (even),Pink (Even),,#FFFFFF
hist_green,Hecate Lowlands (even),Pink (Even),,#FFFFFF
hist_green,Hecate Strait-Fjords (even),Pink (Even),,#009900
hist_green,Southern Fjords (even),Pink (Even),,#FFFFFF
hist_green,East Howe Sound-Burrard Inlet (odd),Pink (Odd),,#009900
hist_green,East Vancouver Island-Johnstone Strait (odd),Pink (Odd),,#009900
hist_green,Fraser River (odd),Pink (Odd),,#FFFFFF
hist_green,Georgia Strait (odd),Pink (Odd),,#009900
hist_green,Hecate Strait-Fjords (odd),Pink (Odd),,#009900
hist_green,Hecate Strait-Lowlands (odd),Pink (Odd),,#FFFFFF
hist_green,Homathko-Klinaklini-Smith-Rivers-Bella Coola-Dean (odd),Pink (Odd),,#009900
hist_green,Nahwitti (odd),Pink (Odd),,#009900
hist_green,Nass-Portland-Observatory (odd),Pink (Odd),,#009900
hist_green,Southern Fjords (odd),Pink (Odd),,#009900
hist_green,Harrison River (river-type),River Sockeye,,#009900
hist_green,Lower Nass-Portland (river-type),River Sockeye,,#009900
hist_green,Widgeon (river-type),River Sockeye,,#FFFFFF
hist_red,Bella Coola-Bentinck,Chinook,,#FFFFFF
hist_red,Dean River,Chinook,,#FFFFFF
hist_red,North and Central Coast-early timing,Chinook,,#FFFFFF
hist_red,Portland Sound-Observatory Inlet-Lower Nass,Chinook,,#FFFFFF
hist_red,Rivers Inlet,Chinook,,#FFFFFF
hist_red,Upper Nass,Chinook,,#CC0000
hist_red,Wannock,Chinook,,#FFFFFF
hist_red,Bella Coola-Dean Rivers,Chum,,#FFFFFF
hist_red,Douglas-Gardner,Chum,,#FFFFFF
hist_red,Georgia Strait,Chum,,#FFFFFF
hist_red,Hecate Lowlands,Chum,,#CC0000
hist_red,Howe Sound-Burrard Inlet,Chum,,#FFFFFF
hist_red,Loughborough,Chum,,#CC0000
hist_red,Mussel-Kynoch,Chum,,#CC0000
hist_red,Northeast Vancouver Island,Chum,,#CC0000
hist_red,Northwest Vancouver Island,Chum,,#FFFFFF
hist_red,Portland Canal-Observatory,Chum,,#FFFFFF
hist_red,Portland Inlet,Chum,,#FFFFFF
hist_red,Rivers Inlet,Chum,,#CC0000
hist_red,Smith Inlet,Chum,,#CC0000
hist_red,Southern Coastal Streams,Chum,,#FFFFFF
hist_red,Southwest Vancouver Island,Chum,,#CC0000
hist_red,Spiller-Fitz-Hugh-Burke,Chum,,#FFFFFF
hist_red,Bella Coola-Dean Rivers,Coho,,#FFFFFF
hist_red,Northern Coastal Streams,Coho,,#FFFFFF
hist_red,Douglas Channel-Kitimat Arm,Coho,,#FFFFFF
hist_red,Hecate Strait Mainland,Coho,,#CC0000
hist_red,Lower Nass,Coho,,#FFFFFF
hist_red,Mussel-Kynoch,Coho,,#FFFFFF
hist_red,Northern Coastal Streams,Coho,,#FFFFFF
hist_red,Portland Sound-Observatory Inlet-Portland Canal,Coho,,#FFFFFF
hist_red,Smith Inlet,Coho,,#FFFFFF
hist_red,Upper Nass,Coho,,#FFFFFF
hist_red,Adams-Early Summer,Lake Sockeye,,NA
hist_red,Alouette-Early Summer,Lake Sockeye,,NA
hist_red,Anderson-Seton-Early Summer,Lake Sockeye,,#FFFFFF
hist_red,Backland,Lake Sockeye,,#FFFFFF
hist_red,Bloomfield,Lake Sockeye,,#FFFFFF
hist_red,Bowron-Early Summer,Lake Sockeye,,#CC0000
hist_red,Canoona,Lake Sockeye,,#FFFFFF
hist_red,Chilko-Summer,Lake Sockeye,,#FFFFFF
hist_red,Coquitlam-Early Summer,Lake Sockeye,,NA
hist_red,Curtis Inlet,Lake Sockeye,,#CC0000
hist_red,Damdochax/Wiminasik,Lake Sockeye,,#FFFFFF
hist_red,Devon,Lake Sockeye,,#FFFFFF
hist_red,Evelyn,Lake Sockeye,,#FFFFFF
hist_red,Francois-Fraser-Summer,Lake Sockeye,,#FFFFFF
hist_red,Fraser-Early Summer,Lake Sockeye,,NA
hist_red,Fred Wright,Lake Sockeye,,#FFFFFF
hist_red,Great Central,Lake Sockeye,,#FFFFFF
hist_red,Harrison-Downstream Migrating-Late,Lake Sockeye,,#FFFFFF
hist_red,Harrison-Upstream Migrating-Late,Lake Sockeye,,#CC0000
hist_red,Hartley Bay,Lake Sockeye,,#FFFFFF
hist_red,Kadjusdis River,Lake Sockeye,,#FFFFFF
hist_red,Kainet Creek,Lake Sockeye,,#FFFFFF
hist_red,Kamloops-Early Summer,Lake Sockeye,,#FFFFFF
hist_red,Kawkawa-Late,Lake Sockeye,,NA
hist_red,Keecha,Lake Sockeye,,#FFFFFF
hist_red,Kitlope,Lake Sockeye,,#FFFFFF
hist_red,Koeye,Lake Sockeye,,#FFFFFF
hist_red,Kooryet,Lake Sockeye,,#FFFFFF
hist_red,Lillooet-Harrison-Late,Lake Sockeye,,#CC0000
hist_red,Long,Lake Sockeye,,#FFFFFF
hist_red,Lowe/Simpson/Weare,Lake Sockeye,,#FFFFFF
hist_red,Mary Cove Creek,Lake Sockeye,,#CC0000
hist_red,Meziadin,Lake Sockeye,,#FFFFFF
hist_red,Mikado,Lake Sockeye,,#FFFFFF
hist_red,Momich-Early Summer,Lake Sockeye,,NA
hist_red,Nadina-Francois-Early Summer,Lake Sockeye,,#FFFFFF
hist_red,Nahatlatch-Early Summer,Lake Sockeye,,#FFFFFF
hist_red,Namu,Lake Sockeye,,#FFFFFF
hist_red,Nimpkish,Lake Sockeye,,#FFFFFF
hist_red,North Barriere-Early Summer,Lake Sockeye,,NA
hist_red,North Barriere-Early Summer (de novo),Lake Sockeye,,#FFFFFF
hist_red,Owikeno,Lake Sockeye,,#FFFFFF
hist_red,Pitt-Early Summer,Lake Sockeye,,#FFFFFF
hist_red,Port John,Lake Sockeye,,#FFFFFF
hist_red,Roderick,Lake Sockeye,,#FFFFFF
hist_red,Seton_Late,Lake Sockeye,,#CC0000
hist_red,Seton-Summer,Lake Sockeye,,NA
hist_red,South Atnarko Lakes,Lake Sockeye,,#CC0000
hist_red,Sproat,Lake Sockeye,,#FFFFFF
hist_red,Tankeeah River,Lake Sockeye,,#FFFFFF
hist_red,Taseko-Early Summer,Lake Sockeye,,#CC0000
hist_red,Tsimtack Lakes,Lake Sockeye,,#FFFFFF
hist_red,Yeo,Lake Sockeye,,#FFFFFF
hist_red,Georgia Strait (even),Pink (Even),,#FFFFFF
hist_red,Hecate Lowlands (even),Pink (Even),,#CC0000
hist_red,Hecate Strait-Fjords (even),Pink (Even),,#FFFFFF
hist_red,Southern Fjords (even),Pink (Even),,#FFFFFF
hist_red,East Howe Sound-Burrard Inlet (odd),Pink (Odd),,#FFFFFF
hist_red,East Vancouver Island-Johnstone Strait (odd),Pink (Odd),,#FFFFFF
hist_red,Fraser River (odd),Pink (Odd),,#FFFFFF
hist_red,Georgia Strait (odd),Pink (Odd),,#FFFFFF
hist_red,Hecate Strait-Fjords (odd),Pink (Odd),,#FFFFFF
hist_red,Hecate Strait-Lowlands (odd),Pink (Odd),,#CC0000
hist_red,Homathko-Klinaklini-Smith-Rivers-Bella Coola-Dean (odd),Pink (Odd),,#FFFFFF
hist_red,Nahwitti (odd),Pink (Odd),,#FFFFFF
hist_red,Nass-Portland-Observatory (odd),Pink (Odd),,#FFFFFF
hist_red,Southern Fjords (odd),Pink (Odd),,#FFFFFF
hist_red,Harrison River (river-type),River Sockeye,,#FFFFFF
hist_red,Lower Nass-Portland (river-type),River Sockeye,,#FFFFFF
hist_red,Widgeon (river-type),River Sockeye,,#FFFFFF
hist_yellow,Bella Coola-Bentinck,Chinook,,#FFFFFF
hist_yellow,Dean River,Chinook,,#FFFFFF
hist_yellow,North and Central Coast-early timing,Chinook,,#FFFFFF
hist_yellow,Portland Sound-Observatory Inlet-Lower Nass,Chinook,,#FFFF00
hist_yellow,Rivers Inlet,Chinook,,#FFFF00
hist_yellow,Upper Nass,Chinook,,#FFFFFF
hist_yellow,Wannock,Chinook,,#FFFF00
hist_yellow,Bella Coola-Dean Rivers,Chum,,#FFFFFF
hist_yellow,Douglas-Gardner,Chum,,#FFFF00
hist_yellow,Georgia Strait,Chum,,#FFFFFF
hist_yellow,Hecate Lowlands,Chum,,#FFFFFF
hist_yellow,Howe Sound-Burrard Inlet,Chum,,#FFFFFF
hist_yellow,Loughborough,Chum,,#FFFFFF
hist_yellow,Mussel-Kynoch,Chum,,#FFFFFF
hist_yellow,Northeast Vancouver Island,Chum,,#FFFFFF
hist_yellow,Northwest Vancouver Island,Chum,,#FFFFFF
hist_yellow,Portland Canal-Observatory,Chum,,#FFFF00
hist_yellow,Portland Inlet,Chum,,#FFFF00
hist_yellow,Rivers Inlet,Chum,,#FFFFFF
hist_yellow,Smith Inlet,Chum,,#FFFFFF
hist_yellow,Southern Coastal Streams,Chum,,#FFFF00
hist_yellow,Southwest Vancouver Island,Chum,,#FFFFFF
hist_yellow,Spiller-Fitz-Hugh-Burke,Chum,,#FFFF00
hist_yellow,Bella Coola-Dean Rivers,Coho,,#FFFF00
hist_yellow,Northern Coastal Streams,Coho,,#FFFFFF
hist_yellow,Douglas Channel-Kitimat Arm,Coho,,#FFFFFF
hist_yellow,Hecate Strait Mainland,Coho,,#FFFFFF
hist_yellow,Lower Nass,Coho,,#FFFFFF
hist_yellow,Mussel-Kynoch,Coho,,#FFFFFF
hist_yellow,Northern Coastal Streams,Coho,,#FFFFFF
hist_yellow,Portland Sound-Observatory Inlet-Portland Canal,Coho,,#FFFFFF
hist_yellow,Smith Inlet,Coho,,#FFFFFF
hist_yellow,Upper Nass,Coho,,#FFFFFF
hist_yellow,Adams-Early Summer,Lake Sockeye,,NA
hist_yellow,Alouette-Early Summer,Lake Sockeye,,NA
hist_yellow,Anderson-Seton-Early Summer,Lake Sockeye,,#FFFFFF
hist_yellow,Backland,Lake Sockeye,,#FFFF00
hist_yellow,Bloomfield,Lake Sockeye,,#FFFF00
hist_yellow,Bowron-Early Summer,Lake Sockeye,,#FFFFFF
hist_yellow,Canoona,Lake Sockeye,,#FFFF00
hist_yellow,Chilko-Summer,Lake Sockeye,,#FFFFFF
hist_yellow,Coquitlam-Early Summer,Lake Sockeye,,NA
hist_yellow,Curtis Inlet,Lake Sockeye,,#FFFFFF
hist_yellow,Damdochax/Wiminasik,Lake Sockeye,,#FFFFFF
hist_yellow,Devon,Lake Sockeye,,#FFFF00
hist_yellow,Evelyn,Lake Sockeye,,#FFFFFF
hist_yellow,Francois-Fraser-Summer,Lake Sockeye,,#FFFFFF
hist_yellow,Fraser-Early Summer,Lake Sockeye,,NA
hist_yellow,Fred Wright,Lake Sockeye,,#FFFF00
hist_yellow,Great Central,Lake Sockeye,,#FFFFFF
hist_yellow,Harrison-Downstream Migrating-Late,Lake Sockeye,,#FFFFFF
hist_yellow,Harrison-Upstream Migrating-Late,Lake Sockeye,,#FFFFFF
hist_yellow,Hartley Bay,Lake Sockeye,,#FFFF00
hist_yellow,Kadjusdis River,Lake Sockeye,,#FFFF00
hist_yellow,Kainet Creek,Lake Sockeye,,#FFFFFF
hist_yellow,Kamloops-Early Summer,Lake Sockeye,,#FFFFFF
hist_yellow,Kawkawa-Late,Lake Sockeye,,NA
hist_yellow,Keecha,Lake Sockeye,,#FFFF00
hist_yellow,Kitlope,Lake Sockeye,,#FFFF00
hist_yellow,Koeye,Lake Sockeye,,#FFFFFF
hist_yellow,Kooryet,Lake Sockeye,,#FFFF00
hist_yellow,Lillooet-Harrison-Late,Lake Sockeye,,#FFFFFF
hist_yellow,Long,Lake Sockeye,,#FFFFFF
hist_yellow,Lowe/Simpson/Weare,Lake Sockeye,,#FFFFFF
hist_yellow,Mary Cove Creek,Lake Sockeye,,#FFFFFF
hist_yellow,Meziadin,Lake Sockeye,,#FFFF00
hist_yellow,Mikado,Lake Sockeye,,#FFFF00
hist_yellow,Momich-Early Summer,Lake Sockeye,,NA
hist_yellow,Nadina-Francois-Early Summer,Lake Sockeye,,#FFFFFF
hist_yellow,Nahatlatch-Early Summer,Lake Sockeye,,#FFFFFF
hist_yellow,Namu,Lake Sockeye,,#FFFFFF
hist_yellow,Nimpkish,Lake Sockeye,,#FFFFFF
hist_yellow,North Barriere-Early Summer,Lake Sockeye,,NA
hist_yellow,North Barriere-Early Summer (de novo),Lake Sockeye,,#FFFF00
hist_yellow,Owikeno,Lake Sockeye,,#FFFF00
hist_yellow,Pitt-Early Summer,Lake Sockeye,,#FFFF00
hist_yellow,Port John,Lake Sockeye,,#FFFFFF
hist_yellow,Roderick,Lake Sockeye,,#FFFFFF
hist_yellow,Seton_Late,Lake Sockeye,,#FFFFFF
hist_yellow,Seton-Summer,Lake Sockeye,,NA
hist_yellow,South Atnarko Lakes,Lake Sockeye,,#FFFFFF
hist_yellow,Sproat,Lake Sockeye,,#FFFFFF
hist_yellow,Tankeeah River,Lake Sockeye,,#FFFFFF
hist_yellow,Taseko-Early Summer,Lake Sockeye,,#FFFFFF
hist_yellow,Tsimtack Lakes,Lake Sockeye,,#FFFFFF
hist_yellow,Yeo,Lake Sockeye,,#FFFFFF
hist_yellow,Georgia Strait (even),Pink (Even),,#FFFF00
hist_yellow,Hecate Lowlands (even),Pink (Even),,#FFFFFF
hist_yellow,Hecate Strait-Fjords (even),Pink (Even),,#FFFFFF
hist_yellow,Southern Fjords (even),Pink (Even),,#FFFF00
hist_yellow,East Howe Sound-Burrard Inlet (odd),Pink (Odd),,#FFFFFF
hist_yellow,East Vancouver Island-Johnstone Strait (odd),Pink (Odd),,#FFFFFF
hist_yellow,Fraser River (odd),Pink (Odd),,#FFFF00
hist_yellow,Georgia Strait (odd),Pink (Odd),,#FFFFFF
hist_yellow,Hecate Strait-Fjords (odd),Pink (Odd),,#FFFFFF
hist_yellow,Hecate Strait-Lowlands (odd),Pink (Odd),,#FFFFFF
hist_yellow,Homathko-Klinaklini-Smith-Rivers-Bella Coola-Dean (odd),Pink (Odd),,#FFFFFF
hist_yellow,Nahwitti (odd),Pink (Odd),,#FFFFFF
hist_yellow,Nass-Portland-Observatory (odd),Pink (Odd),,#FFFFFF
hist_yellow,Southern Fjords (odd),Pink (Odd),,#FFFFFF
hist_yellow,Harrison River (river-type),River Sockeye,,#FFFFFF
hist_yellow,Lower Nass-Portland (river-type),River Sockeye,,#FFFFFF
hist_yellow,Widgeon (river-type),River Sockeye,,#FFFF00
sr_green,Bella Coola-Bentinck,Chinook,,#009900
sr_green,Dean River,Chinook,,#009900
sr_green,North and Central Coast-early timing,Chinook,,#009900
sr_green,Portland Sound-Observatory Inlet-Lower Nass,Chinook,,#009900
sr_green,Rivers Inlet,Chinook,,#009900
sr_green,Upper Nass,Chinook,,#009900
sr_green,Wannock,Chinook,,#009900
sr_green,Bella Coola-Dean Rivers,Chum,,#009900
sr_green,Douglas-Gardner,Chum,,#009900
sr_green,Georgia Strait,Chum,,NA
sr_green,Hecate Lowlands,Chum,,#009900
sr_green,Howe Sound-Burrard Inlet,Chum,,NA
sr_green,Loughborough,Chum,,NA
sr_green,Mussel-Kynoch,Chum,,#009900
sr_green,Northeast Vancouver Island,Chum,,NA
sr_green,Northwest Vancouver Island,Chum,,#009900
sr_green,Portland Canal-Observatory,Chum,,#009900
sr_green,Portland Inlet,Chum,,#009900
sr_green,Rivers Inlet,Chum,,#FFFFFF
sr_green,Smith Inlet,Chum,,#FFFFFF
sr_green,Southern Coastal Streams,Chum,,NA
sr_green,Southwest Vancouver Island,Chum,,#009900
sr_green,Spiller-Fitz-Hugh-Burke,Chum,,#009900
sr_green,Bella Coola-Dean Rivers,Coho,,#009900
sr_green,Northern Coastal Streams,Coho,,#009900
sr_green,Douglas Channel-Kitimat Arm,Coho,,#009900
sr_green,Hecate Strait Mainland,Coho,,#009900
sr_green,Lower Nass,Coho,,#009900
sr_green,Mussel-Kynoch,Coho,,#009900
sr_green,Northern Coastal Streams,Coho,,#009900
sr_green,Portland Sound-Observatory Inlet-Portland Canal,Coho,,#009900
sr_green,Smith Inlet,Coho,,#009900
sr_green,Upper Nass,Coho,,#009900
sr_green,Adams-Early Summer,Lake Sockeye,,NA
sr_green,Alouette-Early Summer,Lake Sockeye,,NA
sr_green,Anderson-Seton-Early Summer,Lake Sockeye,,#FFFFFF
sr_green,Backland,Lake Sockeye,,#FFFFFF
sr_green,Bloomfield,Lake Sockeye,,#FFFFFF
sr_green,Bowron-Early Summer,Lake Sockeye,,#FFFFFF
sr_green,Canoona,Lake Sockeye,,#009900
sr_green,Chilko-Summer,Lake Sockeye,,#009900
sr_green,Coquitlam-Early Summer,Lake Sockeye,,NA
sr_green,Curtis Inlet,Lake Sockeye,,#009900
sr_green,Damdochax/Wiminasik,Lake Sockeye,,#009900
sr_green,Devon,Lake Sockeye,,#009900
sr_green,Evelyn,Lake Sockeye,,#009900
sr_green,Francois-Fraser-Summer,Lake Sockeye,,#009900
sr_green,Fraser-Early Summer,Lake Sockeye,,NA
sr_green,Fred Wright,Lake Sockeye,,#FFFFFF
sr_green,Great Central,Lake Sockeye,,#009900
sr_green,Harrison-Downstream Migrating-Late,Lake Sockeye,,NA
sr_green,Harrison-Upstream Migrating-Late,Lake Sockeye,,#FFFFFF
sr_green,Hartley Bay,Lake Sockeye,,#009900
sr_green,Kadjusdis River,Lake Sockeye,,#009900
sr_green,Kainet Creek,Lake Sockeye,,#009900
sr_green,Kamloops-Early Summer,Lake Sockeye,,#FFFFFF
sr_green,Kawkawa-Late,Lake Sockeye,,NA
sr_green,Keecha,Lake Sockeye,,#009900
sr_green,Kitlope,Lake Sockeye,,#009900
sr_green,Koeye,Lake Sockeye,,#009900
sr_green,Kooryet,Lake Sockeye,,#009900
sr_green,Lillooet-Harrison-Late,Lake Sockeye,,#FFFFFF
sr_green,Long,Lake Sockeye,,#009900
sr_green,Lowe/Simpson/Weare,Lake Sockeye,,#009900
sr_green,Mary Cove Creek,Lake Sockeye,,#FFFFFF
sr_green,Meziadin,Lake Sockeye,,#009900
sr_green,Mikado,Lake Sockeye,,#009900
sr_green,Momich-Early Summer,Lake Sockeye,,NA
sr_green,Nadina-Francois-Early Summer,Lake Sockeye,,#FFFFFF
sr_green,Nahatlatch-Early Summer,Lake Sockeye,,NA
sr_green,Namu,Lake Sockeye,,#009900
sr_green,Nimpkish,Lake Sockeye,,NA
sr_green,North Barriere-Early Summer,Lake Sockeye,,NA
sr_green,North Barriere-Early Summer (de novo),Lake Sockeye,,#FFFFFF
sr_green,Owikeno,Lake Sockeye,,#009900
sr_green,Pitt-Early Summer,Lake Sockeye,,#009900
sr_green,Port John,Lake Sockeye,,#009900
sr_green,Roderick,Lake Sockeye,,#009900
sr_green,Seton_Late,Lake Sockeye,,#FFFFFF
sr_green,Seton-Summer,Lake Sockeye,,NA
sr_green,South Atnarko Lakes,Lake Sockeye,,#FFFFFF
sr_green,Sproat,Lake Sockeye,,#009900
sr_green,Tankeeah River,Lake Sockeye,,#009900
sr_green,Taseko-Early Summer,Lake Sockeye,,NA
sr_green,Tsimtack Lakes,Lake Sockeye,,#009900
sr_green,Yeo,Lake Sockeye,,#009900
sr_green,Georgia Strait (even),Pink (Even),,#009900
sr_green,Hecate Lowlands (even),Pink (Even),,#FFFFFF
sr_green,Hecate Strait-Fjords (even),Pink (Even),,#009900
sr_green,Southern Fjords (even),Pink (Even),,#009900
sr_green,East Howe Sound-Burrard Inlet (odd),Pink (Odd),,#009900
sr_green,East Vancouver Island-Johnstone Strait (odd),Pink (Odd),,#009900
sr_green,Fraser River (odd),Pink (Odd),,#FFFFFF
sr_green,Georgia Strait (odd),Pink (Odd),,#009900
sr_green,Hecate Strait-Fjords (odd),Pink (Odd),,#009900
sr_green,Hecate Strait-Lowlands (odd),Pink (Odd),,#FFFFFF
sr_green,Homathko-Klinaklini-Smith-Rivers-Bella Coola-Dean (odd),Pink (Odd),,#009900
sr_green,Nahwitti (odd),Pink (Odd),,#009900
sr_green,Nass-Portland-Observatory (odd),Pink (Odd),,#009900
sr_green,Southern Fjords (odd),Pink (Odd),,#009900
sr_green,Harrison River (river-type),River Sockeye,,#009900
sr_green,Lower Nass-Portland (river-type),River Sockeye,,NA
sr_green,Widgeon (river-type),River Sockeye,,NA
sr_green_prob,Bella Coola-Bentinck,Chinook,,1
sr_green_prob,Dean River,Chinook,,1
sr_green_prob,North and Central Coast-early timing,Chinook,,1
sr_green_prob,Portland Sound-Observatory Inlet-Lower Nass,Chinook,,0.94
sr_green_prob,Rivers Inlet,Chinook,,0.27
sr_green_prob,Upper Nass,Chinook,,0.55
sr_green_prob,Wannock,Chinook,,0.91
sr_green_prob,Bella Coola-Dean Rivers,Chum,,0.99
sr_green_prob,Douglas-Gardner,Chum,,0.62
sr_green_prob,Georgia Strait,Chum,,
sr_green_prob,Hecate Lowlands,Chum,,0.12
sr_green_prob,Howe Sound-Burrard Inlet,Chum,,
sr_green_prob,Loughborough,Chum,,
sr_green_prob,Mussel-Kynoch,Chum,,0.56
sr_green_prob,Northeast Vancouver Island,Chum,,
sr_green_prob,Northwest Vancouver Island,Chum,,1
sr_green_prob,Portland Canal-Observatory,Chum,,0.44
sr_green_prob,Portland Inlet,Chum,,0.88
sr_green_prob,Rivers Inlet,Chum,,0
sr_green_prob,Smith Inlet,Chum,,0
sr_green_prob,Southern Coastal Streams,Chum,,
sr_green_prob,Southwest Vancouver Island,Chum,,0.99
sr_green_prob,Spiller-Fitz-Hugh-Burke,Chum,,0.97
sr_green_prob,Bella Coola-Dean Rivers,Coho,,0.75
sr_green_prob,Northern Coastal Streams,Coho,,0.87
sr_green_prob,Douglas Channel-Kitimat Arm,Coho,,1
sr_green_prob,Hecate Strait Mainland,Coho,,1
sr_green_prob,Lower Nass,Coho,,1
sr_green_prob,Mussel-Kynoch,Coho,,0.61
sr_green_prob,Northern Coastal Streams,Coho,,1
sr_green_prob,Portland Sound-Observatory Inlet-Portland Canal,Coho,,1
sr_green_prob,Smith Inlet,Coho,,0.91
sr_green_prob,Upper Nass,Coho,,1
sr_green_prob,Adams-Early Summer,Lake Sockeye,,
sr_green_prob,Alouette-Early Summer,Lake Sockeye,,
sr_green_prob,Anderson-Seton-Early Summer,Lake Sockeye,,0
sr_green_prob,Backland,Lake Sockeye,,0
sr_green_prob,Bloomfield,Lake Sockeye,,0
sr_green_prob,Bowron-Early Summer,Lake Sockeye,,0
sr_green_prob,Canoona,Lake Sockeye,,1
sr_green_prob,Chilko-Summer,Lake Sockeye,,0.57
sr_green_prob,Coquitlam-Early Summer,Lake Sockeye,,
sr_green_prob,Curtis Inlet,Lake Sockeye,,0.04
sr_green_prob,Damdochax/Wiminasik,Lake Sockeye,,0.25
sr_green_prob,Devon,Lake Sockeye,,0.99
sr_green_prob,Evelyn,Lake Sockeye,,0.84
sr_green_prob,Francois-Fraser-Summer,Lake Sockeye,,0.15
sr_green_prob,Fraser-Early Summer,Lake Sockeye,,
sr_green_prob,Fred Wright,Lake Sockeye,,0
sr_green_prob,Great Central,Lake Sockeye,,0.93
sr_green_prob,Harrison-Downstream Migrating-Late,Lake Sockeye,,
sr_green_prob,Harrison-Upstream Migrating-Late,Lake Sockeye,,0
sr_green_prob,Hartley Bay,Lake Sockeye,,0.95
sr_green_prob,Kadjusdis River,Lake Sockeye,,0.01
sr_green_prob,Kainet Creek,Lake Sockeye,,0.98
sr_green_prob,Kamloops-Early Summer,Lake Sockeye,,0
sr_green_prob,Kawkawa-Late,Lake Sockeye,,
sr_green_prob,Keecha,Lake Sockeye,,0.91
sr_green_prob,Kitlope,Lake Sockeye,,0.02
sr_green_prob,Koeye,Lake Sockeye,,1
sr_green_prob,Kooryet,Lake Sockeye,,0.8
sr_green_prob,Lillooet-Harrison-Late,Lake Sockeye,,0
sr_green_prob,Long,Lake Sockeye,,0.88
sr_green_prob,Lowe/Simpson/Weare,Lake Sockeye,,1
sr_green_prob,Mary Cove Creek,Lake Sockeye,,0
sr_green_prob,Meziadin,Lake Sockeye,,0.51
sr_green_prob,Mikado,Lake Sockeye,,1
sr_green_prob,Momich-Early Summer,Lake Sockeye,,
sr_green_prob,Nadina-Francois-Early Summer,Lake Sockeye,,0
sr_green_prob,Nahatlatch-Early Summer,Lake Sockeye,,
sr_green_prob,Namu,Lake Sockeye,,0.87
sr_green_prob,Nimpkish,Lake Sockeye,,
sr_green_prob,North Barriere-Early Summer,Lake Sockeye,,
sr_green_prob,North Barriere-Early Summer (de novo),Lake Sockeye,,0
sr_green_prob,Owikeno,Lake Sockeye,,0.01
sr_green_prob,Pitt-Early Summer,Lake Sockeye,,0.54
sr_green_prob,Port John,Lake Sockeye,,1
sr_green_prob,Roderick,Lake Sockeye,,0.32
sr_green_prob,Seton_Late,Lake Sockeye,,0
sr_green_prob,Seton-Summer,Lake Sockeye,,
sr_green_prob,South Atnarko Lakes,Lake Sockeye,,0
sr_green_prob,Sproat,Lake Sockeye,,0.99
sr_green_prob,Tankeeah River,Lake Sockeye,,0.96
sr_green_prob,Taseko-Early Summer,Lake Sockeye,,
sr_green_prob,Tsimtack Lakes,Lake Sockeye,,1
sr_green_prob,Yeo,Lake Sockeye,,0.95
sr_green_prob,Georgia Strait (even),Pink (Even),,0.02
sr_green_prob,Hecate Lowlands (even),Pink (Even),,0
sr_green_prob,Hecate Strait-Fjords (even),Pink (Even),,0.97
sr_green_prob,Southern Fjords (even),Pink (Even),,0.27
sr_green_prob,East Howe Sound-Burrard Inlet (odd),Pink (Odd),,0.42
sr_green_prob,East Vancouver Island-Johnstone Strait (odd),Pink (Odd),,0.74
sr_green_prob,Fraser River (odd),Pink (Odd),,0
sr_green_prob,Georgia Strait (odd),Pink (Odd),,0.4
sr_green_prob,Hecate Strait-Fjords (odd),Pink (Odd),,0.91
sr_green_prob,Hecate Strait-Lowlands (odd),Pink (Odd),,0
sr_green_prob,Homathko-Klinaklini-Smith-Rivers-Bella Coola-Dean (odd),Pink (Odd),,0.99
sr_green_prob,Nahwitti (odd),Pink (Odd),,0.15
sr_green_prob,Nass-Portland-Observatory (odd),Pink (Odd),,0.99
sr_green_prob,Southern Fjords (odd),Pink (Odd),,0.95
sr_green_prob,Harrison River (river-type),River Sockeye,,0.24
sr_green_prob,Widgeon (river-type),River Sockeye,,
sr_red,Bella Coola-Bentinck,Chinook,,#FFFFFF
sr_red,Dean River,Chinook,,#FFFFFF
sr_red,North and Central Coast-early timing,Chinook,,#FFFFFF
sr_red,Portland Sound-Observatory Inlet-Lower Nass,Chinook,,#CC0000
sr_red,Rivers Inlet,Chinook,,#CC0000
sr_red,Upper Nass,Chinook,,#CC0000
sr_red,Wannock,Chinook,,#CC0000
sr_red,Bella Coola-Dean Rivers,Chum,,#FFFFFF
sr_red,Douglas-Gardner,Chum,,#CC0000
sr_red,Georgia Strait,Chum,,NA
sr_red,Hecate Lowlands,Chum,,#CC0000
sr_red,Howe Sound-Burrard Inlet,Chum,,NA
sr_red,Loughborough,Chum,,NA
sr_red,Mussel-Kynoch,Chum,,#FFFFFF
sr_red,Northeast Vancouver Island,Chum,,NA
sr_red,Northwest Vancouver Island,Chum,,#FFFFFF
sr_red,Portland Canal-Observatory,Chum,,#FFFFFF
sr_red,Portland Inlet,Chum,,#FFFFFF
sr_red,Rivers Inlet,Chum,,#CC0000
sr_red,Smith Inlet,Chum,,#CC0000
sr_red,Southern Coastal Streams,Chum,,NA
sr_red,Southwest Vancouver Island,Chum,,#FFFFFF
sr_red,Spiller-Fitz-Hugh-Burke,Chum,,#FFFFFF
sr_red,Bella Coola-Dean Rivers,Coho,,#FFFFFF
sr_red,Northern Coastal Streams,Coho,,#CC0000
sr_red,Douglas Channel-Kitimat Arm,Coho,,#FFFFFF
sr_red,Hecate Strait Mainland,Coho,,#FFFFFF
sr_red,Lower Nass,Coho,,#FFFFFF
sr_red,Mussel-Kynoch,Coho,,#CC0000
sr_red,Northern Coastal Streams,Coho,,#FFFFFF
sr_red,Portland Sound-Observatory Inlet-Portland Canal,Coho,,#FFFFFF
sr_red,Smith Inlet,Coho,,#CC0000
sr_red,Upper Nass,Coho,,#FFFFFF
sr_red,Adams-Early Summer,Lake Sockeye,,NA
sr_red,Alouette-Early Summer,Lake Sockeye,,NA
sr_red,Anderson-Seton-Early Summer,Lake Sockeye,,#CC0000
sr_red,Backland,Lake Sockeye,,#CC0000
sr_red,Bloomfield,Lake Sockeye,,#CC0000
sr_red,Bowron-Early Summer,Lake Sockeye,,#CC0000
sr_red,Canoona,Lake Sockeye,,#FFFFFF
sr_red,Chilko-Summer,Lake Sockeye,,#CC0000
sr_red,Coquitlam-Early Summer,Lake Sockeye,,NA
sr_red,Curtis Inlet,Lake Sockeye,,#CC0000
sr_red,Damdochax/Wiminasik,Lake Sockeye,,#CC0000
sr_red,Devon,Lake Sockeye,,#CC0000
sr_red,Evelyn,Lake Sockeye,,#CC0000
sr_red,Francois-Fraser-Summer,Lake Sockeye,,#CC0000
sr_red,Fraser-Early Summer,Lake Sockeye,,NA
sr_red,Fred Wright,Lake Sockeye,,#CC0000
sr_red,Great Central,Lake Sockeye,,#CC0000
sr_red,Harrison-Downstream Migrating-Late,Lake Sockeye,,NA
sr_red,Harrison-Upstream Migrating-Late,Lake Sockeye,,#CC0000
sr_red,Hartley Bay,Lake Sockeye,,#CC0000
sr_red,Kadjusdis River,Lake Sockeye,,#CC0000
sr_red,Kainet Creek,Lake Sockeye,,#CC0000
sr_red,Kamloops-Early Summer,Lake Sockeye,,#CC0000
sr_red,Kawkawa-Late,Lake Sockeye,,NA
sr_red,Keecha,Lake Sockeye,,#CC0000
sr_red,Kitlope,Lake Sockeye,,#CC0000
sr_red,Koeye,Lake Sockeye,,#FFFFFF
sr_red,Kooryet,Lake Sockeye,,#CC0000
sr_red,Lillooet-Harrison-Late,Lake Sockeye,,#CC0000
sr_red,Long,Lake Sockeye,,#CC0000
sr_red,Lowe/Simpson/Weare,Lake Sockeye,,#FFFFFF
sr_red,Mary Cove Creek,Lake Sockeye,,#CC0000
sr_red,Meziadin,Lake Sockeye,,#CC0000
sr_red,Mikado,Lake Sockeye,,#FFFFFF
sr_red,Momich-Early Summer,Lake Sockeye,,NA
sr_red,Nadina-Francois-Early Summer,Lake Sockeye,,#CC0000
sr_red,Nahatlatch-Early Summer,Lake Sockeye,,NA
sr_red,Namu,Lake Sockeye,,#CC0000
sr_red,Nimpkish,Lake Sockeye,,NA
sr_red,North Barriere-Early Summer,Lake Sockeye,,NA
sr_red,North Barriere-Early Summer (de novo),Lake Sockeye,,#CC0000
sr_red,Owikeno,Lake Sockeye,,#CC0000
sr_red,Pitt-Early Summer,Lake Sockeye,,#FFFFFF
sr_red,Port John,Lake Sockeye,,#FFFFFF
sr_red,Roderick,Lake Sockeye,,#CC0000
sr_red,Seton_Late,Lake Sockeye,,#CC0000
sr_red,Seton-Summer,Lake Sockeye,,NA
sr_red,South Atnarko Lakes,Lake Sockeye,,#CC0000
sr_red,Sproat,Lake Sockeye,,#FFFFFF
sr_red,Tankeeah River,Lake Sockeye,,#CC0000
sr_red,Taseko-Early Summer,Lake Sockeye,,NA
sr_red,Tsimtack Lakes,Lake Sockeye,,#FFFFFF
sr_red,Yeo,Lake Sockeye,,#CC0000
sr_red,Georgia Strait (even),Pink (Even),,#CC0000
sr_red,Hecate Lowlands (even),Pink (Even),,#CC0000
sr_red,Hecate Strait-Fjords (even),Pink (Even),,#CC0000
sr_red,Southern Fjords (even),Pink (Even),,#CC0000
sr_red,East Howe Sound-Burrard Inlet (odd),Pink (Odd),,#CC0000
sr_red,East Vancouver Island-Johnstone Strait (odd),Pink (Odd),,#CC0000
sr_red,Fraser River (odd),Pink (Odd),,#CC0000
sr_red,Georgia Strait (odd),Pink (Odd),,#CC0000
sr_red,Hecate Strait-Fjords (odd),Pink (Odd),,#CC0000
sr_red,Hecate Strait-Lowlands (odd),Pink (Odd),,#CC0000
sr_red,Homathko-Klinaklini-Smith-Rivers-Bella Coola-Dean (odd),Pink (Odd),,#CC0000
sr_red,Nahwitti (odd),Pink (Odd),,#CC0000
sr_red,Nass-Portland-Observatory (odd),Pink (Odd),,#FFFFFF
sr_red,Southern Fjords (odd),Pink (Odd),,#CC0000
sr_red,Harrison River (river-type),River Sockeye,,#CC0000
sr_red,Lower Nass-Portland (river-type),River Sockeye,,NA
sr_red,Widgeon (river-type),River Sockeye,,NA
sr_red_prob,Bella Coola-Bentinck,Chinook,,0
sr_red_prob,Dean River,Chinook,,0
sr_red_prob,North and Central Coast-early timing,Chinook,,0
sr_red_prob,Portland Sound-Observatory Inlet-Lower Nass,Chinook,,0.01
sr_red_prob,Rivers Inlet,Chinook,,0.33
sr_red_prob,Upper Nass,Chinook,,0.03
sr_red_prob,Wannock,Chinook,,0.05
sr_red_prob,Bella Coola-Dean Rivers,Chum,,0
sr_red_prob,Douglas-Gardner,Chum,,0.01
sr_red_prob,Georgia Strait,Chum,,
sr_red_prob,Hecate Lowlands,Chum,,0.04
sr_red_prob,Howe Sound-Burrard Inlet,Chum,,
sr_red_prob,Loughborough,Chum,,
sr_red_prob,Mussel-Kynoch,Chum,,0
sr_red_prob,Northeast Vancouver Island,Chum,,
sr_red_prob,Northwest Vancouver Island,Chum,,0
sr_red_prob,Portland Canal-Observatory,Chum,,0
sr_red_prob,Portland Inlet,Chum,,0
sr_red_prob,Rivers Inlet,Chum,,1
sr_red_prob,Smith Inlet,Chum,,0.93
sr_red_prob,Southern Coastal Streams,Chum,,
sr_red_prob,Southwest Vancouver Island,Chum,,0
sr_red_prob,Spiller-Fitz-Hugh-Burke,Chum,,0
sr_red_prob,Bella Coola-Dean Rivers,Coho,,0
sr_red_prob,Northern Coastal Streams,Coho,,0.08
sr_red_prob,Douglas Channel-Kitimat Arm,Coho,,0
sr_red_prob,Hecate Strait Mainland,Coho,,0
sr_red_prob,Lower Nass,Coho,,0
sr_red_prob,Mussel-Kynoch,Coho,,0.11
sr_red_prob,Northern Coastal Streams,Coho,,0
sr_red_prob,Portland Sound-Observatory Inlet-Portland Canal,Coho,,0
sr_red_prob,Smith Inlet,Coho,,0.04
sr_red_prob,Upper Nass,Coho,,0
sr_red_prob,Adams-Early Summer,Lake Sockeye,,
sr_red_prob,Alouette-Early Summer,Lake Sockeye,,
sr_red_prob,Anderson-Seton-Early Summer,Lake Sockeye,,0.78
sr_red_prob,Backland,Lake Sockeye,,1
sr_red_prob,Bloomfield,Lake Sockeye,,0.69
sr_red_prob,Bowron-Early Summer,Lake Sockeye,,0.99
sr_red_prob,Canoona,Lake Sockeye,,0
sr_red_prob,Chilko-Summer,Lake Sockeye,,0.03
sr_red_prob,Coquitlam-Early Summer,Lake Sockeye,,
sr_red_prob,Curtis Inlet,Lake Sockeye,,0.88
sr_red_prob,Damdochax/Wiminasik,Lake Sockeye,,0.03
sr_red_prob,Devon,Lake Sockeye,,0.01
sr_red_prob,Evelyn,Lake Sockeye,,0.1
sr_red_prob,Francois-Fraser-Summer,Lake Sockeye,,0.33
sr_red_prob,Fraser-Early Summer,Lake Sockeye,,
sr_red_prob,Fred Wright,Lake Sockeye,,0.05
sr_red_prob,Great Central,Lake Sockeye,,0.01
sr_red_prob,Harrison-Downstream Migrating-Late,Lake Sockeye,,
sr_red_prob,Harrison-Upstream Migrating-Late,Lake Sockeye,,0.95
sr_red_prob,Hartley Bay,Lake Sockeye,,0.03
sr_red_prob,Kadjusdis River,Lake Sockeye,,0.74
sr_red_prob,Kainet Creek,Lake Sockeye,,0.01
sr_red_prob,Kamloops-Early Summer,Lake Sockeye,,0.37
sr_red_prob,Kawkawa-Late,Lake Sockeye,,
sr_red_prob,Keecha,Lake Sockeye,,0.03
sr_red_prob,Kitlope,Lake Sockeye,,0.69
sr_red_prob,Koeye,Lake Sockeye,,0
sr_red_prob,Kooryet,Lake Sockeye,,0.12
sr_red_prob,Lillooet-Harrison-Late,Lake Sockeye,,1
sr_red_prob,Long,Lake Sockeye,,0.02
sr_red_prob,Lowe/Simpson/Weare,Lake Sockeye,,0
sr_red_prob,Mary Cove Creek,Lake Sockeye,,1
sr_red_prob,Meziadin,Lake Sockeye,,0.06
sr_red_prob,Mikado,Lake Sockeye,,0
sr_red_prob,Momich-Early Summer,Lake Sockeye,,
sr_red_prob,Nadina-Francois-Early Summer,Lake Sockeye,,0.13
sr_red_prob,Nahatlatch-Early Summer,Lake Sockeye,,
sr_red_prob,Namu,Lake Sockeye,,0.09
sr_red_prob,Nimpkish,Lake Sockeye,,
sr_red_prob,North Barriere-Early Summer,Lake Sockeye,,
sr_red_prob,North Barriere-Early Summer (de novo),Lake Sockeye,,0.09
sr_red_prob,Owikeno,Lake Sockeye,,0.61
sr_red_prob,Pitt-Early Summer,Lake Sockeye,,0
sr_red_prob,Port John,Lake Sockeye,,0
sr_red_prob,Roderick,Lake Sockeye,,0.51
sr_red_prob,Seton_Late,Lake Sockeye,,0.98
sr_red_prob,Seton-Summer,Lake Sockeye,,
sr_red_prob,South Atnarko Lakes,Lake Sockeye,,1
sr_red_prob,Sproat,Lake Sockeye,,0
sr_red_prob,Tankeeah River,Lake Sockeye,,0.01
sr_red_prob,Taseko-Early Summer,Lake Sockeye,,
sr_red_prob,Tsimtack Lakes,Lake Sockeye,,0
sr_red_prob,Yeo,Lake Sockeye,,0.01
sr_red_prob,Georgia Strait (even),Pink (Even),,0.66
sr_red_prob,Hecate Lowlands (even),Pink (Even),,0.73
sr_red_prob,Hecate Strait-Fjords (even),Pink (Even),,0.01
sr_red_prob,Southern Fjords (even),Pink (Even),,0.05
sr_red_prob,East Howe Sound-Burrard Inlet (odd),Pink (Odd),,0.3
sr_red_prob,East Vancouver Island-Johnstone Strait (odd),Pink (Odd),,0.13
sr_red_prob,Fraser River (odd),Pink (Odd),,0.88
sr_red_prob,Georgia Strait (odd),Pink (Odd),,0.24
sr_red_prob,Hecate Strait-Fjords (odd),Pink (Odd),,0.03
sr_red_prob,Hecate Strait-Lowlands (odd),Pink (Odd),,0.55
sr_red_prob,Homathko-Klinaklini-Smith-Rivers-Bella Coola-Dean (odd),Pink (Odd),,0.01
sr_red_prob,Nahwitti (odd),Pink (Odd),,0.34
sr_red_prob,Nass-Portland-Observatory (odd),Pink (Odd),,0
sr_red_prob,Southern Fjords (odd),Pink (Odd),,0.01
sr_red_prob,Harrison River (river-type),River Sockeye,,0.42
sr_red_prob,Widgeon (river-type),River Sockeye,,
sr_yellow,Bella Coola-Bentinck,Chinook,,#FFFFFF
sr_yellow,Dean River,Chinook,,#FFFFFF
sr_yellow,North and Central Coast-early timing,Chinook,,#FFFFFF
sr_yellow,Portland Sound-Observatory Inlet-Lower Nass,Chinook,,#FFFF00
sr_yellow,Rivers Inlet,Chinook,,#FFFF00
sr_yellow,Upper Nass,Chinook,,#FFFF00
sr_yellow,Wannock,Chinook,,#FFFF00
sr_yellow,Bella Coola-Dean Rivers,Chum,,#FFFF00
sr_yellow,Douglas-Gardner,Chum,,#FFFF00
sr_yellow,Georgia Strait,Chum,,NA
sr_yellow,Hecate Lowlands,Chum,,#FFFF00
sr_yellow,Howe Sound-Burrard Inlet,Chum,,NA
sr_yellow,Loughborough,Chum,,NA
sr_yellow,Mussel-Kynoch,Chum,,#FFFF00
sr_yellow,Northeast Vancouver Island,Chum,,NA
sr_yellow,Northwest Vancouver Island,Chum,,#FFFFFF
sr_yellow,Portland Canal-Observatory,Chum,,#FFFF00
sr_yellow,Portland Inlet,Chum,,#FFFF00
sr_yellow,Rivers Inlet,Chum,,#FFFFFF
sr_yellow,Smith Inlet,Chum,,#FFFF00
sr_yellow,Southern Coastal Streams,Chum,,NA
sr_yellow,Southwest Vancouver Island,Chum,,#FFFF00
sr_yellow,Spiller-Fitz-Hugh-Burke,Chum,,#FFFF00
sr_yellow,Bella Coola-Dean Rivers,Coho,,#FFFF00
sr_yellow,Northern Coastal Streams,Coho,,#FFFF00
sr_yellow,Douglas Channel-Kitimat Arm,Coho,,#FFFFFF
sr_yellow,Hecate Strait Mainland,Coho,,#FFFFFF
sr_yellow,Lower Nass,Coho,,#FFFFFF
sr_yellow,Mussel-Kynoch,Coho,,#FFFF00
sr_yellow,Northern Coastal Streams,Coho,,#FFFFFF
sr_yellow,Portland Sound-Observatory Inlet-Portland Canal,Coho,,#FFFFFF
sr_yellow,Smith Inlet,Coho,,#FFFF00
sr_yellow,Upper Nass,Coho,,#FFFFFF
sr_yellow,Adams-Early Summer,Lake Sockeye,,NA
sr_yellow,Alouette-Early Summer,Lake Sockeye,,NA
sr_yellow,Anderson-Seton-Early Summer,Lake Sockeye,,#FFFF00
sr_yellow,Backland,Lake Sockeye,,#FFFFFF
sr_yellow,Bloomfield,Lake Sockeye,,#FFFF00
sr_yellow,Bowron-Early Summer,Lake Sockeye,,#FFFF00
sr_yellow,Canoona,Lake Sockeye,,#FFFFFF
sr_yellow,Chilko-Summer,Lake Sockeye,,#FFFF00
sr_yellow,Coquitlam-Early Summer,Lake Sockeye,,NA
sr_yellow,Curtis Inlet,Lake Sockeye,,#FFFF00
sr_yellow,Damdochax/Wiminasik,Lake Sockeye,,#FFFF00
sr_yellow,Devon,Lake Sockeye,,#FFFF00
sr_yellow,Evelyn,Lake Sockeye,,#FFFF00
sr_yellow,Francois-Fraser-Summer,Lake Sockeye,,#FFFF00
sr_yellow,Fraser-Early Summer,Lake Sockeye,,NA
sr_yellow,Fred Wright,Lake Sockeye,,#FFFF00
sr_yellow,Great Central,Lake Sockeye,,#FFFF00
sr_yellow,Harrison-Downstream Migrating-Late,Lake Sockeye,,NA
sr_yellow,Harrison-Upstream Migrating-Late,Lake Sockeye,,#FFFF00
sr_yellow,Hartley Bay,Lake Sockeye,,#FFFF00
sr_yellow,Kadjusdis River,Lake Sockeye,,#FFFF00
sr_yellow,Kainet Creek,Lake Sockeye,,#FFFF00
sr_yellow,Kamloops-Early Summer,Lake Sockeye,,#FFFF00
sr_yellow,Kawkawa-Late,Lake Sockeye,,NA
sr_yellow,Keecha,Lake Sockeye,,#FFFF00
sr_yellow,Kitlope,Lake Sockeye,,#FFFF00
sr_yellow,Koeye,Lake Sockeye,,#FFFFFF
sr_yellow,Kooryet,Lake Sockeye,,#FFFF00
sr_yellow,Lillooet-Harrison-Late,Lake Sockeye,,#FFFFFF
sr_yellow,Long,Lake Sockeye,,#FFFF00
sr_yellow,Lowe/Simpson/Weare,Lake Sockeye,,#FFFFFF
sr_yellow,Mary Cove Creek,Lake Sockeye,,#FFFFFF
sr_yellow,Meziadin,Lake Sockeye,,#FFFF00
sr_yellow,Mikado,Lake Sockeye,,#FFFFFF
sr_yellow,Momich-Early Summer,Lake Sockeye,,NA
sr_yellow,Nadina-Francois-Early Summer,Lake Sockeye,,#FFFF00
sr_yellow,Nahatlatch-Early Summer,Lake Sockeye,,NA
sr_yellow,Namu,Lake Sockeye,,#FFFF00
sr_yellow,Nimpkish,Lake Sockeye,,NA
sr_yellow,North Barriere-Early Summer,Lake Sockeye,,NA
sr_yellow,North Barriere-Early Summer (de novo),Lake Sockeye,,#FFFF00
sr_yellow,Owikeno,Lake Sockeye,,#FFFF00
sr_yellow,Pitt-Early Summer,Lake Sockeye,,#FFFF00
sr_yellow,Port John,Lake Sockeye,,#FFFFFF
sr_yellow,Roderick,Lake Sockeye,,#FFFF00
sr_yellow,Seton_Late,Lake Sockeye,,#FFFF00
sr_yellow,Seton-Summer,Lake Sockeye,,NA
sr_yellow,South Atnarko Lakes,Lake Sockeye,,#FFFFFF
sr_yellow,Sproat,Lake Sockeye,,#FFFF00
sr_yellow,Tankeeah River,Lake Sockeye,,#FFFF00
sr_yellow,Taseko-Early Summer,Lake Sockeye,,NA
sr_yellow,Tsimtack Lakes,Lake Sockeye,,#FFFFFF
sr_yellow,Yeo,Lake Sockeye,,#FFFF00
sr_yellow,Georgia Strait (even),Pink (Even),,#FFFF00
sr_yellow,Hecate Lowlands (even),Pink (Even),,#FFFF00
sr_yellow,Hecate Strait-Fjords (even),Pink (Even),,#FFFF00
sr_yellow,Southern Fjords (even),Pink (Even),,#FFFF00
sr_yellow,East Howe Sound-Burrard Inlet (odd),Pink (Odd),,#FFFF00
sr_yellow,East Vancouver Island-Johnstone Strait (odd),Pink (Odd),,#FFFF00
sr_yellow,Fraser River (odd),Pink (Odd),,#FFFF00
sr_yellow,Georgia Strait (odd),Pink (Odd),,#FFFF00
sr_yellow,Hecate Strait-Fjords (odd),Pink (Odd),,#FFFF00
sr_yellow,Hecate Strait-Lowlands (odd),Pink (Odd),,#FFFF00
sr_yellow,Homathko-Klinaklini-Smith-Rivers-Bella Coola-Dean (odd),Pink (Odd),,#FFFF00
sr_yellow,Nahwitti (odd),Pink (Odd),,#FFFF00
sr_yellow,Nass-Portland-Observatory (odd),Pink (Odd),,#FFFF00
sr_yellow,Southern Fjords (odd),Pink (Odd),,#FFFF00
sr_yellow,Harrison River (river-type),River Sockeye,,#FFFF00
sr_yellow,Lower Nass-Portland (river-type),River Sockeye,,NA
sr_yellow,Widgeon (river-type),River Sockeye,,NA
sr_yellow_prob,Bella Coola-Bentinck,Chinook,,0
sr_yellow_prob,Dean River,Chinook,,0
sr_yellow_prob,North and Central Coast-early timing,Chinook,,0
sr_yellow_prob,Portland Sound-Observatory Inlet-Lower Nass,Chinook,,0.06
sr_yellow_prob,Rivers Inlet,Chinook,,0.39
sr_yellow_prob,Upper Nass,Chinook,,0.41
sr_yellow_prob,Wannock,Chinook,,0.04
sr_yellow_prob,Bella Coola-Dean Rivers,Chum,,0.01
sr_yellow_prob,Douglas-Gardner,Chum,,0.37
sr_yellow_prob,Georgia Strait,Chum,,
sr_yellow_prob,Hecate Lowlands,Chum,,0.84
sr_yellow_prob,Howe Sound-Burrard Inlet,Chum,,
sr_yellow_prob,Loughborough,Chum,,
sr_yellow_prob,Mussel-Kynoch,Chum,,0.44
sr_yellow_prob,Northeast Vancouver Island,Chum,,
sr_yellow_prob,Northwest Vancouver Island,Chum,,0
sr_yellow_prob,Portland Canal-Observatory,Chum,,0.56
sr_yellow_prob,Portland Inlet,Chum,,0.12
sr_yellow_prob,Rivers Inlet,Chum,,0
sr_yellow_prob,Smith Inlet,Chum,,0.07
sr_yellow_prob,Southern Coastal Streams,Chum,,
sr_yellow_prob,Southwest Vancouver Island,Chum,,0.01
sr_yellow_prob,Spiller-Fitz-Hugh-Burke,Chum,,0.03
sr_yellow_prob,Bella Coola-Dean Rivers,Coho,,0.25
sr_yellow_prob,Northern Coastal Streams,Coho,,0.04
sr_yellow_prob,Douglas Channel-Kitimat Arm,Coho,,0
sr_yellow_prob,Hecate Strait Mainland,Coho,,0
sr_yellow_prob,Lower Nass,Coho,,0
sr_yellow_prob,Mussel-Kynoch,Coho,,0.28
sr_yellow_prob,Northern Coastal Streams,Coho,,0
sr_yellow_prob,Portland Sound-Observatory Inlet-Portland Canal,Coho,,0
sr_yellow_prob,Smith Inlet,Coho,,0.05
sr_yellow_prob,Upper Nass,Coho,,0
sr_yellow_prob,Adams-Early Summer,Lake Sockeye,,
sr_yellow_prob,Alouette-Early Summer,Lake Sockeye,,
sr_yellow_prob,Anderson-Seton-Early Summer,Lake Sockeye,,0.22
sr_yellow_prob,Backland,Lake Sockeye,,0
sr_yellow_prob,Bloomfield,Lake Sockeye,,0.3
sr_yellow_prob,Bowron-Early Summer,Lake Sockeye,,0.01
sr_yellow_prob,Canoona,Lake Sockeye,,0
sr_yellow_prob,Chilko-Summer,Lake Sockeye,,0.4
sr_yellow_prob,Coquitlam-Early Summer,Lake Sockeye,,
sr_yellow_prob,Curtis Inlet,Lake Sockeye,,0.08
sr_yellow_prob,Damdochax/Wiminasik,Lake Sockeye,,0.72
sr_yellow_prob,Devon,Lake Sockeye,,0.01
sr_yellow_prob,Evelyn,Lake Sockeye,,0.05
sr_yellow_prob,Francois-Fraser-Summer,Lake Sockeye,,0.52
sr_yellow_prob,Fraser-Early Summer,Lake Sockeye,,
sr_yellow_prob,Fred Wright,Lake Sockeye,,0.95
sr_yellow_prob,Great Central,Lake Sockeye,,0.05
sr_yellow_prob,Harrison-Downstream Migrating-Late,Lake Sockeye,,
sr_yellow_prob,Harrison-Upstream Migrating-Late,Lake Sockeye,,0.05
sr_yellow_prob,Hartley Bay,Lake Sockeye,,0.01
sr_yellow_prob,Kadjusdis River,Lake Sockeye,,0.24
sr_yellow_prob,Kainet Creek,Lake Sockeye,,0.01
sr_yellow_prob,Kamloops-Early Summer,Lake Sockeye,,0.63
sr_yellow_prob,Kawkawa-Late,Lake Sockeye,,
sr_yellow_prob,Keecha,Lake Sockeye,,0.06
sr_yellow_prob,Kitlope,Lake Sockeye,,0.29
sr_yellow_prob,Koeye,Lake Sockeye,,0
sr_yellow_prob,Kooryet,Lake Sockeye,,0.08
sr_yellow_prob,Lillooet-Harrison-Late,Lake Sockeye,,0
sr_yellow_prob,Long,Lake Sockeye,,0.1
sr_yellow_prob,Lowe/Simpson/Weare,Lake Sockeye,,0
sr_yellow_prob,Mary Cove Creek,Lake Sockeye,,0
sr_yellow_prob,Meziadin,Lake Sockeye,,0.43
sr_yellow_prob,Mikado,Lake Sockeye,,0
sr_yellow_prob,Momich-Early Summer,Lake Sockeye,,
sr_yellow_prob,Nadina-Francois-Early Summer,Lake Sockeye,,0.87
sr_yellow_prob,Nahatlatch-Early Summer,Lake Sockeye,,
sr_yellow_prob,Namu,Lake Sockeye,,0.04
sr_yellow_prob,Nimpkish,Lake Sockeye,,
sr_yellow_prob,North Barriere-Early Summer,Lake Sockeye,,
sr_yellow_prob,North Barriere-Early Summer (de novo),Lake Sockeye,,0.91
sr_yellow_prob,Owikeno,Lake Sockeye,,0.38
sr_yellow_prob,Pitt-Early Summer,Lake Sockeye,,0.45
sr_yellow_prob,Port John,Lake Sockeye,,0
sr_yellow_prob,Roderick,Lake Sockeye,,0.16
sr_yellow_prob,Seton_Late,Lake Sockeye,,0.02
sr_yellow_prob,Seton-Summer,Lake Sockeye,,
sr_yellow_prob,South Atnarko Lakes,Lake Sockeye,,0
sr_yellow_prob,Sproat,Lake Sockeye,,0.01
sr_yellow_prob,Tankeeah River,Lake Sockeye,,0.02
sr_yellow_prob,Taseko-Early Summer,Lake Sockeye,,
sr_yellow_prob,Tsimtack Lakes,Lake Sockeye,,0
sr_yellow_prob,Yeo,Lake Sockeye,,0.04
sr_yellow_prob,Georgia Strait (even),Pink (Even),,0.32
sr_yellow_prob,Hecate Lowlands (even),Pink (Even),,0.27
sr_yellow_prob,Hecate Strait-Fjords (even),Pink (Even),,0.02
sr_yellow_prob,Southern Fjords (even),Pink (Even),,0.68
sr_yellow_prob,East Howe Sound-Burrard Inlet (odd),Pink (Odd),,0.28
sr_yellow_prob,East Vancouver Island-Johnstone Strait (odd),Pink (Odd),,0.12
sr_yellow_prob,Fraser River (odd),Pink (Odd),,0.12
sr_yellow_prob,Georgia Strait (odd),Pink (Odd),,0.36
sr_yellow_prob,Hecate Strait-Fjords (odd),Pink (Odd),,0.06
sr_yellow_prob,Hecate Strait-Lowlands (odd),Pink (Odd),,0.45
sr_yellow_prob,Homathko-Klinaklini-Smith-Rivers-Bella Coola-Dean (odd),Pink (Odd),,0.01
sr_yellow_prob,Nahwitti (odd),Pink (Odd),,0.51
sr_yellow_prob,Nass-Portland-Observatory (odd),Pink (Odd),,0.01
sr_yellow_prob,Southern Fjords (odd),Pink (Odd),,0.04
sr_yellow_prob,Harrison River (river-type),River Sockeye,,0.35
sr_yellow_prob,Widgeon (river-type),River Sockeye,,
