parameter,location,species,year,datavalue
catch_quality,Bella Coola-Bentinck,Chinook,,5
catch_quality,Boundary Bay (Fall 4-1),Chinook,,0
catch_quality,Dean River,Chinook,,3
catch_quality,Docee,Chinook,,0
catch_quality,East Vancouver Island-Cowichan and Koksilah (Fall x-1),Chinook,,0
catch_quality,East Vancouver Island-Georgia Strait (Summer 4-1),Chinook,,0
catch_quality,East Vancouver Island-Goldstream (Fall x-1),Chinook,,0
catch_quality,East Vancouver Island-Nanaimo (Spring x-2),Chinook,,0
catch_quality,East Vancouver Island-Nanaimo and Chemainus (Fall x-1),Chinook,,0
catch_quality,East Vancouver Island-North (Fall x-1),Chinook,,0
catch_quality,East Vancouver Island-Qualicum and Puntledge (Fall x-1),Chinook,,0
catch_quality,Ecstall,Chinook,,0
catch_quality,Middle Fraser-Fraser Canyon_SP_1.3,Chinook,,0
catch_quality,Homathko_SU_x.x,Chinook,,0
catch_quality,Kalum_early timing,Chinook,,0
catch_quality,Kalum_late timing,Chinook,,5
catch_quality,Klinaklini_SU_1.3,Chinook,,0
catch_quality,Lakelse,Chinook,,0
catch_quality,Maria Slough_SU_0.3,Chinook,,0
catch_quality,Lower Fraser River-Upper Pitt (Summer 5-2),Chinook,,0
catch_quality,Lower Fraser River (Fall 4-1),Chinook,,0
catch_quality,Lower Fraser River (Spring 5-2),Chinook,,0
catch_quality,Lower Fraser River (Summer 5-2),Chinook,,0
catch_quality,Lower Skeena,Chinook,,5
catch_quality,Lower Thompson (Spring 4-2),Chinook,,0
catch_quality,Middle Fraser River-Portage (Fall 5-2),Chinook,,0
catch_quality,Middle Fraser River (Spring 5-2),Chinook,,0
catch_quality,Middle Fraser River (Summer 5-2),Chinook,,0
catch_quality,Middle Skeena-Large Lakes,Chinook,,5
catch_quality,Middle Skeena-Mainstem Tributaries,Chinook,,5
catch_quality,North and Central Coast-early timing,Chinook,,3
catch_quality,North and Central Coast-late timing,Chinook,,0
catch_quality,North Thompson_SP_1.3,Chinook,,0
catch_quality,North Thompson_SU_1.3,Chinook,,0
catch_quality,Rivers Inlet,Chinook,,3
catch_quality,Shuswap River (Summer 4-1),Chinook,,0
catch_quality,Sicintine,Chinook,,0
catch_quality,Skeena Estuary,Chinook,,0
catch_quality,Upper Adams River_SU_x.x,Chinook,,0
catch_quality,South Thompson-Bessette Creek_SU_1.2,Chinook,,0
catch_quality,South Thompson (Summer 4-1),Chinook,,0
catch_quality,South Thompson (Summer 5-2),Chinook,,0
catch_quality,Southern Mainland-Georgia Strait (Fall x-1),Chinook,,0
catch_quality,Southern Mainland-Southern Fjords (Fall x-1),Chinook,,0
catch_quality,Upper Bulkley River,Chinook,,0
catch_quality,Upper Fraser River (Spring 5-2),Chinook,,0
catch_quality,Upper Skeena,Chinook,,0
catch_quality,Wannock,Chinook,,3
catch_quality,West Vancouver Island-Nootka and Kyuquot (Fall x-1),Chinook,,0
catch_quality,West Vancouver Island-North (Fall x-1),Chinook,,0
catch_quality,West Vancouver Island-South (Fall x-1),Chinook,,0
catch_quality,Zymoetz,Chinook,,0
catch_quality,Bella Coola-Dean Rivers,Chum,,2
catch_quality,Bella Coola River_late,Chum,,0
catch_quality,Bute Inlet,Chum,,0
catch_quality,Douglas-Gardner,Chum,,2
catch_quality,Georgia Strait,Chum,,0
catch_quality,Hecate Lowlands,Chum,,2
catch_quality,Howe Sound-Burrard Inlet,Chum,,0
catch_quality,Loughborough,Chum,,0
catch_quality,Lower Fraser,Chum,,0
catch_quality,Lower Skeena,Chum,,3
catch_quality,Middle Skeena,Chum,,3
catch_quality,Mussel-Kynoch,Chum,,2
catch_quality,Northeast Vancouver Island,Chum,,0
catch_quality,Northwest Vancouver Island,Chum,,3
catch_quality,Rivers Inlet,Chum,,2
catch_quality,Skeena Estuary,Chum,,3
catch_quality,Smith Inlet,Chum,,2
catch_quality,Southern Coastal Streams,Chum,,0
catch_quality,Southwest Vancouver Island,Chum,,3
catch_quality,Spiller-Fitz-Hugh-Burke,Chum,,2
catch_quality,Upper Knight,Chum,,0
catch_quality,Upper Skeena,Chum,,0
catch_quality,Wannock,Chum,,0
catch_quality,Bella Coola-Dean Rivers,Coho,,1
catch_quality,Boundary Bay,Coho,,0
catch_quality,Northern Coastal Streams,Coho,,1
catch_quality,Clayoquot,Coho,,0
catch_quality,Douglas Channel-Kitimat Arm,Coho,,1
catch_quality,East Vancouver Island-Georgia Strait,Coho,,0
catch_quality,East Vancouver Island-Johnstone Strait-Southern Fjords,Coho,,0
catch_quality,Fraser Canyon,Coho,,0
catch_quality,Georgia Strait Mainland,Coho,,0
catch_quality,Hecate Strait Mainland,Coho,,1
catch_quality,Homathko-Klinaklini Rivers,Coho,,0
catch_quality,Howe Sound-Burrard Inlet,Coho,,0
catch_quality,Interior Fraser,Coho,,0
catch_quality,Juan de Fuca-Pachena,Coho,,0
catch_quality,Lillooet,Coho,,0
catch_quality,Lower Fraser,Coho,,0
catch_quality,Lower Skeena,Coho,,3
catch_quality,Lower Thompson,Coho,,0
catch_quality,Middle Skeena,Coho,,3
catch_quality,Mussel-Kynoch,Coho,,1
catch_quality,Nahwitti Lowland,Coho,,0
catch_quality,North Thompson,Coho,,0
catch_quality,Northern Coastal Streams,Coho,,1
catch_quality,Rivers Inlet,Coho,,0
catch_quality,Skeena Estuary,Coho,,0
catch_quality,Smith Inlet,Coho,,3
catch_quality,South Thompson,Coho,,0
catch_quality,Southern Coastal Streams-Queen Charlotte Strait-Johnstone Strait-Southern Fjords,Coho,,0
catch_quality,Upper Skeena,Coho,,3
catch_quality,West Vancouver Island,Coho,,0
catch_quality,Adams and Momich Lakes_Early Summer,Lake Sockeye,,0
catch_quality,Alastair,Lake Sockeye,,5
catch_quality,Alice,Lake Sockeye,,0
catch_quality,Anderson-Seton-Early Summer,Lake Sockeye,,5
catch_quality,Asitika,Lake Sockeye,,5
catch_quality,Azuklotz,Lake Sockeye,,5
catch_quality,Babine Complex,Lake Sockeye,,5
catch_quality,Backland,Lake Sockeye,,2
catch_quality,Banks,Lake Sockeye,,0
catch_quality,Bear,Lake Sockeye,,5
catch_quality,Bloomfield,Lake Sockeye,,2
catch_quality,Bolton Creek,Lake Sockeye,,0
catch_quality,Bonilla,Lake Sockeye,,0
catch_quality,Borrowman Creek,Lake Sockeye,,0
catch_quality,Bowron-Early Summer,Lake Sockeye,,5
catch_quality,Bulkley,Lake Sockeye,,0
catch_quality,Busey Creek,Lake Sockeye,,0
catch_quality,Canoe Creek,Lake Sockeye,,0
catch_quality,Canoona,Lake Sockeye,,2
catch_quality,Cartwright Creek,Lake Sockeye,,0
catch_quality,Cecilia,Lake Sockeye,,0
catch_quality,Cheewat,Lake Sockeye,,0
catch_quality,Chic Chic,Lake Sockeye,,0
catch_quality,Chilko-Early Summer,Lake Sockeye,,0
catch_quality,Chilko-Summer,Lake Sockeye,,5
catch_quality,Chilliwack-Early Summer (cyclic),Lake Sockeye,,0
catch_quality,Citeyats,Lake Sockeye,,0
catch_quality,Clayoquot,Lake Sockeye,,0
catch_quality,Cultus-Late,Lake Sockeye,,5
catch_quality,Curtis Inlet,Lake Sockeye,,2
catch_quality,Dallain Creek,Lake Sockeye,,0
catch_quality,Damshilgwit,Lake Sockeye,,5
catch_quality,Deer,Lake Sockeye,,0
catch_quality,Deserted,Lake Sockeye,,0
catch_quality,Devon,Lake Sockeye,,2
catch_quality,Dome,Lake Sockeye,,0
catch_quality,Douglas Creek,Lake Sockeye,,0
catch_quality,Ecstall/Lower,Lake Sockeye,,0
catch_quality,Elizabeth,Lake Sockeye,,0
catch_quality,Elsie/Hoy,Lake Sockeye,,0
catch_quality,End Hill Creek,Lake Sockeye,,0
catch_quality,Evelyn,Lake Sockeye,,2
catch_quality,Evinrude Inlet,Lake Sockeye,,0
catch_quality,Fairy,Lake Sockeye,,0
catch_quality,Fannie Cove,Lake Sockeye,,0
catch_quality,Footsore/Hodder,Lake Sockeye,,0
catch_quality,Francois-Fraser-Summer,Lake Sockeye,,5
catch_quality,Freeda/Brodie,Lake Sockeye,,0
catch_quality,Fulmore,Lake Sockeye,,0
catch_quality,Kitwancool,Lake Sockeye,,5
catch_quality,Great Central,Lake Sockeye,,3
catch_quality,Harrison-Downstream Migrating-Late,Lake Sockeye,,0
catch_quality,Harrison-Upstream Migrating-Late,Lake Sockeye,,5
catch_quality,Hartley Bay,Lake Sockeye,,2
catch_quality,Henderson,Lake Sockeye,,0
catch_quality,Hesquiat,Lake Sockeye,,0
catch_quality,Hevenor Inlet,Lake Sockeye,,0
catch_quality,Heydon,Lake Sockeye,,0
catch_quality,Higgins Lagoon,Lake Sockeye,,0
catch_quality,Hobiton,Lake Sockeye,,0
catch_quality,Ida-Bonanza,Lake Sockeye,,0
catch_quality,Jansen,Lake Sockeye,,0
catch_quality,Johanson,Lake Sockeye,,0
catch_quality,Johnston,Lake Sockeye,,0
catch_quality,Kadjusdis River,Lake Sockeye,,2
catch_quality,Kainet Creek,Lake Sockeye,,2
catch_quality,Kakweiken,Lake Sockeye,,0
catch_quality,Kamloops-Early Summer,Lake Sockeye,,5
catch_quality,Kanim,Lake Sockeye,,0
catch_quality,Kdelmashan Creek,Lake Sockeye,,0
catch_quality,Keecha,Lake Sockeye,,2
catch_quality,Kennedy,Lake Sockeye,,0
catch_quality,Kent Inlet Lagoon Creek,Lake Sockeye,,0
catch_quality,Kenzuwash Creeks,Lake Sockeye,,0
catch_quality,Keswar Creek,Lake Sockeye,,0
catch_quality,Kildidt Creek,Lake Sockeye,,0
catch_quality,Kildidt Lagoon Creek,Lake Sockeye,,0
catch_quality,Kimsquit,Lake Sockeye,,0
catch_quality,Kisameet,Lake Sockeye,,0
catch_quality,Kitkiata,Lake Sockeye,,0
catch_quality,Kitlope,Lake Sockeye,,2
catch_quality,Kitsumkalum,Lake Sockeye,,5
catch_quality,Kluatantan,Lake Sockeye,,0
catch_quality,Kluayaz,Lake Sockeye,,0
catch_quality,Koeye,Lake Sockeye,,0
catch_quality,Kooryet,Lake Sockeye,,2
catch_quality,Kunsoot River,Lake Sockeye,,0
catch_quality,Kwakwa Creek,Lake Sockeye,,0
catch_quality,Lakelse,Lake Sockeye,,5
catch_quality,Lewis Creek,Lake Sockeye,,0
catch_quality,Lillooet-Harrison-Late,Lake Sockeye,,5
catch_quality,Limestone Creek,Lake Sockeye,,0
catch_quality,Long,Lake Sockeye,,2
catch_quality,Loose,Lake Sockeye,,0
catch_quality,Lowe/Simpson/Weare,Lake Sockeye,,2
catch_quality,Mackenzie,Lake Sockeye,,0
catch_quality,Maggie,Lake Sockeye,,0
catch_quality,Mary Cove Creek,Lake Sockeye,,2
catch_quality,Mcdonald Creek,Lake Sockeye,,0
catch_quality,Mcdonell,Lake Sockeye,,5
catch_quality,Mcloughlin,Lake Sockeye,,0
catch_quality,Megin,Lake Sockeye,,0
catch_quality,Mikado,Lake Sockeye,,2
catch_quality,Monckton Inlet Creek,Lake Sockeye,,0
catch_quality,Morice,Lake Sockeye,,5
catch_quality,Motase,Lake Sockeye,,5
catch_quality,Muchalat,Lake Sockeye,,0
catch_quality,Muriel,Lake Sockeye,,0
catch_quality,Nadina-Francois-Early Summer,Lake Sockeye,,5
catch_quality,Nahatlatch-Early Summer,Lake Sockeye,,0
catch_quality,Nahwitti,Lake Sockeye,,0
catch_quality,Namu,Lake Sockeye,,2
catch_quality,Nimpkish,Lake Sockeye,,0
catch_quality,Nitinat,Lake Sockeye,,0
catch_quality,North Barriere-Early Summer (de novo),Lake Sockeye,,5
catch_quality,O'Connell,Lake Sockeye,,0
catch_quality,Owikeno,Lake Sockeye,,2
catch_quality,Park River,Lake Sockeye,,0
catch_quality,Phillips,Lake Sockeye,,0
catch_quality,Pine River,Lake Sockeye,,0
catch_quality,Pitt-Early Summer,Lake Sockeye,,5
catch_quality,Port John,Lake Sockeye,,2
catch_quality,Power,Lake Sockeye,,0
catch_quality,Powles Creek,Lake Sockeye,,0
catch_quality,Price Creek,Lake Sockeye,,0
catch_quality,Quatse,Lake Sockeye,,0
catch_quality,Quesnel-Summer (cyclic),Lake Sockeye,,5
catch_quality,Roderick,Lake Sockeye,,2
catch_quality,Ryan Creek,Lake Sockeye,,0
catch_quality,Sakinaw,Lake Sockeye,,0
catch_quality,Salter,Lake Sockeye,,0
catch_quality,Schoen,Lake Sockeye,,0
catch_quality,Scoular/Kilpatrick,Lake Sockeye,,0
catch_quality,Seton_Late,Lake Sockeye,,5
catch_quality,Sheneeza Inlet,Lake Sockeye,,0
catch_quality,Ship Point Creek,Lake Sockeye,,0
catch_quality,Shushartie,Lake Sockeye,,0
catch_quality,Shuswap-Early Summer (cyclic),Lake Sockeye,,5
catch_quality,Shuswap Complex_Late,Lake Sockeye,,5
catch_quality,Sicintine,Lake Sockeye,,0
catch_quality,Slamgeesh,Lake Sockeye,,0
catch_quality,North and Central Coast-early timing,Lake Sockeye,,0
catch_quality,South Atnarko Lakes,Lake Sockeye,,2
catch_quality,Spawning,Lake Sockeye,,0
catch_quality,Spencer Creek,Lake Sockeye,,0
catch_quality,Sproat,Lake Sockeye,,3
catch_quality,Stannard Creek,Lake Sockeye,,0
catch_quality,Stephens,Lake Sockeye,,5
catch_quality,Sustut,Lake Sockeye,,0
catch_quality,Stephens,Lake Sockeye,,5
catch_quality,Tahlo/Morrison,Lake Sockeye,,5
catch_quality,Takla-Trembleur-Early Stuart (cyclic),Lake Sockeye,,5
catch_quality,Takla/Trembleur/Stuart_Summer,Lake Sockeye,,5
catch_quality,Talamoosa Creek,Lake Sockeye,,0
catch_quality,Tankeeah River,Lake Sockeye,,2
catch_quality,Taseko-Early Summer,Lake Sockeye,,0
catch_quality,Treneman Creek,Lake Sockeye,,0
catch_quality,Tsimtack Lakes,Lake Sockeye,,2
catch_quality,Tuno Creek East,Lake Sockeye,,0
catch_quality,Tuno Creek West,Lake Sockeye,,0
catch_quality,Tyler Creek,Lake Sockeye,,0
catch_quality,Tzoonie,Lake Sockeye,,0
catch_quality,Vernon,Lake Sockeye,,0
catch_quality,Wale Creek,Lake Sockeye,,0
catch_quality,Wannock[Owikeno],Lake Sockeye,,0
catch_quality,Watt Bay,Lake Sockeye,,0
catch_quality,West Creek,Lake Sockeye,,0
catch_quality,William-Brink,Lake Sockeye,,0
catch_quality,Woss,Lake Sockeye,,0
catch_quality,Yaaklele Lagoon,Lake Sockeye,,0
catch_quality,Yeo,Lake Sockeye,,2
catch_quality,Georgia Strait (even),Pink (Even),,3
catch_quality,Hecate Lowlands (even),Pink (Even),,2
catch_quality,Hecate Strait-Fjords (even),Pink (Even),,2
catch_quality,Middle-Upper Skeena (even),Pink (Even),,3
catch_quality,Nass-Skeena Estuary (even),Pink (Even),,3
catch_quality,Northwest Vancouver Island (even),Pink (Even),,0
catch_quality,Southern Fjords (even),Pink (Even),,3
catch_quality,West Vancouver Island (even),Pink (Even),,0
catch_quality,East Howe Sound-Burrard Inlet (odd),Pink (Odd),,3
catch_quality,East Vancouver Island-Johnstone Strait (odd),Pink (Odd),,3
catch_quality,Fraser River (odd),Pink (Odd),,5
catch_quality,Georgia Strait (odd),Pink (Odd),,3
catch_quality,Hecate Strait-Fjords (odd),Pink (Odd),,2
catch_quality,Hecate Strait-Lowlands (odd),Pink (Odd),,2
catch_quality,Homathko-Klinaklini-Smith-Rivers-Bella Coola-Dean (odd),Pink (Odd),,2
catch_quality,Lower Skeena,Pink (Odd),,3
catch_quality,Middle-Upper Skeena,Pink (Odd),,3
catch_quality,Nahwitti (odd),Pink (Odd),,3
catch_quality,Nass-Skeena Estuary (odd),Pink (Odd),,3
catch_quality,Southern Fjords (odd),Pink (Odd),,3
catch_quality,West Vancouver Island (odd),Pink (Odd),,0
catch_quality,East Vancouver Island & Georgia Strait (river-type),River Sockeye,,0
catch_quality,Harrison River (river-type),River Sockeye,,5
catch_quality,Northern Coastal Fjords (river-type),River Sockeye,,0
catch_quality,Northern Coastal Streams (river-type),River Sockeye,,0
catch_quality,NW Vancouver Island (river-type),River Sockeye,,0
catch_quality,Rivers-Smith Inlets (river-type),River Sockeye,,0
catch_quality,Skeena River-High Interior (river-type),River Sockeye,,5
catch_quality,Skeena River (river-type),River Sockeye,,0
catch_quality,Southern Fjords (river-type),River Sockeye,,0
catch_quality,West Vancouver Island (river-type),River Sockeye,,0
catch_quality,Widgeon (river-type),River Sockeye,,0
dq_score,Bella Coola-Bentinck,Chinook,,13
dq_score,Boundary Bay (Fall 4-1),Chinook,,0
dq_score,Dean River,Chinook,,10
dq_score,Docee,Chinook,,0
dq_score,East Vancouver Island-Cowichan and Koksilah (Fall x-1),Chinook,,15
dq_score,East Vancouver Island-Georgia Strait (Summer 4-1),Chinook,,14
dq_score,East Vancouver Island-Goldstream (Fall x-1),Chinook,,5
dq_score,East Vancouver Island-Nanaimo (Spring x-2),Chinook,,0
dq_score,East Vancouver Island-Nanaimo and Chemainus (Fall x-1),Chinook,,13
dq_score,East Vancouver Island-North (Fall x-1),Chinook,,14
dq_score,East Vancouver Island-Qualicum and Puntledge (Fall x-1),Chinook,,13
dq_score,Ecstall,Chinook,,0
dq_score,Middle Fraser-Fraser Canyon_SP_1.3,Chinook,,0
dq_score,Homathko_SU_x.x,Chinook,,0
dq_score,Kalum_early timing,Chinook,,0
dq_score,Kalum_late timing,Chinook,,15
dq_score,Klinaklini_SU_1.3,Chinook,,0
dq_score,Lakelse,Chinook,,0
dq_score,Maria Slough_SU_0.3,Chinook,,0
dq_score,Lower Fraser River-Upper Pitt (Summer 5-2),Chinook,,0
dq_score,Lower Fraser River (Fall 4-1),Chinook,,14
dq_score,Lower Fraser River (Spring 5-2),Chinook,,8
dq_score,Lower Fraser River (Summer 5-2),Chinook,,0
dq_score,Lower Skeena,Chinook,,10
dq_score,Lower Thompson (Spring 4-2),Chinook,,13
dq_score,Middle Fraser River-Portage (Fall 5-2),Chinook,,0
dq_score,Middle Fraser River (Spring 5-2),Chinook,,7
dq_score,Middle Fraser River (Summer 5-2),Chinook,,8
dq_score,Middle Skeena-Large Lakes,Chinook,,18
dq_score,Middle Skeena-Mainstem Tributaries,Chinook,,12
dq_score,North and Central Coast-early timing,Chinook,,7
dq_score,North and Central Coast-late timing,Chinook,,0
dq_score,North Thompson_SP_1.3,Chinook,,9
dq_score,North Thompson_SU_1.3,Chinook,,10
dq_score,Rivers Inlet,Chinook,,8
dq_score,Shuswap River (Summer 4-1),Chinook,,14
dq_score,Sicintine,Chinook,,0
dq_score,Skeena Estuary,Chinook,,0
dq_score,Upper Adams River_SU_x.x,Chinook,,0
dq_score,South Thompson-Bessette Creek_SU_1.2,Chinook,,8
dq_score,South Thompson (Summer 4-1),Chinook,,8
dq_score,South Thompson (Summer 5-2),Chinook,,13
dq_score,Southern Mainland-Georgia Strait (Fall x-1),Chinook,,0
dq_score,Southern Mainland-Southern Fjords (Fall x-1),Chinook,,5
dq_score,Upper Bulkley River,Chinook,,0
dq_score,Upper Fraser River (Spring 5-2),Chinook,,7
dq_score,Upper Skeena,Chinook,,0
dq_score,Wannock,Chinook,,9
dq_score,West Vancouver Island-Nootka and Kyuquot (Fall x-1),Chinook,,8
dq_score,West Vancouver Island-North (Fall x-1),Chinook,,5
dq_score,West Vancouver Island-South (Fall x-1),Chinook,,7
dq_score,Zymoetz,Chinook,,0
dq_score,Bella Coola-Dean Rivers,Chum,,12
dq_score,Bella Coola River_late,Chum,,0
dq_score,Bute Inlet,Chum,,0
dq_score,Douglas-Gardner,Chum,,11
dq_score,Georgia Strait,Chum,,12
dq_score,Hecate Lowlands,Chum,,9
dq_score,Howe Sound-Burrard Inlet,Chum,,0
dq_score,Loughborough,Chum,,6
dq_score,Lower Fraser,Chum,,5
dq_score,Lower Skeena,Chum,,10
dq_score,Middle Skeena,Chum,,10
dq_score,Mussel-Kynoch,Chum,,12
dq_score,Northeast Vancouver Island,Chum,,6
dq_score,Northwest Vancouver Island,Chum,,9
dq_score,Rivers Inlet,Chum,,7
dq_score,Skeena Estuary,Chum,,6
dq_score,Smith Inlet,Chum,,11
dq_score,Southern Coastal Streams,Chum,,4
dq_score,Southwest Vancouver Island,Chum,,10
dq_score,Spiller-Fitz-Hugh-Burke,Chum,,9
dq_score,Upper Knight,Chum,,0
dq_score,Upper Skeena,Chum,,0
dq_score,Wannock,Chum,,0
dq_score,Bella Coola-Dean Rivers,Coho,,11
dq_score,Boundary Bay,Coho,,0
dq_score,Northern Coastal Streams,Coho,,11
dq_score,Clayoquot,Coho,,6
dq_score,Douglas Channel-Kitimat Arm,Coho,,7
dq_score,East Vancouver Island-Georgia Strait,Coho,,5
dq_score,East Vancouver Island-Johnstone Strait-Southern Fjords,Coho,,8
dq_score,Fraser Canyon,Coho,,8
dq_score,Georgia Strait Mainland,Coho,,5
dq_score,Hecate Strait Mainland,Coho,,6
dq_score,Homathko-Klinaklini Rivers,Coho,,0
dq_score,Howe Sound-Burrard Inlet,Coho,,0
dq_score,Interior Fraser,Coho,,7
dq_score,Juan de Fuca-Pachena,Coho,,6
dq_score,Lillooet,Coho,,0
dq_score,Lower Fraser,Coho,,0
dq_score,Lower Skeena,Coho,,9
dq_score,Lower Thompson,Coho,,10
dq_score,Middle Skeena,Coho,,8
dq_score,Mussel-Kynoch,Coho,,7
dq_score,Nahwitti Lowland,Coho,,9
dq_score,North Thompson,Coho,,8
dq_score,Northern Coastal Streams,Coho,,11
dq_score,Rivers Inlet,Coho,,0
dq_score,Skeena Estuary,Coho,,0
dq_score,Smith Inlet,Coho,,10
dq_score,South Thompson,Coho,,7
dq_score,Southern Coastal Streams-Queen Charlotte Strait-Johnstone Strait-Southern Fjords,Coho,,4
dq_score,Upper Skeena,Coho,,14
dq_score,West Vancouver Island,Coho,,6
dq_score,Adams and Momich Lakes_Early Summer,Lake Sockeye,,0
dq_score,Alastair,Lake Sockeye,,15
dq_score,Alice,Lake Sockeye,,0
dq_score,Anderson-Seton-Early Summer,Lake Sockeye,,19
dq_score,Asitika,Lake Sockeye,,14
dq_score,Azuklotz,Lake Sockeye,,14
dq_score,Babine Complex,Lake Sockeye,,17
dq_score,Backland,Lake Sockeye,,11
dq_score,Banks,Lake Sockeye,,0
dq_score,Bear,Lake Sockeye,,11
dq_score,Bloomfield,Lake Sockeye,,9
dq_score,Bolton Creek,Lake Sockeye,,0
dq_score,Bonilla,Lake Sockeye,,0
dq_score,Borrowman Creek,Lake Sockeye,,0
dq_score,Bowron-Early Summer,Lake Sockeye,,17
dq_score,Bulkley,Lake Sockeye,,0
dq_score,Busey Creek,Lake Sockeye,,0
dq_score,Canoe Creek,Lake Sockeye,,0
dq_score,Canoona,Lake Sockeye,,11
dq_score,Cartwright Creek,Lake Sockeye,,0
dq_score,Cecilia,Lake Sockeye,,0
dq_score,Cheewat,Lake Sockeye,,0
dq_score,Chic Chic,Lake Sockeye,,0
dq_score,Chilko-Early Summer,Lake Sockeye,,0
dq_score,Chilko-Summer,Lake Sockeye,,19
dq_score,Chilliwack-Early Summer (cyclic),Lake Sockeye,,13
dq_score,Citeyats,Lake Sockeye,,0
dq_score,Clayoquot,Lake Sockeye,,0
dq_score,Cultus-Late,Lake Sockeye,,20
dq_score,Curtis Inlet,Lake Sockeye,,11
dq_score,Dallain Creek,Lake Sockeye,,0
dq_score,Damshilgwit,Lake Sockeye,,20
dq_score,Deer,Lake Sockeye,,0
dq_score,Deserted,Lake Sockeye,,0
dq_score,Devon,Lake Sockeye,,13
dq_score,Dome,Lake Sockeye,,0
dq_score,Douglas Creek,Lake Sockeye,,0
dq_score,Ecstall/Lower,Lake Sockeye,,0
dq_score,Elizabeth,Lake Sockeye,,0
dq_score,Elsie/Hoy,Lake Sockeye,,0
dq_score,End Hill Creek,Lake Sockeye,,0
dq_score,Evelyn,Lake Sockeye,,15
dq_score,Evinrude Inlet,Lake Sockeye,,0
dq_score,Fairy,Lake Sockeye,,0
dq_score,Fannie Cove,Lake Sockeye,,0
dq_score,Footsore/Hodder,Lake Sockeye,,0
dq_score,Francois-Fraser-Summer,Lake Sockeye,,19
dq_score,Freeda/Brodie,Lake Sockeye,,0
dq_score,Fulmore,Lake Sockeye,,0
dq_score,Kitwancool,Lake Sockeye,,18
dq_score,Great Central,Lake Sockeye,,3
dq_score,Harrison-Downstream Migrating-Late,Lake Sockeye,,13
dq_score,Harrison-Upstream Migrating-Late,Lake Sockeye,,18
dq_score,Hartley Bay,Lake Sockeye,,15
dq_score,Henderson,Lake Sockeye,,12
dq_score,Hesquiat,Lake Sockeye,,1
dq_score,Hevenor Inlet,Lake Sockeye,,0
dq_score,Heydon,Lake Sockeye,,0
dq_score,Higgins Lagoon,Lake Sockeye,,0
dq_score,Hobiton,Lake Sockeye,,0
dq_score,Ida-Bonanza,Lake Sockeye,,0
dq_score,Jansen,Lake Sockeye,,0
dq_score,Johanson,Lake Sockeye,,0
dq_score,Johnston,Lake Sockeye,,0
dq_score,Kadjusdis River,Lake Sockeye,,9
dq_score,Kainet Creek,Lake Sockeye,,13
dq_score,Kakweiken,Lake Sockeye,,0
dq_score,Kamloops-Early Summer,Lake Sockeye,,17
dq_score,Kanim,Lake Sockeye,,0
dq_score,Kdelmashan Creek,Lake Sockeye,,0
dq_score,Keecha,Lake Sockeye,,11
dq_score,Kennedy,Lake Sockeye,,0
dq_score,Kent Inlet Lagoon Creek,Lake Sockeye,,0
dq_score,Kenzuwash Creeks,Lake Sockeye,,0
dq_score,Keswar Creek,Lake Sockeye,,0
dq_score,Kildidt Creek,Lake Sockeye,,0
dq_score,Kildidt Lagoon Creek,Lake Sockeye,,0
dq_score,Kimsquit,Lake Sockeye,,0
dq_score,Kisameet,Lake Sockeye,,0
dq_score,Kitkiata,Lake Sockeye,,0
dq_score,Kitlope,Lake Sockeye,,12
dq_score,Kitsumkalum,Lake Sockeye,,10
dq_score,Kluatantan,Lake Sockeye,,0
dq_score,Kluayaz,Lake Sockeye,,0
dq_score,Koeye,Lake Sockeye,,0
dq_score,Kooryet,Lake Sockeye,,11
dq_score,Kunsoot River,Lake Sockeye,,0
dq_score,Kwakwa Creek,Lake Sockeye,,0
dq_score,Lakelse,Lake Sockeye,,14
dq_score,Lewis Creek,Lake Sockeye,,0
dq_score,Lillooet-Harrison-Late,Lake Sockeye,,19
dq_score,Limestone Creek,Lake Sockeye,,0
dq_score,Long,Lake Sockeye,,10
dq_score,Loose,Lake Sockeye,,0
dq_score,Lowe/Simpson/Weare,Lake Sockeye,,11
dq_score,Mackenzie,Lake Sockeye,,8
dq_score,Maggie,Lake Sockeye,,0
dq_score,Mary Cove Creek,Lake Sockeye,,8
dq_score,Mcdonald Creek,Lake Sockeye,,0
dq_score,Mcdonell,Lake Sockeye,,16
dq_score,Mcloughlin,Lake Sockeye,,0
dq_score,Megin,Lake Sockeye,,0
dq_score,Mikado,Lake Sockeye,,10
dq_score,Monckton Inlet Creek,Lake Sockeye,,0
dq_score,Morice,Lake Sockeye,,17
dq_score,Motase,Lake Sockeye,,13
dq_score,Muchalat,Lake Sockeye,,0
dq_score,Muriel,Lake Sockeye,,0
dq_score,Nadina-Francois-Early Summer,Lake Sockeye,,19
dq_score,Nahatlatch-Early Summer,Lake Sockeye,,12
dq_score,Nahwitti,Lake Sockeye,,0
dq_score,Namu,Lake Sockeye,,12
dq_score,Nimpkish,Lake Sockeye,,14
dq_score,Nitinat,Lake Sockeye,,0
dq_score,North Barriere-Early Summer (de novo),Lake Sockeye,,18
dq_score,O'Connell,Lake Sockeye,,0
dq_score,Owikeno,Lake Sockeye,,10
dq_score,Park River,Lake Sockeye,,0
dq_score,Phillips,Lake Sockeye,,13
dq_score,Pine River,Lake Sockeye,,0
dq_score,Pitt-Early Summer,Lake Sockeye,,18
dq_score,Port John,Lake Sockeye,,14
dq_score,Power,Lake Sockeye,,0
dq_score,Powles Creek,Lake Sockeye,,0
dq_score,Price Creek,Lake Sockeye,,0
dq_score,Quatse,Lake Sockeye,,0
dq_score,Quesnel-Summer (cyclic),Lake Sockeye,,18
dq_score,Roderick,Lake Sockeye,,12
dq_score,Ryan Creek,Lake Sockeye,,0
dq_score,Sakinaw,Lake Sockeye,,15
dq_score,Salter,Lake Sockeye,,0
dq_score,Schoen,Lake Sockeye,,0
dq_score,Scoular/Kilpatrick,Lake Sockeye,,0
dq_score,Seton_Late,Lake Sockeye,,5
dq_score,Sheneeza Inlet,Lake Sockeye,,0
dq_score,Ship Point Creek,Lake Sockeye,,0
dq_score,Shushartie,Lake Sockeye,,0
dq_score,Shuswap-Early Summer (cyclic),Lake Sockeye,,5
dq_score,Shuswap Complex_Late,Lake Sockeye,,17
dq_score,Sicintine,Lake Sockeye,,0
dq_score,Slamgeesh,Lake Sockeye,,0
dq_score,North and Central Coast-early timing,Lake Sockeye,,0
dq_score,South Atnarko Lakes,Lake Sockeye,,13
dq_score,Spawning,Lake Sockeye,,0
dq_score,Spencer Creek,Lake Sockeye,,0
dq_score,Sproat,Lake Sockeye,,3
dq_score,Stannard Creek,Lake Sockeye,,0
dq_score,Stephens,Lake Sockeye,,16
dq_score,Sustut,Lake Sockeye,,0
dq_score,Stephens,Lake Sockeye,,10
dq_score,Tahlo/Morrison,Lake Sockeye,,14
dq_score,Takla-Trembleur-Early Stuart (cyclic),Lake Sockeye,,18
dq_score,Takla/Trembleur/Stuart_Summer,Lake Sockeye,,17
dq_score,Talamoosa Creek,Lake Sockeye,,0
dq_score,Tankeeah River,Lake Sockeye,,10
dq_score,Taseko-Early Summer,Lake Sockeye,,12
dq_score,Treneman Creek,Lake Sockeye,,0
dq_score,Tsimtack Lakes,Lake Sockeye,,14
dq_score,Tuno Creek East,Lake Sockeye,,0
dq_score,Tuno Creek West,Lake Sockeye,,0
dq_score,Tyler Creek,Lake Sockeye,,0
dq_score,Tzoonie,Lake Sockeye,,0
dq_score,Vernon,Lake Sockeye,,0
dq_score,Wale Creek,Lake Sockeye,,0
dq_score,Wannock[Owikeno],Lake Sockeye,,0
dq_score,Watt Bay,Lake Sockeye,,0
dq_score,West Creek,Lake Sockeye,,0
dq_score,William-Brink,Lake Sockeye,,0
dq_score,Woss,Lake Sockeye,,0
dq_score,Yaaklele Lagoon,Lake Sockeye,,0
dq_score,Yeo,Lake Sockeye,,10
dq_score,Georgia Strait (even),Pink (Even),,15
dq_score,Hecate Lowlands (even),Pink (Even),,9
dq_score,Hecate Strait-Fjords (even),Pink (Even),,10
dq_score,Middle-Upper Skeena (even),Pink (Even),,9
dq_score,Nass-Skeena Estuary (even),Pink (Even),,10
dq_score,Northwest Vancouver Island (even),Pink (Even),,0
dq_score,Southern Fjords (even),Pink (Even),,12
dq_score,West Vancouver Island (even),Pink (Even),,0
dq_score,East Howe Sound-Burrard Inlet (odd),Pink (Odd),,3
dq_score,East Vancouver Island-Johnstone Strait (odd),Pink (Odd),,15
dq_score,Fraser River (odd),Pink (Odd),,20
dq_score,Georgia Strait (odd),Pink (Odd),,14
dq_score,Hecate Strait-Fjords (odd),Pink (Odd),,10
dq_score,Hecate Strait-Lowlands (odd),Pink (Odd),,9
dq_score,Homathko-Klinaklini-Smith-Rivers-Bella Coola-Dean (odd),Pink (Odd),,5
dq_score,Lower Skeena,Pink (Odd),,9
dq_score,Middle-Upper Skeena,Pink (Odd),,9
dq_score,Nahwitti (odd),Pink (Odd),,13
dq_score,Nass-Skeena Estuary (odd),Pink (Odd),,9
dq_score,Southern Fjords (odd),Pink (Odd),,9
dq_score,West Vancouver Island (odd),Pink (Odd),,0
dq_score,East Vancouver Island & Georgia Strait (river-type),River Sockeye,,0
dq_score,Harrison River (river-type),River Sockeye,,19
dq_score,Northern Coastal Fjords (river-type),River Sockeye,,0
dq_score,Northern Coastal Streams (river-type),River Sockeye,,0
dq_score,NW Vancouver Island (river-type),River Sockeye,,0
dq_score,Rivers-Smith Inlets (river-type),River Sockeye,,0
dq_score,Skeena River-High Interior (river-type),River Sockeye,,14
dq_score,Skeena River (river-type),River Sockeye,,0
dq_score,Southern Fjords (river-type),River Sockeye,,0
dq_score,West Vancouver Island (river-type),River Sockeye,,0
dq_score,Widgeon (river-type),River Sockeye,,0
survey_coverage,Bella Coola-Bentinck,Chinook,,5
survey_coverage,Boundary Bay (Fall 4-1),Chinook,,0
survey_coverage,Dean River,Chinook,,5
survey_coverage,Docee,Chinook,,0
survey_coverage,East Vancouver Island-Cowichan and Koksilah (Fall x-1),Chinook,,5
survey_coverage,East Vancouver Island-Georgia Strait (Summer 4-1),Chinook,,5
survey_coverage,East Vancouver Island-Goldstream (Fall x-1),Chinook,,5
survey_coverage,East Vancouver Island-Nanaimo (Spring x-2),Chinook,,0
survey_coverage,East Vancouver Island-Nanaimo and Chemainus (Fall x-1),Chinook,,5
survey_coverage,East Vancouver Island-North (Fall x-1),Chinook,,5
survey_coverage,East Vancouver Island-Qualicum and Puntledge (Fall x-1),Chinook,,5
survey_coverage,Ecstall,Chinook,,0
survey_coverage,Middle Fraser-Fraser Canyon_SP_1.3,Chinook,,0
survey_coverage,Homathko_SU_x.x,Chinook,,0
survey_coverage,Kalum_early timing,Chinook,,0
survey_coverage,Kalum_late timing,Chinook,,5
survey_coverage,Klinaklini_SU_1.3,Chinook,,0
survey_coverage,Lakelse,Chinook,,0
survey_coverage,Maria Slough_SU_0.3,Chinook,,0
survey_coverage,Lower Fraser River-Upper Pitt (Summer 5-2),Chinook,,0
survey_coverage,Lower Fraser River (Fall 4-1),Chinook,,5
survey_coverage,Lower Fraser River (Spring 5-2),Chinook,,1
survey_coverage,Lower Fraser River (Summer 5-2),Chinook,,0
survey_coverage,Lower Skeena,Chinook,,3
survey_coverage,Lower Thompson (Spring 4-2),Chinook,,5
survey_coverage,Middle Fraser River-Portage (Fall 5-2),Chinook,,0
survey_coverage,Middle Fraser River (Spring 5-2),Chinook,,0
survey_coverage,Middle Fraser River (Summer 5-2),Chinook,,1
survey_coverage,Middle Skeena-Large Lakes,Chinook,,5
survey_coverage,Middle Skeena-Mainstem Tributaries,Chinook,,4
survey_coverage,North and Central Coast-early timing,Chinook,,1
survey_coverage,North and Central Coast-late timing,Chinook,,0
survey_coverage,North Thompson_SP_1.3,Chinook,,1
survey_coverage,North Thompson_SU_1.3,Chinook,,3
survey_coverage,Rivers Inlet,Chinook,,3
survey_coverage,Shuswap River (Summer 4-1),Chinook,,5
survey_coverage,Sicintine,Chinook,,0
survey_coverage,Skeena Estuary,Chinook,,0
survey_coverage,Upper Adams River_SU_x.x,Chinook,,0
survey_coverage,South Thompson-Bessette Creek_SU_1.2,Chinook,,0
survey_coverage,South Thompson (Summer 4-1),Chinook,,1
survey_coverage,South Thompson (Summer 5-2),Chinook,,5
survey_coverage,Southern Mainland-Georgia Strait (Fall x-1),Chinook,,0
survey_coverage,Southern Mainland-Southern Fjords (Fall x-1),Chinook,,0
survey_coverage,Upper Bulkley River,Chinook,,0
survey_coverage,Upper Fraser River (Spring 5-2),Chinook,,0
survey_coverage,Upper Skeena,Chinook,,0
survey_coverage,Wannock,Chinook,,3
survey_coverage,West Vancouver Island-Nootka and Kyuquot (Fall x-1),Chinook,,0
survey_coverage,West Vancouver Island-North (Fall x-1),Chinook,,0
survey_coverage,West Vancouver Island-South (Fall x-1),Chinook,,0
survey_coverage,Zymoetz,Chinook,,0
survey_coverage,Bella Coola-Dean Rivers,Chum,,5
survey_coverage,Bella Coola River_late,Chum,,0
survey_coverage,Bute Inlet,Chum,,0
survey_coverage,Douglas-Gardner,Chum,,2
survey_coverage,Georgia Strait,Chum,,5
survey_coverage,Hecate Lowlands,Chum,,3
survey_coverage,Howe Sound-Burrard Inlet,Chum,,0
survey_coverage,Loughborough,Chum,,1
survey_coverage,Lower Fraser,Chum,,0
survey_coverage,Lower Skeena,Chum,,4
survey_coverage,Middle Skeena,Chum,,3
survey_coverage,Mussel-Kynoch,Chum,,5
survey_coverage,Northeast Vancouver Island,Chum,,1
survey_coverage,Northwest Vancouver Island,Chum,,1
survey_coverage,Rivers Inlet,Chum,,2
survey_coverage,Skeena Estuary,Chum,,2
survey_coverage,Smith Inlet,Chum,,5
survey_coverage,Southern Coastal Streams,Chum,,0
survey_coverage,Southwest Vancouver Island,Chum,,0
survey_coverage,Spiller-Fitz-Hugh-Burke,Chum,,3
survey_coverage,Upper Knight,Chum,,0
survey_coverage,Upper Skeena,Chum,,0
survey_coverage,Wannock,Chum,,0
survey_coverage,Bella Coola-Dean Rivers,Coho,,5
survey_coverage,Boundary Bay,Coho,,0
survey_coverage,Northern Coastal Streams,Coho,,5
survey_coverage,Clayoquot,Coho,,0
survey_coverage,Douglas Channel-Kitimat Arm,Coho,,2
survey_coverage,East Vancouver Island-Georgia Strait,Coho,,0
survey_coverage,East Vancouver Island-Johnstone Strait-Southern Fjords,Coho,,0
survey_coverage,Fraser Canyon,Coho,,0
survey_coverage,Georgia Strait Mainland,Coho,,0
survey_coverage,Hecate Strait Mainland,Coho,,3
survey_coverage,Homathko-Klinaklini Rivers,Coho,,0
survey_coverage,Howe Sound-Burrard Inlet,Coho,,0
survey_coverage,Interior Fraser,Coho,,0
survey_coverage,Juan de Fuca-Pachena,Coho,,0
survey_coverage,Lillooet,Coho,,0
survey_coverage,Lower Fraser,Coho,,0
survey_coverage,Lower Skeena,Coho,,3
survey_coverage,Lower Thompson,Coho,,0
survey_coverage,Middle Skeena,Coho,,2
survey_coverage,Mussel-Kynoch,Coho,,3
survey_coverage,Nahwitti Lowland,Coho,,0
survey_coverage,North Thompson,Coho,,0
survey_coverage,Northern Coastal Streams,Coho,,5
survey_coverage,Rivers Inlet,Coho,,0
survey_coverage,Skeena Estuary,Coho,,0
survey_coverage,Smith Inlet,Coho,,5
survey_coverage,South Thompson,Coho,,0
survey_coverage,Southern Coastal Streams-Queen Charlotte Strait-Johnstone Strait-Southern Fjords,Coho,,0
survey_coverage,Upper Skeena,Coho,,4
survey_coverage,West Vancouver Island,Coho,,0
survey_coverage,Adams and Momich Lakes_Early Summer,Lake Sockeye,,0
survey_coverage,Alastair,Lake Sockeye,,4
survey_coverage,Alice,Lake Sockeye,,0
survey_coverage,Anderson-Seton-Early Summer,Lake Sockeye,,5
survey_coverage,Asitika,Lake Sockeye,,5
survey_coverage,Azuklotz,Lake Sockeye,,5
survey_coverage,Babine Complex,Lake Sockeye,,5
survey_coverage,Backland,Lake Sockeye,,5
survey_coverage,Banks,Lake Sockeye,,0
survey_coverage,Bear,Lake Sockeye,,4
survey_coverage,Bloomfield,Lake Sockeye,,5
survey_coverage,Bolton Creek,Lake Sockeye,,0
survey_coverage,Bonilla,Lake Sockeye,,0
survey_coverage,Borrowman Creek,Lake Sockeye,,0
survey_coverage,Bowron-Early Summer,Lake Sockeye,,5
survey_coverage,Bulkley,Lake Sockeye,,0
survey_coverage,Busey Creek,Lake Sockeye,,0
survey_coverage,Canoe Creek,Lake Sockeye,,0
survey_coverage,Canoona,Lake Sockeye,,5
survey_coverage,Cartwright Creek,Lake Sockeye,,0
survey_coverage,Cecilia,Lake Sockeye,,0
survey_coverage,Cheewat,Lake Sockeye,,0
survey_coverage,Chic Chic,Lake Sockeye,,0
survey_coverage,Chilko-Early Summer,Lake Sockeye,,0
survey_coverage,Chilko-Summer,Lake Sockeye,,5
survey_coverage,Chilliwack-Early Summer (cyclic),Lake Sockeye,,5
survey_coverage,Citeyats,Lake Sockeye,,0
survey_coverage,Clayoquot,Lake Sockeye,,0
survey_coverage,Cultus-Late,Lake Sockeye,,5
survey_coverage,Curtis Inlet,Lake Sockeye,,5
survey_coverage,Dallain Creek,Lake Sockeye,,0
survey_coverage,Damshilgwit,Lake Sockeye,,5
survey_coverage,Deer,Lake Sockeye,,0
survey_coverage,Deserted,Lake Sockeye,,0
survey_coverage,Devon,Lake Sockeye,,5
survey_coverage,Dome,Lake Sockeye,,0
survey_coverage,Douglas Creek,Lake Sockeye,,0
survey_coverage,Ecstall/Lower,Lake Sockeye,,0
survey_coverage,Elizabeth,Lake Sockeye,,0
survey_coverage,Elsie/Hoy,Lake Sockeye,,0
survey_coverage,End Hill Creek,Lake Sockeye,,0
survey_coverage,Evelyn,Lake Sockeye,,5
survey_coverage,Evinrude Inlet,Lake Sockeye,,0
survey_coverage,Fairy,Lake Sockeye,,0
survey_coverage,Fannie Cove,Lake Sockeye,,0
survey_coverage,Footsore/Hodder,Lake Sockeye,,0
survey_coverage,Francois-Fraser-Summer,Lake Sockeye,,5
survey_coverage,Freeda/Brodie,Lake Sockeye,,0
survey_coverage,Fulmore,Lake Sockeye,,0
survey_coverage,Kitwancool,Lake Sockeye,,5
survey_coverage,Great Central,Lake Sockeye,,0
survey_coverage,Harrison-Downstream Migrating-Late,Lake Sockeye,,5
survey_coverage,Harrison-Upstream Migrating-Late,Lake Sockeye,,5
survey_coverage,Hartley Bay,Lake Sockeye,,5
survey_coverage,Henderson,Lake Sockeye,,5
survey_coverage,Hesquiat,Lake Sockeye,,0
survey_coverage,Hevenor Inlet,Lake Sockeye,,0
survey_coverage,Heydon,Lake Sockeye,,0
survey_coverage,Higgins Lagoon,Lake Sockeye,,0
survey_coverage,Hobiton,Lake Sockeye,,0
survey_coverage,Ida-Bonanza,Lake Sockeye,,0
survey_coverage,Jansen,Lake Sockeye,,0
survey_coverage,Johanson,Lake Sockeye,,0
survey_coverage,Johnston,Lake Sockeye,,0
survey_coverage,Kadjusdis River,Lake Sockeye,,5
survey_coverage,Kainet Creek,Lake Sockeye,,5
survey_coverage,Kakweiken,Lake Sockeye,,0
survey_coverage,Kamloops-Early Summer,Lake Sockeye,,5
survey_coverage,Kanim,Lake Sockeye,,0
survey_coverage,Kdelmashan Creek,Lake Sockeye,,0
survey_coverage,Keecha,Lake Sockeye,,5
survey_coverage,Kennedy,Lake Sockeye,,0
survey_coverage,Kent Inlet Lagoon Creek,Lake Sockeye,,0
survey_coverage,Kenzuwash Creeks,Lake Sockeye,,0
survey_coverage,Keswar Creek,Lake Sockeye,,0
survey_coverage,Kildidt Creek,Lake Sockeye,,0
survey_coverage,Kildidt Lagoon Creek,Lake Sockeye,,0
survey_coverage,Kimsquit,Lake Sockeye,,0
survey_coverage,Kisameet,Lake Sockeye,,0
survey_coverage,Kitkiata,Lake Sockeye,,0
survey_coverage,Kitlope,Lake Sockeye,,5
survey_coverage,Kitsumkalum,Lake Sockeye,,2
survey_coverage,Kluatantan,Lake Sockeye,,0
survey_coverage,Kluayaz,Lake Sockeye,,0
survey_coverage,Koeye,Lake Sockeye,,0
survey_coverage,Kooryet,Lake Sockeye,,5
survey_coverage,Kunsoot River,Lake Sockeye,,0
survey_coverage,Kwakwa Creek,Lake Sockeye,,0
survey_coverage,Lakelse,Lake Sockeye,,5
survey_coverage,Lewis Creek,Lake Sockeye,,0
survey_coverage,Lillooet-Harrison-Late,Lake Sockeye,,5
survey_coverage,Limestone Creek,Lake Sockeye,,0
survey_coverage,Long,Lake Sockeye,,5
survey_coverage,Loose,Lake Sockeye,,0
survey_coverage,Lowe/Simpson/Weare,Lake Sockeye,,5
survey_coverage,Mackenzie,Lake Sockeye,,5
survey_coverage,Maggie,Lake Sockeye,,0
survey_coverage,Mary Cove Creek,Lake Sockeye,,5
survey_coverage,Mcdonald Creek,Lake Sockeye,,0
survey_coverage,Mcdonell,Lake Sockeye,,5
survey_coverage,Mcloughlin,Lake Sockeye,,0
survey_coverage,Megin,Lake Sockeye,,0
survey_coverage,Mikado,Lake Sockeye,,5
survey_coverage,Monckton Inlet Creek,Lake Sockeye,,0
survey_coverage,Morice,Lake Sockeye,,4
survey_coverage,Motase,Lake Sockeye,,5
survey_coverage,Muchalat,Lake Sockeye,,0
survey_coverage,Muriel,Lake Sockeye,,0
survey_coverage,Nadina-Francois-Early Summer,Lake Sockeye,,5
survey_coverage,Nahatlatch-Early Summer,Lake Sockeye,,5
survey_coverage,Nahwitti,Lake Sockeye,,0
survey_coverage,Namu,Lake Sockeye,,5
survey_coverage,Nimpkish,Lake Sockeye,,5
survey_coverage,Nitinat,Lake Sockeye,,0
survey_coverage,North Barriere-Early Summer (de novo),Lake Sockeye,,5
survey_coverage,O'Connell,Lake Sockeye,,0
survey_coverage,Owikeno,Lake Sockeye,,3
survey_coverage,Park River,Lake Sockeye,,0
survey_coverage,Phillips,Lake Sockeye,,5
survey_coverage,Pine River,Lake Sockeye,,0
survey_coverage,Pitt-Early Summer,Lake Sockeye,,5
survey_coverage,Port John,Lake Sockeye,,5
survey_coverage,Power,Lake Sockeye,,0
survey_coverage,Powles Creek,Lake Sockeye,,0
survey_coverage,Price Creek,Lake Sockeye,,0
survey_coverage,Quatse,Lake Sockeye,,0
survey_coverage,Quesnel-Summer (cyclic),Lake Sockeye,,5
survey_coverage,Roderick,Lake Sockeye,,5
survey_coverage,Ryan Creek,Lake Sockeye,,0
survey_coverage,Sakinaw,Lake Sockeye,,5
survey_coverage,Salter,Lake Sockeye,,0
survey_coverage,Schoen,Lake Sockeye,,0
survey_coverage,Scoular/Kilpatrick,Lake Sockeye,,0
survey_coverage,Seton_Late,Lake Sockeye,,0
survey_coverage,Sheneeza Inlet,Lake Sockeye,,0
survey_coverage,Ship Point Creek,Lake Sockeye,,0
survey_coverage,Shushartie,Lake Sockeye,,0
survey_coverage,Shuswap-Early Summer (cyclic),Lake Sockeye,,0
survey_coverage,Shuswap Complex_Late,Lake Sockeye,,5
survey_coverage,Sicintine,Lake Sockeye,,0
survey_coverage,Slamgeesh,Lake Sockeye,,0
survey_coverage,North and Central Coast-early timing,Lake Sockeye,,0
survey_coverage,South Atnarko Lakes,Lake Sockeye,,5
survey_coverage,Spawning,Lake Sockeye,,0
survey_coverage,Spencer Creek,Lake Sockeye,,0
survey_coverage,Sproat,Lake Sockeye,,0
survey_coverage,Stannard Creek,Lake Sockeye,,0
survey_coverage,Stephens,Lake Sockeye,,4
survey_coverage,Sustut,Lake Sockeye,,0
survey_coverage,Stephens,Lake Sockeye,,2
survey_coverage,Tahlo/Morrison,Lake Sockeye,,4
survey_coverage,Takla-Trembleur-Early Stuart (cyclic),Lake Sockeye,,5
survey_coverage,Takla/Trembleur/Stuart_Summer,Lake Sockeye,,5
survey_coverage,Talamoosa Creek,Lake Sockeye,,0
survey_coverage,Tankeeah River,Lake Sockeye,,5
survey_coverage,Taseko-Early Summer,Lake Sockeye,,5
survey_coverage,Treneman Creek,Lake Sockeye,,0
survey_coverage,Tsimtack Lakes,Lake Sockeye,,5
survey_coverage,Tuno Creek East,Lake Sockeye,,0
survey_coverage,Tuno Creek West,Lake Sockeye,,0
survey_coverage,Tyler Creek,Lake Sockeye,,0
survey_coverage,Tzoonie,Lake Sockeye,,0
survey_coverage,Vernon,Lake Sockeye,,0
survey_coverage,Wale Creek,Lake Sockeye,,0
survey_coverage,Wannock[Owikeno],Lake Sockeye,,0
survey_coverage,Watt Bay,Lake Sockeye,,0
survey_coverage,West Creek,Lake Sockeye,,0
survey_coverage,William-Brink,Lake Sockeye,,0
survey_coverage,Woss,Lake Sockeye,,0
survey_coverage,Yaaklele Lagoon,Lake Sockeye,,0
survey_coverage,Yeo,Lake Sockeye,,5
survey_coverage,Georgia Strait (even),Pink (Even),,4
survey_coverage,Hecate Lowlands (even),Pink (Even),,4
survey_coverage,Hecate Strait-Fjords (even),Pink (Even),,4
survey_coverage,Middle-Upper Skeena (even),Pink (Even),,4
survey_coverage,Nass-Skeena Estuary (even),Pink (Even),,4
survey_coverage,Northwest Vancouver Island (even),Pink (Even),,0
survey_coverage,Southern Fjords (even),Pink (Even),,2
survey_coverage,West Vancouver Island (even),Pink (Even),,0
survey_coverage,East Howe Sound-Burrard Inlet (odd),Pink (Odd),,0
survey_coverage,East Vancouver Island-Johnstone Strait (odd),Pink (Odd),,4
survey_coverage,Fraser River (odd),Pink (Odd),,5
survey_coverage,Georgia Strait (odd),Pink (Odd),,3
survey_coverage,Hecate Strait-Fjords (odd),Pink (Odd),,4
survey_coverage,Hecate Strait-Lowlands (odd),Pink (Odd),,3
survey_coverage,Homathko-Klinaklini-Smith-Rivers-Bella Coola-Dean (odd),Pink (Odd),,2
survey_coverage,Lower Skeena,Pink (Odd),,3
survey_coverage,Middle-Upper Skeena,Pink (Odd),,3
survey_coverage,Nahwitti (odd),Pink (Odd),,2
survey_coverage,Nass-Skeena Estuary (odd),Pink (Odd),,2
survey_coverage,Southern Fjords (odd),Pink (Odd),,1
survey_coverage,West Vancouver Island (odd),Pink (Odd),,0
survey_coverage,East Vancouver Island & Georgia Strait (river-type),River Sockeye,,0
survey_coverage,Harrison River (river-type),River Sockeye,,5
survey_coverage,Northern Coastal Fjords (river-type),River Sockeye,,0
survey_coverage,Northern Coastal Streams (river-type),River Sockeye,,0
survey_coverage,NW Vancouver Island (river-type),River Sockeye,,0
survey_coverage,Rivers-Smith Inlets (river-type),River Sockeye,,0
survey_coverage,Skeena River-High Interior (river-type),River Sockeye,,5
survey_coverage,Skeena River (river-type),River Sockeye,,0
survey_coverage,Southern Fjords (river-type),River Sockeye,,0
survey_coverage,West Vancouver Island (river-type),River Sockeye,,0
survey_coverage,Widgeon (river-type),River Sockeye,,0
survey_execution,Bella Coola-Bentinck,Chinook,,2
survey_execution,Boundary Bay (Fall 4-1),Chinook,,0
survey_execution,Dean River,Chinook,,1
survey_execution,Docee,Chinook,,0
survey_execution,East Vancouver Island-Cowichan and Koksilah (Fall x-1),Chinook,,5
survey_execution,East Vancouver Island-Georgia Strait (Summer 4-1),Chinook,,5
survey_execution,East Vancouver Island-Goldstream (Fall x-1),Chinook,,0
survey_execution,East Vancouver Island-Nanaimo (Spring x-2),Chinook,,0
survey_execution,East Vancouver Island-Nanaimo and Chemainus (Fall x-1),Chinook,,5
survey_execution,East Vancouver Island-North (Fall x-1),Chinook,,5
survey_execution,East Vancouver Island-Qualicum and Puntledge (Fall x-1),Chinook,,5
survey_execution,Ecstall,Chinook,,0
survey_execution,Middle Fraser-Fraser Canyon_SP_1.3,Chinook,,0
survey_execution,Homathko_SU_x.x,Chinook,,0
survey_execution,Kalum_early timing,Chinook,,0
survey_execution,Kalum_late timing,Chinook,,4
survey_execution,Klinaklini_SU_1.3,Chinook,,0
survey_execution,Lakelse,Chinook,,0
survey_execution,Maria Slough_SU_0.3,Chinook,,0
survey_execution,Lower Fraser River-Upper Pitt (Summer 5-2),Chinook,,0
survey_execution,Lower Fraser River (Fall 4-1),Chinook,,5
survey_execution,Lower Fraser River (Spring 5-2),Chinook,,5
survey_execution,Lower Fraser River (Summer 5-2),Chinook,,0
survey_execution,Lower Skeena,Chinook,,1
survey_execution,Lower Thompson (Spring 4-2),Chinook,,5
survey_execution,Middle Fraser River-Portage (Fall 5-2),Chinook,,0
survey_execution,Middle Fraser River (Spring 5-2),Chinook,,5
survey_execution,Middle Fraser River (Summer 5-2),Chinook,,4
survey_execution,Middle Skeena-Large Lakes,Chinook,,5
survey_execution,Middle Skeena-Mainstem Tributaries,Chinook,,2
survey_execution,North and Central Coast-early timing,Chinook,,3
survey_execution,North and Central Coast-late timing,Chinook,,0
survey_execution,North Thompson_SP_1.3,Chinook,,5
survey_execution,North Thompson_SU_1.3,Chinook,,5
survey_execution,Rivers Inlet,Chinook,,1
survey_execution,Shuswap River (Summer 4-1),Chinook,,5
survey_execution,Sicintine,Chinook,,0
survey_execution,Skeena Estuary,Chinook,,0
survey_execution,Upper Adams River_SU_x.x,Chinook,,0
survey_execution,South Thompson-Bessette Creek_SU_1.2,Chinook,,5
survey_execution,South Thompson (Summer 4-1),Chinook,,5
survey_execution,South Thompson (Summer 5-2),Chinook,,5
survey_execution,Southern Mainland-Georgia Strait (Fall x-1),Chinook,,0
survey_execution,Southern Mainland-Southern Fjords (Fall x-1),Chinook,,2
survey_execution,Upper Bulkley River,Chinook,,0
survey_execution,Upper Fraser River (Spring 5-2),Chinook,,5
survey_execution,Upper Skeena,Chinook,,0
survey_execution,Wannock,Chinook,,2
survey_execution,West Vancouver Island-Nootka and Kyuquot (Fall x-1),Chinook,,5
survey_execution,West Vancouver Island-North (Fall x-1),Chinook,,2
survey_execution,West Vancouver Island-South (Fall x-1),Chinook,,4
survey_execution,Zymoetz,Chinook,,0
survey_execution,Bella Coola-Dean Rivers,Chum,,4
survey_execution,Bella Coola River_late,Chum,,0
survey_execution,Bute Inlet,Chum,,0
survey_execution,Douglas-Gardner,Chum,,5
survey_execution,Georgia Strait,Chum,,4
survey_execution,Hecate Lowlands,Chum,,3
survey_execution,Howe Sound-Burrard Inlet,Chum,,0
survey_execution,Loughborough,Chum,,3
survey_execution,Lower Fraser,Chum,,2
survey_execution,Lower Skeena,Chum,,2
survey_execution,Middle Skeena,Chum,,2
survey_execution,Mussel-Kynoch,Chum,,4
survey_execution,Northeast Vancouver Island,Chum,,4
survey_execution,Northwest Vancouver Island,Chum,,3
survey_execution,Rivers Inlet,Chum,,2
survey_execution,Skeena Estuary,Chum,,1
survey_execution,Smith Inlet,Chum,,3
survey_execution,Southern Coastal Streams,Chum,,1
survey_execution,Southwest Vancouver Island,Chum,,4
survey_execution,Spiller-Fitz-Hugh-Burke,Chum,,3
survey_execution,Upper Knight,Chum,,0
survey_execution,Upper Skeena,Chum,,0
survey_execution,Wannock,Chum,,0
survey_execution,Bella Coola-Dean Rivers,Coho,,4
survey_execution,Boundary Bay,Coho,,0
survey_execution,Northern Coastal Streams,Coho,,5
survey_execution,Clayoquot,Coho,,3
survey_execution,Douglas Channel-Kitimat Arm,Coho,,4
survey_execution,East Vancouver Island-Georgia Strait,Coho,,2
survey_execution,East Vancouver Island-Johnstone Strait-Southern Fjords,Coho,,5
survey_execution,Fraser Canyon,Coho,,5
survey_execution,Georgia Strait Mainland,Coho,,2
survey_execution,Hecate Strait Mainland,Coho,,1
survey_execution,Homathko-Klinaklini Rivers,Coho,,0
survey_execution,Howe Sound-Burrard Inlet,Coho,,0
survey_execution,Interior Fraser,Coho,,4
survey_execution,Juan de Fuca-Pachena,Coho,,3
survey_execution,Lillooet,Coho,,0
survey_execution,Lower Fraser,Coho,,0
survey_execution,Lower Skeena,Coho,,2
survey_execution,Lower Thompson,Coho,,5
survey_execution,Middle Skeena,Coho,,2
survey_execution,Mussel-Kynoch,Coho,,2
survey_execution,Nahwitti Lowland,Coho,,5
survey_execution,North Thompson,Coho,,5
survey_execution,Northern Coastal Streams,Coho,,4
survey_execution,Rivers Inlet,Coho,,0
survey_execution,Skeena Estuary,Coho,,0
survey_execution,Smith Inlet,Coho,,1
survey_execution,South Thompson,Coho,,4
survey_execution,Southern Coastal Streams-Queen Charlotte Strait-Johnstone Strait-Southern Fjords,Coho,,1
survey_execution,Upper Skeena,Coho,,3
survey_execution,West Vancouver Island,Coho,,3
survey_execution,Adams and Momich Lakes_Early Summer,Lake Sockeye,,0
survey_execution,Alastair,Lake Sockeye,,5
survey_execution,Alice,Lake Sockeye,,0
survey_execution,Anderson-Seton-Early Summer,Lake Sockeye,,5
survey_execution,Asitika,Lake Sockeye,,4
survey_execution,Azuklotz,Lake Sockeye,,2
survey_execution,Babine Complex,Lake Sockeye,,5
survey_execution,Backland,Lake Sockeye,,4
survey_execution,Banks,Lake Sockeye,,0
survey_execution,Bear,Lake Sockeye,,1
survey_execution,Bloomfield,Lake Sockeye,,2
survey_execution,Bolton Creek,Lake Sockeye,,0
survey_execution,Bonilla,Lake Sockeye,,0
survey_execution,Borrowman Creek,Lake Sockeye,,0
survey_execution,Bowron-Early Summer,Lake Sockeye,,5
survey_execution,Bulkley,Lake Sockeye,,0
survey_execution,Busey Creek,Lake Sockeye,,0
survey_execution,Canoe Creek,Lake Sockeye,,0
survey_execution,Canoona,Lake Sockeye,,3
survey_execution,Cartwright Creek,Lake Sockeye,,0
survey_execution,Cecilia,Lake Sockeye,,0
survey_execution,Cheewat,Lake Sockeye,,0
survey_execution,Chic Chic,Lake Sockeye,,0
survey_execution,Chilko-Early Summer,Lake Sockeye,,0
survey_execution,Chilko-Summer,Lake Sockeye,,5
survey_execution,Chilliwack-Early Summer (cyclic),Lake Sockeye,,5
survey_execution,Citeyats,Lake Sockeye,,0
survey_execution,Clayoquot,Lake Sockeye,,0
survey_execution,Cultus-Late,Lake Sockeye,,5
survey_execution,Curtis Inlet,Lake Sockeye,,3
survey_execution,Dallain Creek,Lake Sockeye,,0
survey_execution,Damshilgwit,Lake Sockeye,,5
survey_execution,Deer,Lake Sockeye,,0
survey_execution,Deserted,Lake Sockeye,,0
survey_execution,Devon,Lake Sockeye,,5
survey_execution,Dome,Lake Sockeye,,0
survey_execution,Douglas Creek,Lake Sockeye,,0
survey_execution,Ecstall/Lower,Lake Sockeye,,0
survey_execution,Elizabeth,Lake Sockeye,,0
survey_execution,Elsie/Hoy,Lake Sockeye,,0
survey_execution,End Hill Creek,Lake Sockeye,,0
survey_execution,Evelyn,Lake Sockeye,,5
survey_execution,Evinrude Inlet,Lake Sockeye,,0
survey_execution,Fairy,Lake Sockeye,,0
survey_execution,Fannie Cove,Lake Sockeye,,0
survey_execution,Footsore/Hodder,Lake Sockeye,,0
survey_execution,Francois-Fraser-Summer,Lake Sockeye,,5
survey_execution,Freeda/Brodie,Lake Sockeye,,0
survey_execution,Fulmore,Lake Sockeye,,0
survey_execution,Kitwancool,Lake Sockeye,,5
survey_execution,Great Central,Lake Sockeye,,0
survey_execution,Harrison-Downstream Migrating-Late,Lake Sockeye,,5
survey_execution,Harrison-Upstream Migrating-Late,Lake Sockeye,,5
survey_execution,Hartley Bay,Lake Sockeye,,5
survey_execution,Henderson,Lake Sockeye,,2
survey_execution,Hesquiat,Lake Sockeye,,1
survey_execution,Hevenor Inlet,Lake Sockeye,,0
survey_execution,Heydon,Lake Sockeye,,0
survey_execution,Higgins Lagoon,Lake Sockeye,,0
survey_execution,Hobiton,Lake Sockeye,,0
survey_execution,Ida-Bonanza,Lake Sockeye,,0
survey_execution,Jansen,Lake Sockeye,,0
survey_execution,Johanson,Lake Sockeye,,0
survey_execution,Johnston,Lake Sockeye,,0
survey_execution,Kadjusdis River,Lake Sockeye,,2
survey_execution,Kainet Creek,Lake Sockeye,,5
survey_execution,Kakweiken,Lake Sockeye,,0
survey_execution,Kamloops-Early Summer,Lake Sockeye,,5
survey_execution,Kanim,Lake Sockeye,,0
survey_execution,Kdelmashan Creek,Lake Sockeye,,0
survey_execution,Keecha,Lake Sockeye,,3
survey_execution,Kennedy,Lake Sockeye,,0
survey_execution,Kent Inlet Lagoon Creek,Lake Sockeye,,0
survey_execution,Kenzuwash Creeks,Lake Sockeye,,0
survey_execution,Keswar Creek,Lake Sockeye,,0
survey_execution,Kildidt Creek,Lake Sockeye,,0
survey_execution,Kildidt Lagoon Creek,Lake Sockeye,,0
survey_execution,Kimsquit,Lake Sockeye,,0
survey_execution,Kisameet,Lake Sockeye,,0
survey_execution,Kitkiata,Lake Sockeye,,0
survey_execution,Kitlope,Lake Sockeye,,5
survey_execution,Kitsumkalum,Lake Sockeye,,2
survey_execution,Kluatantan,Lake Sockeye,,0
survey_execution,Kluayaz,Lake Sockeye,,0
survey_execution,Koeye,Lake Sockeye,,0
survey_execution,Kooryet,Lake Sockeye,,4
survey_execution,Kunsoot River,Lake Sockeye,,0
survey_execution,Kwakwa Creek,Lake Sockeye,,0
survey_execution,Lakelse,Lake Sockeye,,3
survey_execution,Lewis Creek,Lake Sockeye,,0
survey_execution,Lillooet-Harrison-Late,Lake Sockeye,,5
survey_execution,Limestone Creek,Lake Sockeye,,0
survey_execution,Long,Lake Sockeye,,2
survey_execution,Loose,Lake Sockeye,,0
survey_execution,Lowe/Simpson/Weare,Lake Sockeye,,4
survey_execution,Mackenzie,Lake Sockeye,,1
survey_execution,Maggie,Lake Sockeye,,0
survey_execution,Mary Cove Creek,Lake Sockeye,,1
survey_execution,Mcdonald Creek,Lake Sockeye,,0
survey_execution,Mcdonell,Lake Sockeye,,4
survey_execution,Mcloughlin,Lake Sockeye,,0
survey_execution,Megin,Lake Sockeye,,0
survey_execution,Mikado,Lake Sockeye,,3
survey_execution,Monckton Inlet Creek,Lake Sockeye,,0
survey_execution,Morice,Lake Sockeye,,5
survey_execution,Motase,Lake Sockeye,,1
survey_execution,Muchalat,Lake Sockeye,,0
survey_execution,Muriel,Lake Sockeye,,0
survey_execution,Nadina-Francois-Early Summer,Lake Sockeye,,5
survey_execution,Nahatlatch-Early Summer,Lake Sockeye,,5
survey_execution,Nahwitti,Lake Sockeye,,0
survey_execution,Namu,Lake Sockeye,,3
survey_execution,Nimpkish,Lake Sockeye,,5
survey_execution,Nitinat,Lake Sockeye,,0
survey_execution,North Barriere-Early Summer (de novo),Lake Sockeye,,5
survey_execution,O'Connell,Lake Sockeye,,0
survey_execution,Owikeno,Lake Sockeye,,4
survey_execution,Park River,Lake Sockeye,,0
survey_execution,Phillips,Lake Sockeye,,5
survey_execution,Pine River,Lake Sockeye,,0
survey_execution,Pitt-Early Summer,Lake Sockeye,,5
survey_execution,Port John,Lake Sockeye,,5
survey_execution,Power,Lake Sockeye,,0
survey_execution,Powles Creek,Lake Sockeye,,0
survey_execution,Price Creek,Lake Sockeye,,0
survey_execution,Quatse,Lake Sockeye,,0
survey_execution,Quesnel-Summer (cyclic),Lake Sockeye,,5
survey_execution,Roderick,Lake Sockeye,,4
survey_execution,Ryan Creek,Lake Sockeye,,0
survey_execution,Sakinaw,Lake Sockeye,,5
survey_execution,Salter,Lake Sockeye,,0
survey_execution,Schoen,Lake Sockeye,,0
survey_execution,Scoular/Kilpatrick,Lake Sockeye,,0
survey_execution,Seton_Late,Lake Sockeye,,0
survey_execution,Sheneeza Inlet,Lake Sockeye,,0
survey_execution,Ship Point Creek,Lake Sockeye,,0
survey_execution,Shushartie,Lake Sockeye,,0
survey_execution,Shuswap-Early Summer (cyclic),Lake Sockeye,,0
survey_execution,Shuswap Complex_Late,Lake Sockeye,,5
survey_execution,Sicintine,Lake Sockeye,,0
survey_execution,Slamgeesh,Lake Sockeye,,0
survey_execution,North and Central Coast-early timing,Lake Sockeye,,0
survey_execution,South Atnarko Lakes,Lake Sockeye,,5
survey_execution,Spawning,Lake Sockeye,,0
survey_execution,Spencer Creek,Lake Sockeye,,0
survey_execution,Sproat,Lake Sockeye,,0
survey_execution,Stannard Creek,Lake Sockeye,,0
survey_execution,Stephens,Lake Sockeye,,5
survey_execution,Sustut,Lake Sockeye,,0
survey_execution,Stephens,Lake Sockeye,,3
survey_execution,Tahlo/Morrison,Lake Sockeye,,5
survey_execution,Takla-Trembleur-Early Stuart (cyclic),Lake Sockeye,,5
survey_execution,Takla/Trembleur/Stuart_Summer,Lake Sockeye,,4
survey_execution,Talamoosa Creek,Lake Sockeye,,0
survey_execution,Tankeeah River,Lake Sockeye,,2
survey_execution,Taseko-Early Summer,Lake Sockeye,,5
survey_execution,Treneman Creek,Lake Sockeye,,0
survey_execution,Tsimtack Lakes,Lake Sockeye,,5
survey_execution,Tuno Creek East,Lake Sockeye,,0
survey_execution,Tuno Creek West,Lake Sockeye,,0
survey_execution,Tyler Creek,Lake Sockeye,,0
survey_execution,Tzoonie,Lake Sockeye,,0
survey_execution,Vernon,Lake Sockeye,,0
survey_execution,Wale Creek,Lake Sockeye,,0
survey_execution,Wannock[Owikeno],Lake Sockeye,,0
survey_execution,Watt Bay,Lake Sockeye,,0
survey_execution,West Creek,Lake Sockeye,,0
survey_execution,William-Brink,Lake Sockeye,,0
survey_execution,Woss,Lake Sockeye,,0
survey_execution,Yaaklele Lagoon,Lake Sockeye,,0
survey_execution,Yeo,Lake Sockeye,,3
survey_execution,Georgia Strait (even),Pink (Even),,4
survey_execution,Hecate Lowlands (even),Pink (Even),,3
survey_execution,Hecate Strait-Fjords (even),Pink (Even),,4
survey_execution,Middle-Upper Skeena (even),Pink (Even),,2
survey_execution,Nass-Skeena Estuary (even),Pink (Even),,3
survey_execution,Northwest Vancouver Island (even),Pink (Even),,0
survey_execution,Southern Fjords (even),Pink (Even),,4
survey_execution,West Vancouver Island (even),Pink (Even),,0
survey_execution,East Howe Sound-Burrard Inlet (odd),Pink (Odd),,0
survey_execution,East Vancouver Island-Johnstone Strait (odd),Pink (Odd),,5
survey_execution,Fraser River (odd),Pink (Odd),,5
survey_execution,Georgia Strait (odd),Pink (Odd),,5
survey_execution,Hecate Strait-Fjords (odd),Pink (Odd),,3
survey_execution,Hecate Strait-Lowlands (odd),Pink (Odd),,3
survey_execution,Homathko-Klinaklini-Smith-Rivers-Bella Coola-Dean (odd),Pink (Odd),,1
survey_execution,Lower Skeena,Pink (Odd),,2
survey_execution,Middle-Upper Skeena,Pink (Odd),,2
survey_execution,Nahwitti (odd),Pink (Odd),,3
survey_execution,Nass-Skeena Estuary (odd),Pink (Odd),,3
survey_execution,Southern Fjords (odd),Pink (Odd),,2
survey_execution,West Vancouver Island (odd),Pink (Odd),,0
survey_execution,East Vancouver Island & Georgia Strait (river-type),River Sockeye,,0
survey_execution,Harrison River (river-type),River Sockeye,,5
survey_execution,Northern Coastal Fjords (river-type),River Sockeye,,0
survey_execution,Northern Coastal Streams (river-type),River Sockeye,,0
survey_execution,NW Vancouver Island (river-type),River Sockeye,,0
survey_execution,Rivers-Smith Inlets (river-type),River Sockeye,,0
survey_execution,Skeena River-High Interior (river-type),River Sockeye,,3
survey_execution,Skeena River (river-type),River Sockeye,,0
survey_execution,Southern Fjords (river-type),River Sockeye,,0
survey_execution,West Vancouver Island (river-type),River Sockeye,,0
survey_execution,Widgeon (river-type),River Sockeye,,0
survey_quality,Bella Coola-Bentinck,Chinook,,1
survey_quality,Boundary Bay (Fall 4-1),Chinook,,0
survey_quality,Dean River,Chinook,,1
survey_quality,Docee,Chinook,,0
survey_quality,East Vancouver Island-Cowichan and Koksilah (Fall x-1),Chinook,,5
survey_quality,East Vancouver Island-Georgia Strait (Summer 4-1),Chinook,,4
survey_quality,East Vancouver Island-Goldstream (Fall x-1),Chinook,,0
survey_quality,East Vancouver Island-Nanaimo (Spring x-2),Chinook,,0
survey_quality,East Vancouver Island-Nanaimo and Chemainus (Fall x-1),Chinook,,3
survey_quality,East Vancouver Island-North (Fall x-1),Chinook,,4
survey_quality,East Vancouver Island-Qualicum and Puntledge (Fall x-1),Chinook,,3
survey_quality,Ecstall,Chinook,,0
survey_quality,Middle Fraser-Fraser Canyon_SP_1.3,Chinook,,0
survey_quality,Homathko_SU_x.x,Chinook,,0
survey_quality,Kalum_early timing,Chinook,,0
survey_quality,Kalum_late timing,Chinook,,1
survey_quality,Klinaklini_SU_1.3,Chinook,,0
survey_quality,Lakelse,Chinook,,0
survey_quality,Maria Slough_SU_0.3,Chinook,,0
survey_quality,Lower Fraser River-Upper Pitt (Summer 5-2),Chinook,,0
survey_quality,Lower Fraser River (Fall 4-1),Chinook,,4
survey_quality,Lower Fraser River (Spring 5-2),Chinook,,2
survey_quality,Lower Fraser River (Summer 5-2),Chinook,,0
survey_quality,Lower Skeena,Chinook,,1
survey_quality,Lower Thompson (Spring 4-2),Chinook,,3
survey_quality,Middle Fraser River-Portage (Fall 5-2),Chinook,,0
survey_quality,Middle Fraser River (Spring 5-2),Chinook,,2
survey_quality,Middle Fraser River (Summer 5-2),Chinook,,3
survey_quality,Middle Skeena-Large Lakes,Chinook,,3
survey_quality,Middle Skeena-Mainstem Tributaries,Chinook,,1
survey_quality,North and Central Coast-early timing,Chinook,,0
survey_quality,North and Central Coast-late timing,Chinook,,0
survey_quality,North Thompson_SP_1.3,Chinook,,3
survey_quality,North Thompson_SU_1.3,Chinook,,2
survey_quality,Rivers Inlet,Chinook,,1
survey_quality,Shuswap River (Summer 4-1),Chinook,,4
survey_quality,Sicintine,Chinook,,0
survey_quality,Skeena Estuary,Chinook,,0
survey_quality,Upper Adams River_SU_x.x,Chinook,,0
survey_quality,South Thompson-Bessette Creek_SU_1.2,Chinook,,3
survey_quality,South Thompson (Summer 4-1),Chinook,,2
survey_quality,South Thompson (Summer 5-2),Chinook,,3
survey_quality,Southern Mainland-Georgia Strait (Fall x-1),Chinook,,0
survey_quality,Southern Mainland-Southern Fjords (Fall x-1),Chinook,,3
survey_quality,Upper Bulkley River,Chinook,,0
survey_quality,Upper Fraser River (Spring 5-2),Chinook,,2
survey_quality,Upper Skeena,Chinook,,0
survey_quality,Wannock,Chinook,,1
survey_quality,West Vancouver Island-Nootka and Kyuquot (Fall x-1),Chinook,,3
survey_quality,West Vancouver Island-North (Fall x-1),Chinook,,3
survey_quality,West Vancouver Island-South (Fall x-1),Chinook,,3
survey_quality,Zymoetz,Chinook,,0
survey_quality,Bella Coola-Dean Rivers,Chum,,1
survey_quality,Bella Coola River_late,Chum,,0
survey_quality,Bute Inlet,Chum,,0
survey_quality,Douglas-Gardner,Chum,,2
survey_quality,Georgia Strait,Chum,,3
survey_quality,Hecate Lowlands,Chum,,1
survey_quality,Howe Sound-Burrard Inlet,Chum,,0
survey_quality,Loughborough,Chum,,2
survey_quality,Lower Fraser,Chum,,3
survey_quality,Lower Skeena,Chum,,1
survey_quality,Middle Skeena,Chum,,2
survey_quality,Mussel-Kynoch,Chum,,1
survey_quality,Northeast Vancouver Island,Chum,,1
survey_quality,Northwest Vancouver Island,Chum,,2
survey_quality,Rivers Inlet,Chum,,1
survey_quality,Skeena Estuary,Chum,,0
survey_quality,Smith Inlet,Chum,,1
survey_quality,Southern Coastal Streams,Chum,,3
survey_quality,Southwest Vancouver Island,Chum,,3
survey_quality,Spiller-Fitz-Hugh-Burke,Chum,,1
survey_quality,Upper Knight,Chum,,0
survey_quality,Upper Skeena,Chum,,0
survey_quality,Wannock,Chum,,0
survey_quality,Bella Coola-Dean Rivers,Coho,,1
survey_quality,Boundary Bay,Coho,,0
survey_quality,Northern Coastal Streams,Coho,,0
survey_quality,Clayoquot,Coho,,3
survey_quality,Douglas Channel-Kitimat Arm,Coho,,0
survey_quality,East Vancouver Island-Georgia Strait,Coho,,3
survey_quality,East Vancouver Island-Johnstone Strait-Southern Fjords,Coho,,3
survey_quality,Fraser Canyon,Coho,,3
survey_quality,Georgia Strait Mainland,Coho,,3
survey_quality,Hecate Strait Mainland,Coho,,1
survey_quality,Homathko-Klinaklini Rivers,Coho,,0
survey_quality,Howe Sound-Burrard Inlet,Coho,,0
survey_quality,Interior Fraser,Coho,,3
survey_quality,Juan de Fuca-Pachena,Coho,,3
survey_quality,Lillooet,Coho,,0
survey_quality,Lower Fraser,Coho,,0
survey_quality,Lower Skeena,Coho,,1
survey_quality,Lower Thompson,Coho,,5
survey_quality,Middle Skeena,Coho,,1
survey_quality,Mussel-Kynoch,Coho,,1
survey_quality,Nahwitti Lowland,Coho,,4
survey_quality,North Thompson,Coho,,3
survey_quality,Northern Coastal Streams,Coho,,1
survey_quality,Rivers Inlet,Coho,,0
survey_quality,Skeena Estuary,Coho,,0
survey_quality,Smith Inlet,Coho,,1
survey_quality,South Thompson,Coho,,3
survey_quality,Southern Coastal Streams-Queen Charlotte Strait-Johnstone Strait-Southern Fjords,Coho,,3
survey_quality,Upper Skeena,Coho,,4
survey_quality,West Vancouver Island,Coho,,3
survey_quality,Adams and Momich Lakes_Early Summer,Lake Sockeye,,0
survey_quality,Alastair,Lake Sockeye,,1
survey_quality,Alice,Lake Sockeye,,0
survey_quality,Anderson-Seton-Early Summer,Lake Sockeye,,4
survey_quality,Asitika,Lake Sockeye,,0
survey_quality,Azuklotz,Lake Sockeye,,2
survey_quality,Babine Complex,Lake Sockeye,,2
survey_quality,Backland,Lake Sockeye,,0
survey_quality,Banks,Lake Sockeye,,0
survey_quality,Bear,Lake Sockeye,,1
survey_quality,Bloomfield,Lake Sockeye,,0
survey_quality,Bolton Creek,Lake Sockeye,,0
survey_quality,Bonilla,Lake Sockeye,,0
survey_quality,Borrowman Creek,Lake Sockeye,,0
survey_quality,Bowron-Early Summer,Lake Sockeye,,2
survey_quality,Bulkley,Lake Sockeye,,0
survey_quality,Busey Creek,Lake Sockeye,,0
survey_quality,Canoe Creek,Lake Sockeye,,0
survey_quality,Canoona,Lake Sockeye,,1
survey_quality,Cartwright Creek,Lake Sockeye,,0
survey_quality,Cecilia,Lake Sockeye,,0
survey_quality,Cheewat,Lake Sockeye,,0
survey_quality,Chic Chic,Lake Sockeye,,0
survey_quality,Chilko-Early Summer,Lake Sockeye,,0
survey_quality,Chilko-Summer,Lake Sockeye,,4
survey_quality,Chilliwack-Early Summer (cyclic),Lake Sockeye,,3
survey_quality,Citeyats,Lake Sockeye,,0
survey_quality,Clayoquot,Lake Sockeye,,0
survey_quality,Cultus-Late,Lake Sockeye,,5
survey_quality,Curtis Inlet,Lake Sockeye,,1
survey_quality,Dallain Creek,Lake Sockeye,,0
survey_quality,Damshilgwit,Lake Sockeye,,5
survey_quality,Deer,Lake Sockeye,,0
survey_quality,Deserted,Lake Sockeye,,0
survey_quality,Devon,Lake Sockeye,,1
survey_quality,Dome,Lake Sockeye,,0
survey_quality,Douglas Creek,Lake Sockeye,,0
survey_quality,Ecstall/Lower,Lake Sockeye,,0
survey_quality,Elizabeth,Lake Sockeye,,0
survey_quality,Elsie/Hoy,Lake Sockeye,,0
survey_quality,End Hill Creek,Lake Sockeye,,0
survey_quality,Evelyn,Lake Sockeye,,3
survey_quality,Evinrude Inlet,Lake Sockeye,,0
survey_quality,Fairy,Lake Sockeye,,0
survey_quality,Fannie Cove,Lake Sockeye,,0
survey_quality,Footsore/Hodder,Lake Sockeye,,0
survey_quality,Francois-Fraser-Summer,Lake Sockeye,,4
survey_quality,Freeda/Brodie,Lake Sockeye,,0
survey_quality,Fulmore,Lake Sockeye,,0
survey_quality,Kitwancool,Lake Sockeye,,3
survey_quality,Great Central,Lake Sockeye,,0
survey_quality,Harrison-Downstream Migrating-Late,Lake Sockeye,,3
survey_quality,Harrison-Upstream Migrating-Late,Lake Sockeye,,3
survey_quality,Hartley Bay,Lake Sockeye,,3
survey_quality,Henderson,Lake Sockeye,,5
survey_quality,Hesquiat,Lake Sockeye,,0
survey_quality,Hevenor Inlet,Lake Sockeye,,0
survey_quality,Heydon,Lake Sockeye,,0
survey_quality,Higgins Lagoon,Lake Sockeye,,0
survey_quality,Hobiton,Lake Sockeye,,0
survey_quality,Ida-Bonanza,Lake Sockeye,,0
survey_quality,Jansen,Lake Sockeye,,0
survey_quality,Johanson,Lake Sockeye,,0
survey_quality,Johnston,Lake Sockeye,,0
survey_quality,Kadjusdis River,Lake Sockeye,,0
survey_quality,Kainet Creek,Lake Sockeye,,1
survey_quality,Kakweiken,Lake Sockeye,,0
survey_quality,Kamloops-Early Summer,Lake Sockeye,,2
survey_quality,Kanim,Lake Sockeye,,0
survey_quality,Kdelmashan Creek,Lake Sockeye,,0
survey_quality,Keecha,Lake Sockeye,,1
survey_quality,Kennedy,Lake Sockeye,,0
survey_quality,Kent Inlet Lagoon Creek,Lake Sockeye,,0
survey_quality,Kenzuwash Creeks,Lake Sockeye,,0
survey_quality,Keswar Creek,Lake Sockeye,,0
survey_quality,Kildidt Creek,Lake Sockeye,,0
survey_quality,Kildidt Lagoon Creek,Lake Sockeye,,0
survey_quality,Kimsquit,Lake Sockeye,,0
survey_quality,Kisameet,Lake Sockeye,,0
survey_quality,Kitkiata,Lake Sockeye,,0
survey_quality,Kitlope,Lake Sockeye,,0
survey_quality,Kitsumkalum,Lake Sockeye,,1
survey_quality,Kluatantan,Lake Sockeye,,0
survey_quality,Kluayaz,Lake Sockeye,,0
survey_quality,Koeye,Lake Sockeye,,0
survey_quality,Kooryet,Lake Sockeye,,0
survey_quality,Kunsoot River,Lake Sockeye,,0
survey_quality,Kwakwa Creek,Lake Sockeye,,0
survey_quality,Lakelse,Lake Sockeye,,1
survey_quality,Lewis Creek,Lake Sockeye,,0
survey_quality,Lillooet-Harrison-Late,Lake Sockeye,,4
survey_quality,Limestone Creek,Lake Sockeye,,0
survey_quality,Long,Lake Sockeye,,1
survey_quality,Loose,Lake Sockeye,,0
survey_quality,Lowe/Simpson/Weare,Lake Sockeye,,0
survey_quality,Mackenzie,Lake Sockeye,,2
survey_quality,Maggie,Lake Sockeye,,0
survey_quality,Mary Cove Creek,Lake Sockeye,,0
survey_quality,Mcdonald Creek,Lake Sockeye,,0
survey_quality,Mcdonell,Lake Sockeye,,2
survey_quality,Mcloughlin,Lake Sockeye,,0
survey_quality,Megin,Lake Sockeye,,0
survey_quality,Mikado,Lake Sockeye,,0
survey_quality,Monckton Inlet Creek,Lake Sockeye,,0
survey_quality,Morice,Lake Sockeye,,3
survey_quality,Motase,Lake Sockeye,,2
survey_quality,Muchalat,Lake Sockeye,,0
survey_quality,Muriel,Lake Sockeye,,0
survey_quality,Nadina-Francois-Early Summer,Lake Sockeye,,4
survey_quality,Nahatlatch-Early Summer,Lake Sockeye,,2
survey_quality,Nahwitti,Lake Sockeye,,0
survey_quality,Namu,Lake Sockeye,,2
survey_quality,Nimpkish,Lake Sockeye,,4
survey_quality,Nitinat,Lake Sockeye,,0
survey_quality,North Barriere-Early Summer (de novo),Lake Sockeye,,3
survey_quality,O'Connell,Lake Sockeye,,0
survey_quality,Owikeno,Lake Sockeye,,1
survey_quality,Park River,Lake Sockeye,,0
survey_quality,Phillips,Lake Sockeye,,3
survey_quality,Pine River,Lake Sockeye,,0
survey_quality,Pitt-Early Summer,Lake Sockeye,,3
survey_quality,Port John,Lake Sockeye,,2
survey_quality,Power,Lake Sockeye,,0
survey_quality,Powles Creek,Lake Sockeye,,0
survey_quality,Price Creek,Lake Sockeye,,0
survey_quality,Quatse,Lake Sockeye,,0
survey_quality,Quesnel-Summer (cyclic),Lake Sockeye,,3
survey_quality,Roderick,Lake Sockeye,,1
survey_quality,Ryan Creek,Lake Sockeye,,0
survey_quality,Sakinaw,Lake Sockeye,,5
survey_quality,Salter,Lake Sockeye,,0
survey_quality,Schoen,Lake Sockeye,,0
survey_quality,Scoular/Kilpatrick,Lake Sockeye,,0
survey_quality,Seton_Late,Lake Sockeye,,0
survey_quality,Sheneeza Inlet,Lake Sockeye,,0
survey_quality,Ship Point Creek,Lake Sockeye,,0
survey_quality,Shushartie,Lake Sockeye,,0
survey_quality,Shuswap-Early Summer (cyclic),Lake Sockeye,,0
survey_quality,Shuswap Complex_Late,Lake Sockeye,,2
survey_quality,Sicintine,Lake Sockeye,,0
survey_quality,Slamgeesh,Lake Sockeye,,0
survey_quality,North and Central Coast-early timing,Lake Sockeye,,0
survey_quality,South Atnarko Lakes,Lake Sockeye,,1
survey_quality,Spawning,Lake Sockeye,,0
survey_quality,Spencer Creek,Lake Sockeye,,0
survey_quality,Sproat,Lake Sockeye,,0
survey_quality,Stannard Creek,Lake Sockeye,,0
survey_quality,Stephens,Lake Sockeye,,2
survey_quality,Sustut,Lake Sockeye,,0
survey_quality,Stephens,Lake Sockeye,,0
survey_quality,Tahlo/Morrison,Lake Sockeye,,0
survey_quality,Takla-Trembleur-Early Stuart (cyclic),Lake Sockeye,,3
survey_quality,Takla/Trembleur/Stuart_Summer,Lake Sockeye,,3
survey_quality,Talamoosa Creek,Lake Sockeye,,0
survey_quality,Tankeeah River,Lake Sockeye,,1
survey_quality,Taseko-Early Summer,Lake Sockeye,,2
survey_quality,Treneman Creek,Lake Sockeye,,0
survey_quality,Tsimtack Lakes,Lake Sockeye,,2
survey_quality,Tuno Creek East,Lake Sockeye,,0
survey_quality,Tuno Creek West,Lake Sockeye,,0
survey_quality,Tyler Creek,Lake Sockeye,,0
survey_quality,Tzoonie,Lake Sockeye,,0
survey_quality,Vernon,Lake Sockeye,,0
survey_quality,Wale Creek,Lake Sockeye,,0
survey_quality,Wannock[Owikeno],Lake Sockeye,,0
survey_quality,Watt Bay,Lake Sockeye,,0
survey_quality,West Creek,Lake Sockeye,,0
survey_quality,William-Brink,Lake Sockeye,,0
survey_quality,Woss,Lake Sockeye,,0
survey_quality,Yaaklele Lagoon,Lake Sockeye,,0
survey_quality,Yeo,Lake Sockeye,,0
survey_quality,Georgia Strait (even),Pink (Even),,4
survey_quality,Hecate Lowlands (even),Pink (Even),,0
survey_quality,Hecate Strait-Fjords (even),Pink (Even),,0
survey_quality,Middle-Upper Skeena (even),Pink (Even),,0
survey_quality,Nass-Skeena Estuary (even),Pink (Even),,0
survey_quality,Northwest Vancouver Island (even),Pink (Even),,0
survey_quality,Southern Fjords (even),Pink (Even),,3
survey_quality,West Vancouver Island (even),Pink (Even),,0
survey_quality,East Howe Sound-Burrard Inlet (odd),Pink (Odd),,0
survey_quality,East Vancouver Island-Johnstone Strait (odd),Pink (Odd),,3
survey_quality,Fraser River (odd),Pink (Odd),,5
survey_quality,Georgia Strait (odd),Pink (Odd),,3
survey_quality,Hecate Strait-Fjords (odd),Pink (Odd),,1
survey_quality,Hecate Strait-Lowlands (odd),Pink (Odd),,1
survey_quality,Homathko-Klinaklini-Smith-Rivers-Bella Coola-Dean (odd),Pink (Odd),,0
survey_quality,Lower Skeena,Pink (Odd),,1
survey_quality,Middle-Upper Skeena,Pink (Odd),,1
survey_quality,Nahwitti (odd),Pink (Odd),,5
survey_quality,Nass-Skeena Estuary (odd),Pink (Odd),,1
survey_quality,Southern Fjords (odd),Pink (Odd),,3
survey_quality,West Vancouver Island (odd),Pink (Odd),,0
survey_quality,East Vancouver Island & Georgia Strait (river-type),River Sockeye,,0
survey_quality,Harrison River (river-type),River Sockeye,,4
survey_quality,Northern Coastal Fjords (river-type),River Sockeye,,0
survey_quality,Northern Coastal Streams (river-type),River Sockeye,,0
survey_quality,NW Vancouver Island (river-type),River Sockeye,,0
survey_quality,Rivers-Smith Inlets (river-type),River Sockeye,,0
survey_quality,Skeena River-High Interior (river-type),River Sockeye,,1
survey_quality,Skeena River (river-type),River Sockeye,,0
survey_quality,Southern Fjords (river-type),River Sockeye,,0
survey_quality,West Vancouver Island (river-type),River Sockeye,,0
survey_quality,Widgeon (river-type),River Sockeye,,0
